Spe 0 took 0.31ms
0.352107724780416131427074333260
1.338604230695221719571463836473
2.031930435424288639012502244441
3.538065060958718532901912112720
3.825878741494181944915453641443
4.730331235628295161177447880618
5.894266224897946493399558676174
6.919309597630051378303051023977
5.958704990767941467311175074428
7.732882683410315927119427215075
10.035258299321446529006607306655
12.514791959804862031546690559480
13.311264163790690773225833254401
16.157727940473812111576989991590
16.362708652728962022138148313388
17.609747685158662733329038019292
20.652337576141711394939193269238
22.694653056806632918096511275508
21.680068887043773884215625002980
24.384714817349955495728863752447
26.775577705700037256519863149151
29.193879939859730399120962829329
29.865883853097631828177327406593
31.151682733588032192528771702200
33.726689258290214468161138938740
33.328849126116260492835863260552
35.771700704543512472355359932408
37.237236437827121449117839802057
38.682370873531546351387078175321
39.795501745654817682407156098634
40.980463957673237018752843141556
43.465904187537866221191507065669
43.614303860067060725214105332270
43.742674165422130272418144159019
46.917828355568396148100873688236
46.033869896567537693954363930970
46.615112683806863458357838680968
48.633632613556656565378943923861
50.681377266403693226948234951124
50.655579310255035352383856661618
52.323033139050764361854817252606
52.172058187658443273448938271031
51.928839278340639395992184290662
53.438047140803313084234105190262
54.832247372522253670013014925644
54.201541810825851541721931425855
54.548696311970701344762346707284
56.824403532145204565040330635384
57.116349654569027904926770133898
56.527020841535701833890925627202
57.465082862363871640809520613402
56.502321595399301656925672432408
56.377445950834392363049119012430
57.182522025037364699073805240914
58.553129674237936796998837962747
57.825357778984880496864207088947
57.871029801325825303592864656821
58.677010718099850805629102978855
57.397802166589713124267291277647
57.171484997017678608699497999623
56.059789997963349605925031937659
58.205509345249502928254514699802
56.327625018080226482197758741677
55.020845509665008421507081948221
55.358862783031156595825450494885
55.640210655925443461455870419741
54.305679620181948052959342021495
54.407629433174143684937007492408
52.693133121849299982386582996696
52.647469653008265311200375435874
51.636872739739871462916198652238
52.177819500599433411025529494509
50.455717331809225356664683204144
48.249612016241819389961165143177
48.562234816371734780204860726371
47.728582040757189020041550975293
46.376511924058732461162435356528
44.879096417283641073936450993642
44.242551875339572120537923183292
42.898350438882197011025709798560
42.848142546415878939569665817544
40.704859749737337892838695552200
39.802027227301486789201589999720
38.111770663476697507121571106836
37.235330928711995568392012501135
35.661174483452214190037921071053
34.141342978249234363374853273854
32.254311593548258940700179664418
29.765444582182158939076543902047
28.810513748306796344422764377668
28.416381852299849697374156676233
25.710160022168373927797802025452
24.527566015596566018075463944115
22.995782838243481904783038771711
21.221948749239416542877734173089
19.822299948306149275367715745233
17.698273026300817889477912103757
16.235655217207419553915315191261
12.430816251162312369160645175725
12.322455298326044470513807027601
10.318098304791860186924168374389
8.376299049968038090696609287988
7.542935750918144499621575960191
4.532737701810167330052081524627
4.178174869897670618001939146779
3.403540618863855282683061886928
1.367868987972057359669975085126
-1.110312891350197395112786580285
-3.470841492669915595570273580961
-5.197086550946744765155926870648
-7.251136064361133115596658171853
-8.357227563297138672737673914526
-9.813251516851892120030242949724
-12.483192223449778524013709102292
-13.701561927128507178963445767295
-13.738312267797672561187027895357
-15.625439596538342357234796509147
-19.328054228206831055558723164722
-20.069387304660853743598636356182
-21.929204504987605872656786232255
-24.067134194522409984529076609761
-24.879739952155134119493595790118
-26.981483277416021593353434582241
-28.210925191075155282760533737019
-29.195810238315960560839812387712
-30.246088493983748435312008950859
-30.901672070858694496564567089081
-34.344354287149911897358833812177
-35.210981641630247906959993997589
-35.244520698570184435993724036962
-38.870234164963036960216413717717
-39.503608502503922750292986165732
-41.132031936690253814958850853145
-40.686734705558841085348831256852
-42.179316558234518197423312813044
-43.791996959191003213618387235329
-43.458697087424695837398758158088
-46.592574997673878556270210538059
-47.143987150081372305976401548833
-47.356725024420313729933695867658
-49.943807237881159721837320830673
-50.957886418684090301667310995981
-51.392932519083345255239692050964
-50.331466314867995492932095658034
-52.832487432682732730881980387494
-53.963229258398705212584900436923
-52.719230010767205385491251945496
-55.220473351750065660326072247699
-53.930609748454116925131529569626
-55.250992670034243303689436288550
-56.044840481280971289379522204399
-56.664970463976246151105442550033
-56.641778587819949564163835020736
-56.413277339078746308587142266333
-58.160396159910050073449383489788
-57.984526239951286186169454595074
-58.046129031269877884824381908402
-57.237202405641404823199991369620
-57.009454588132818741996743483469
-58.917114647439007057982962578535
-57.751614536348341744087520055473
-56.686774172822836703744542319328
-56.207998097031271811374608660117
-57.023862638319840812073380220681
-56.882700120502541096811910392717
-56.350808602947253689308126922697
-56.197589997951254758845607284456
-55.143814663782293905569531489164
-54.735231373722655234814737923443
-55.737942925187432763323158724234
-53.263748570305473606367741012946
-51.817419125569358584471046924591
-51.083335372856218725701182847843
-51.763060346872933337181166280061
-50.815986795592372970986616564915
-49.554654789574463791268499335274
-47.527108671817373419798968825489
-46.812743207751168483810033649206
-46.283080188131997090295044472441
-46.137648310533151629897474776953
-44.030635696712579374434426426888
-42.980347431379009037755167810246
-42.901744964708228735617012716830
-41.302425654860940085200127214193
-40.784780582663110237717773998156
-38.449949934077444879676477285102
-36.391627224193712208943907171488
-34.652757214053217182936350582168
-34.480246382515659320233680773526
-33.914044839998950919834896922112
-31.771162238041988246095570502803
-30.190902749417407591181472525932
-28.698732274746934223230709903874
-27.039136852041384173617188935168
-25.265758019313746984835233888589
-23.538076996912966620811857865192
-22.200245558038510296228196239099
-21.614845494215035870411156793125
-18.812616386206929774971285951324
-17.576598414924841762285723234527
-15.582913399181382629876679857261
-13.025618346138905678799346787855
-12.209323382879507136067331884988
-9.498786726313639405816502403468
-8.555785296058150635190031607635
-7.006277535712770010434269352118
-5.724681549345803865946891164640
-3.875461139795440601574227912351
-1.453772306830891425377672021568
0.812834217670676761891002115590
2.252551272519195624255416987580
4.444790141727640531144061242230
5.283265607089508542060229956405
8.686365519529244849650240212213
9.287992084892717770117087638937
9.303452726127352079288357344922
11.624442644415792003087517514359
14.716751229374429144058922247496
14.945835826541964408420426480006
18.712300272834561098989070160314
19.378077709888934521131886867806
20.364392463849306125212024198845
23.077327346523784257215083925985
24.400374077061663058429985539988
26.834941999514182242592141847126
26.089862028090681889125335146673
28.363161030558671882317867130041
30.767045232823530653831767267548
31.034310380622926572868891526014
33.521271958457383277618646388873
34.523110717935871605277498019859
35.633790341525930500665708677843
37.403370234551346129592275246978
38.596459857436101970051822718233
40.054882115027638178617053199559
41.344353753679222052141994936392
42.763383416104467471541283885017
43.818623555227155463853705441579
44.734499805787905302167928311974
45.385202594394961295165558112785
47.104605242963884847995359450579
47.591649698973959914383158320561
49.046926140748361433452373603359
50.134883785995455696138378698379
50.638300808932690699748491169885
51.595275867108817635653394972906
51.885761117712213774666452081874
52.863738557018685071398067520931
53.925777864293316099519870476797
53.290485897466197684479993768036
55.426895932641180309019546257332
55.688358910814699243019276764244
55.681193990014932637677702587098
55.760306370479057136435585562140
56.414839127631104531701566884294
55.892512741402853748695633839816
55.967808000189968709037202643231
57.368238507003894710578606463969
57.399758910859674188031931407750
57.218860436088100129836675478145
57.508682807058676189626567065716
57.323830297764764907242351910099
56.883320614349230481820995919406
57.242110103828480305310222320259
57.345512693012032912065478740260
55.645720384142670411620201775804
55.774946794747329192887264071032
56.863667992247854954257491044700
56.225765194976752070488146273419
55.139187402765870160692429635674
53.483737172106309287755721015856
54.028817400564115303041035076603
53.291438038443111224751191912219
52.758366873058740509350172942504
52.761331985918083375963760772720
51.256447207135344967809942318127
50.920751393565645059879898326471
49.322439341060864137489261338487
50.049227744061283829068997874856
47.160024571062606923987914342433
45.652899661276265419473929796368
46.583035207955184375805401941761
44.925009289842279258664348162711
42.867377067781667676626966567710
43.129307186514289185197412734851
42.001362293608565323665970936418
41.453240752585308825928223086521
38.414611211550813152371119940653
38.422069702104394650632457341999
37.194101195391731096151488600299
34.761232375492937762828660197556
33.371492418495265042110986541957
32.537558677583128030619263881817
30.157117607237321266211438341998
29.617127204479540836246087565087
27.390860482583025969915979658253
26.573837908843071176079320139252
25.600304868225524757008315646090
23.543542448692114987807144643739
22.481023330261244552730204304680
19.860129354339818519292748533189
17.030671775278324986402367358096
16.249208593914154619142209412530
14.043631102734901006101608800236
12.933727523006812276662458316423
10.681231119354320568959337833803
9.447642743472854931496840436012
8.776350171246781073364218173083
7.343551983557081719311554479646
4.713856212382594890186737757176
1.788434675992791600407372243353
-0.595635711522693789277127507376
-1.550917444823758373217970074620
-2.943492523349424239142990700202
-4.424299471721768739485014521051
-6.541441225087023525475160568021
-8.830297889334993044485599966720
-10.190851931494151472179510165006
-10.450768638681740441143119824119
-13.403208956726285094873674097471
-15.987332963269548002926967456006
-18.284006526922322422024080879055
-18.496118384329431449941694154404
-20.075241231189291823966414085589
-21.865842678075718907848568051122
-22.804409366366858336050427169539
-26.111915896880848464434166089632
-28.007140267634643038263675407507
-27.788420502529699973592869355343
-28.312074352703600510494652553461
-31.311250069323744327220993000083
-33.870964754101628102489485172555
-34.223159940128240918966184835881
-35.473965793762339160366536816582
-36.642304306224986021334188990295
-38.281013166821836080089269671589
-39.637217856163111662226583575830
-41.650441473856538721065589925274
-41.713511451378003869194799335673
-41.627068280451140935838338918984
-44.264747410362765833724552066997
-45.225102023030601117170590441674
-46.872710037009596817370038479567
-48.183407892515106141217984259129
-47.231456261055178913466079393402
-49.851075590917453439487871946767
-49.758251246760323738271836191416
-50.968147184543568073422648012638
-51.437216596879721919322037138045
-53.380477548459083436682703904808
-53.074124909993734888757899170741
-53.723941537074118457439908524975
-54.008421945944419917395862285048
-56.327739911494930424851190764457
-53.987681221496963246408995473757
-55.967003045932251836802606703714
-57.118250616929273633104457985610
-56.476242234400750419354153564200
-56.285755464832234906680241692811
-57.761138788085951034645404433832
-57.646542257260520614181587006897
-57.596693841230532484587456565350
-58.299015636670716844491835217923
-56.744499233793675330161931924522
-56.171087138811763850299030309543
-56.314755181671955597266787663102
-58.715164048701282695219560991973
-56.558647077998983832003432326019
-55.381011517570641444763168692589
-56.378513844406796806651982478797
-56.585619412441005238179059233516
-56.248416021245169815756526077166
-55.961762854845318315710755996406
-53.954049115461344854338676668704
-52.696946185576670984573866007850
-52.075764950064566960463707800955
-53.883158816720374773012736113742
-51.312198421976837892088951775804
-50.700620435973505095716973301023
-50.488295920982750430994201451540
-49.142446641986943234314821893349
-48.912566897237354623939609155059
-46.731928214465845883296424290165
-46.908535285622519950265996158123
-43.796430135295629781921888934448
-42.952708415008686415603733621538
-43.127452367448249503922852454707
-40.172599608973008855627995217219
-41.080573862493153569630521815270
-39.682539696114723426489945268258
-36.656495365150931320386007428169
-36.048303996810240334980335319415
-35.596825504869109124683745903894
-33.830370547005180981159355724230
-31.920327851899923388145907665603
-30.226391759665574454629677347839
-29.097283923456686238750990014523
-26.833936060851918625758116832003
-27.683070921058174462814349681139
-26.015923505517040581480614491738
-22.302361839229494222536231973208
-20.720839819133768600067924126051
-20.063499196304448446426249574870
-18.727682085710561921132466522977
-16.848583295729461895007261773571
-14.872582553992172549328643071931
-13.585773374293690807235179818235
-11.583709936822591757277223223355
-10.534974301864620471747002738994
-8.219914491690577307281273533590
-5.830645178323531574449134495808
-3.197885736208623708165532661951
-2.586110855325145063687841684441
-1.464871827537973292265860436601
0.412452796373327157386512453741
2.871763569907165525307846110081
3.860754945576595709155753866071
5.716834767106651504775527428137
8.671162608881950006889383075759
8.903069096118560565855659660883
10.610958701380567958949541207403
12.474477589869312765813447185792
14.325496594198215305482335679699
15.848639328168168560750928008929
17.080023947305804199459089431912
19.936211620406201205923935049213
20.936703993925796396524674491957
22.256696707918607103238173294812
25.500374096897690634477839921601
25.223662284285154555618646554649
26.432232481961211334464678657241
27.618699446829669597036627237685
29.971742736787710725820943480358
32.414745166703177403633162612095
32.610700148592343339259969070554
35.133227364703245143573440145701
35.479424446975727391873078886420
37.723130751011339611977746244520
39.160098214370357538882672088221
41.051459637157812210261909058318
41.827515898800044169547618366778
42.706934527432387938006286276504
43.848635797680010739441058831289
45.141130473763318775581865338609
45.696612093275078336773731280118
47.047407802027549905687919817865
48.358233053501287201925151748583
49.555808736949600756815925706178
49.771102237660869604951585642993
51.944694687179463699067127890885
51.727094988272042996868549380451
52.716161617159400520904455333948
52.806825416031820452644751640037
53.302911075449003419635118916631
53.932396003887923541242344072089
54.296328608471768006893398705870
55.647638166260179559685639105737
55.405132778286450445648370077834
55.676699637178586499430821277201
56.811175395265955501145072048530
57.268182831684832478913449449465
57.556551562706921743028942728415
56.620426549206818833681609248742
57.800659709839571576139860553667
57.148016950552651849193352973089
57.212917211971259234815079253167
57.955236884655903395469067618251
56.775271013100955030949990032241
57.293217774369367134568165056407
56.844567128654922782970970729366
57.535352403852897396063781343400
57.662557392691965674202947411686
56.633629185740751665889547439292
56.067071657153803698747651651502
54.766548053548135044366063084453
55.215599781801472545339493080974
54.837235922537068688598083099350
53.151405056213405941889504902065
52.765659319360800338927219854668
51.291089167793145975338120479137
50.883226947332701683990308083594
50.838146353485775819081027293578
51.002614931788073704410635400563
47.723844508621169779871706850827
46.712118186565568578316742787138
47.463687161727278862599632702768
44.660427574428005925710749579594
45.359582910444252945580956293270
43.284168972011016762735380325466
42.066860348560588533928239485249
40.864213238591730714688310399652
40.620718712621133761331293499097
39.180925651552861666004901053384
35.817760524814225675527268322185
35.480365534451166809049027506262
35.399162003582105739951657596976
32.956564861784414688372635282576
33.254413362371316509324969956651
29.898095812418592487347268615849
29.548697818864031461316699278541
27.228355366348509392082632984966
26.519316428214914083127951016650
24.305693262572479085292798117734
22.310861598107713632543891435489
21.176658278069560026324325008318
20.026501288330443628638022346422
18.346028159045410177441226551309
15.557840061967622702354674402159
13.941356984391912732235141447745
12.327993614159121094075999280903
10.414996608836437630429827549960
9.011471086713807920887120417319
6.999344771489189653834728233051
4.791631201513301796524046949344
3.941515117768610299009424124961
2.291699319554585390079637363669
-0.414834729254555556465788868081
-1.971916802199491280944698701205
-2.967512353803763769377610515221
-5.125787843401751864291782112559
-6.993270208137811749793399940245
-8.259593290869512216545444971416
-11.005103214066469519138991017826
-13.100933679802164277816700632684
-13.276379753641489145365994772874
-14.449315532153793384395612520166
-17.803075669165774996827167342417
-17.929600026105180887725509819575
-21.025285442732773333318618824705
-21.828112880517700489235721761361
-23.370816134758786830616372753866
-25.256646396463594328452018089592
-27.029074302727750023223052266985
-29.473684435553941796115395845845
-30.426947455807102471680991584435
-30.325000841406691165502707008272
-33.509999322070378013904701219872
-35.191071260203251824805192882195
-36.828034061122494335904775653034
-37.315729252623775380470760865137
-37.507670717571897966990945860744
-39.847561357522728542335244128481
-41.804275236250539649063284741715
-43.165103169909528446623880881816
-45.488130898144049751863349229097
-44.476205877308167657702142605558
-45.658965594471716542557260254398
-47.191018673968265773055463796481
-48.364870438757485260339308297262
-48.918359533398515281987783964723
-48.303035575801594347922218730673
-50.013361937290788716836686944589
-51.749177794310291744750429643318
-51.840649998131659970113105373457
-53.695004580661297666210884926841
-53.278219799669010114939737832174
-52.750832577082448437977291177958
-54.769118277440476560968818375841
-56.611133748923187170021265046671
-55.527650874781130596602451987565
-55.368697916622274135534098604694
-56.149642051424393685010727494955
-56.457430722776713594157627085224
-57.314139308282364027036237530410
-56.718585839440244456000073114410
-57.472703855348335366670653456822
-56.187899810633133768078550929204
-58.078895875416868932461511576548
-58.323683807524744793227000627667
-57.506389412898464286172384163365
-57.400061321156265137233276618645
-58.100861008735087409604602726176
-57.386950326447049519629217684269
-57.095399738945751266783190658316
-56.537386502017184852775244507939
-55.687942666921998124962556175888
-54.148082324471822346367844147608
-54.235495171152550142323889303952
-54.978413930688162736259982921183
-53.458795951985642602721782168373
-53.717685296032257724618830252439
-54.054746514894461029143712949008
-52.682327416796169927692972123623
-50.418818316344378160920314257964
-50.348904270731978272124251816422
-48.358311014055956889023946132511
-47.627663284365979734502616338432
-46.594507945388137670761352637783
-47.054524059961373438909504329786
-44.092273063941185284875245997682
-44.435006790800628095894353464246
-43.891444585070772177459730301052
-42.097385496351506617429549805820
-40.034336645717836233870912110433
-37.952148895985637011563085252419
-37.254838404889525804719596635550
-37.170173208598079384046286577359
-34.817129055652401348197599872947
-33.562018653499102072146342834458
-31.629427652233673029513738583773
-31.128610593379068660624398034997
-29.906405568416264628694989369251
-27.347549444415950148368210648187
-26.499280135120471868503955192864
-23.800796930296662878845381783321
-22.709764198316165106916741933674
-21.514843340593678533423371845856
-19.439201753115511905889434274286
-18.484438151871589894881253712811
-16.652506696203886349394451826811
-14.770055300431453204623721831013
-13.714283352907546742471822653897
-10.682608184959301311778290255461
-9.659107265908023265410520252772
-7.457488088722065810998174129054
-5.134477899959312807709466142114
-4.385678788141698092317710688803
-1.428601100777752375137197304866
-1.774520761639529986553043272579
0.508284826584599724874635739980
3.263637009463836946565606922377
5.156112605479703958621939818840
6.884246234154417720674246083945
8.561634968033740022974598105066
9.443891799442294399113961844705
12.007352346433460610342081054114
13.300827404265783471259965153877
15.978825970916616938666265923530
15.452688705588050410710820870008
18.637448697071246073164729750715
20.462876855536308084992924705148
22.739275420404382543893007095903
22.403279362985113465356334927492
24.783494438099740619918520678766
25.827573804422993219986892654561
27.231983474214420226644506328739
29.769451789513492911964931408875
30.649882939032043083216194645502
30.639811821883522924281351151876
34.040376046074165117261145496741
36.190267808834548191043722908944
36.632883682788424550835770787671
36.663640136354153753472928656265
39.657525144227925295581371756271
41.614556505398851982135965954512
41.943359907930378938090143492445
41.990313350047912877016642596573
42.762047257036165603949484648183
44.735433515525954817348974756896
46.415493512203831016904587158933
47.529792465616303331898961914703
48.706039154215154951543809147552
49.360732279309182501947361743078
49.864777110207015198284352663904
52.410539730406803471396415261552
52.840214753400289282581070438027
51.659713710629247884753567632288
53.243293246831008502795157255605
53.588578285370417120248021092266
54.458312190438370237188792089000
54.605564462164842609581683063880
56.224941504119662738503393484280
55.261102450054366386211768258363
54.548155596196536976094648707658
56.532971700112305768470832845196
57.306704875439670843206840800121
56.912787484041977847937232581899
58.581426388820581507843598956242
57.389462767098841311508294893429
56.684728287594488449485652381554
57.443615843104581131228769663721
58.092777305810542998187884222716
56.249303998655072689416556386277
55.754755363415959834583190968260
55.935065296747360719109565252438
57.132503547513529440493584843352
57.106510139903484457590820966288
55.649489177937972783638542750850
56.526544184088933775456098373979
54.663358563181624560911586740986
54.910777274981064977055211784318
54.271340106766608357702352805063
54.561413016315825075253087561578
52.414157267702016440580337075517
51.731682818267344714513455983251
51.001606800329618351952376542613
51.031904316098113838506833417341
49.285296346945671075445716269314
48.961577064218992916266870452091
47.338097176285820921748381806538
47.002675858645361017806862946600
45.972164899136764404374844161794
44.765838812928492984610784333199
43.202055770399731216002692235634
42.279518723464249774224299471825
39.944009588088128737126680789515
40.090808444965482237876130966470
38.831460766358567582301475340500
37.956073887158623847426497377455
35.146040382518897615682362811640
34.934381456810172039695316925645
33.083132515094710868197580566630
30.400794677661910014876411878504
30.039017019403633668162001413293
27.878116259559025280623245635070
25.910467054220667648678499972448
24.856105413400758408215551753528
25.618453708615366082312903017737
22.812216301800454232306947233155
20.179727411009366733196657150984
19.668573099991956354415378882550
16.554822730841383560118629247881
15.517480336635729898375757329632
13.245628487456164279478798562195
11.184774763847945777683889900800
9.121799341079578127278182364535
7.753165177455875856082911923295
8.508071392461310722410416929051
4.473345374462996737463527097134
2.655436193207786121917024502181
2.180136970880586666510225768434
-0.124029448410922504830722346014
-2.320680279896479625278971070657
-4.324916315254624166186658840161
-5.982039619502699245856547349831
-7.995136063057419306687734206207
-9.367925705988300322246686846483
-11.248957959249342053453801781870
-13.754647218739407321663748007268
-15.004728596649176353139409911819
-16.087977533131848417724540922791
-18.167267261821724133596944739111
-19.367268487141327426570569514297
-20.958145853080718978844743105583
-23.991425274130495637336935033090
-24.988480156970823031770123634487
-26.774155690868209234167807153426
-27.143992508204782154734857613221
-29.581589807896591537428321316838
-30.326625156794651871905443840660
-33.026266032520005921924166614190
-34.132069017930831478224718011916
-35.044305217507769611984258517623
-35.721865196888082039095024811104
-38.764579578308087093319045379758
-38.938692243050134322857047664002
-40.178074313228080427506938576698
-41.002224781045512713717471342534
-41.916398614354257290415262104943
-43.173895609415431806610286002979
-45.533600691310596175753744319081
-46.628462144579160053581290412694
-48.465135523669317763051367364824
-47.031054059512023002298519713804
-49.569403975261693062748236116022
-50.953969462384243627184332581237
-50.697556332571700465905450982973
-52.279780899216312661792471772060
-52.324982288920331541248742723837
-53.437278541571870960069645661861
-54.066706050119876181270228698850
-56.045740221236414413397142197937
-54.717936592038071808019594755024
-55.918663641018618193356815027073
-56.291356773522466028225608170033
-57.601495191250279503947240300477
-57.687661265696611678777117049322
-57.878062145751911771185405086726
-57.634736660223786941514845238999
-57.649231492550896405191451776773
-56.582407707765362658847152488306
-58.111562877772819035726570291445
-55.392359045743255308025254635140
-59.079221434342919394566706614569
-57.448981911803308264552470063791
-57.799345885540468259478075196967
-58.006682879609400060871848836541
-57.758891841300560088257043389603
-56.774894726945063894163467921317
-56.472336923289034871231706347317
-54.720200278335347832125989953056
-54.723393446915693516530154738575
-53.387008203594888300358434207737
-55.210415618752278987813042476773
-53.195104765842167182654520729557
-54.121787339214677103882422670722
-52.510072160353480796857184031978
-51.672898375296149708901793928817
-50.020737319598786996266426285729
-50.290104296074915168901497963816
-49.254278676807466297304927138612
-47.124098510355409530347969848663
-46.153533990148474686066037975252
-45.926825570468864157192001584917
-43.896646667150271525770222069696
-43.436983070710816434711887268350
-42.778780057010031612207967555150
-41.115761132108019637598772533238
-39.604007163630193133485590806231
-39.090672644018276571387104922906
-38.233757963687885705894586862996
-35.988464226168090931423648726195
-34.832241742907363857284508412704
-33.680526950509104722186748404056
-30.690678451972800644398375879973
-29.365126809032911836538914940320
-29.353393193232019342531202710234
-27.978445550850377543383729062043
-26.300778826313944591674953699112
-23.781466515295090147219525533728
-23.612638539834392759075853973627
-21.785455833154212967883722740225
-19.126201301311461122622858965769
-17.845756950588050671058226726018
-16.027423000053726553915112162940
-14.746638339224547920025543135125
-13.055583491438543575213770964183
-11.712589774431984679381457681302
-10.060345297472981229702782002278
-7.006574823794585071823348698672
-6.381067303341636076652321207803
-4.217546294795923245146695990115
-1.235503019825512582841042785731
-0.793647252225362587196855201910
-0.142213004297002870712773869855
2.881453344738341915132195936167
4.753204094992979023004409100395
5.993626841152728701445084880106
7.139553184297610322062155319145
10.452238125915556565814767964184
11.739517041161718680086778476834
13.735524758382215537722004228272
15.215824649713079352864042448346
17.272718672325886757334956200793
18.751571488293848233297467231750
20.952236332467137458479555789381
22.213947777191599186608073068783
23.665443057141342109161996631883
25.376295081802322073372124577872
26.472803776622512827998434659094
27.519509065954746773741135257296
29.605200489346984227267967071384
30.969579166203477171848135185428
33.760393787979957380684936651960
34.327987782853362830337573541328
34.886796087584436065753834554926
37.471086286400066001078812405467
38.395347506778279011996346525848
40.147908360279359385458519682288
40.223379246911427742361411219463
42.021822445956523495169676607475
41.952447475141084964889159891754
44.390202885239943952910834923387
45.523941816605500321202271152288
45.971833911215078671830269740894
46.821316471403491732417023740709
49.582261338352083157587912864983
48.535155724654387654481979552656
49.363254847582652473647613078356
51.508811877269835122206131927669
51.521642828898770005707774544135
51.418352641392893076499603921548
52.796725970562150109799404162914
54.924361544192336737069126684219
54.497495799497770008201769087464
55.010947720975714503310882719234
56.372657986297625143379264045507
54.586755230371537095379608217627
55.105548436222235864079266320914
56.447760421292521471059444593266
56.194546564874279681589541723952
56.627172399364710031477443408221
56.777126980921494237009028438479
57.696134882818647326985228573903
58.184882716420176507199357729405
57.933689491651954028839099919423
56.767238131834318437540787272155
56.452686888773470741398341488093
56.573661504533490074209112208337
56.565743981912795845801156247035
57.081880947597944953031401382759
55.249762392202555361109261866659
55.640739772726888645593135152012
54.398649170597167312735109589994
56.094002839433912299682560842484
54.813221769906348868062195833772
52.876246979973920758766325889155
51.973609491138610394500574329868
52.620175225361244031319074565545
51.871767965712031411840143846348
50.846687242665836947708157822490
49.755579023570945196297543589026
49.674322444195382786347181536257
48.918305489456535894987609935924
48.481615245166835848067421466112
46.020954537737893019766488578171
45.717962537828285007890372071415
43.215110883879290781806048471481
42.668876213098741345675080083311
41.688044400585127391423156950623
39.703360076264502254161925520748
40.697195341858993344885675469413
40.025868409284029780792479868978
38.005870248920750498200504807755
35.283022847650620690274081425741
33.942959679485845470026106340811
32.443118770047561838509864173830
31.461004104310717366388416849077
29.036794000280035987771043437533
27.387412884487986275416915304959
25.292383214661057877492567058653
25.592875427648930752866363036446
24.696921821212292513791908277199
22.590039274407789804399726563133
20.405056275404611199064675020054
18.435375311051206637102950480767
15.664643168142525553321320330724
15.181196282020113841326747206040
13.764098785797990842638682806864
11.026856489065179900421753700357
8.076119740573965088969998760149
7.744872317207958545282053819392
6.449465690976859733041237632278
5.881772966847564454440089320997
3.808187757817657725922799727414
2.311681814085286390536566614173
-0.835678223105254636138283785840
-2.646036488817929299699471812346
-3.901998430542193307957177239587
-5.763106705296562992657527502161
-8.373527460439488478982639207970
-9.694009345067344796120778482873
-11.058720672720523836574102460872
-12.100227744603520463329004996922
-13.156427549135228716181700292509
-15.615144212174220328392948431429
-17.606679556616256832057842984796
-19.516484803483852061845027492382
-22.022017164681944478843433898874
-22.776708706799958292776864254847
-24.897045657203317858829905162565
-26.923078801958762795720758731477
-27.349096992547622164693166268989
-29.519874260425659429074585204944
-29.391359087710437592022572061978
-32.478288865823195408211176982149
-33.674111365532397144306742120534
-34.716659600173834121505933580920
-36.991785173400934638721082592383
-37.807916950005051148764323443174
-39.475197717819142440021096263081
-40.348179141558361493480333592743
-41.249963365479501931076811160892
-43.087553720469358609079790767282
-44.578489260251643599985982291400
-44.184609439064296054766600718722
-47.506762379711567234608082799241
-46.749284641782999472070514457300
-48.455412151411280774482293054461
-49.268044965401557533368759322912
-49.913743245109252200109040131792
-50.202230302703497955008060671389
-51.852731528916827130615274654701
-52.322178714654477005296939751133
-53.932133164706058892079454381019
-53.834106966173202124537056079134
-55.558228845448802246664854465052
-53.792065346509879475433990592137
-54.842243141444932064132444793358
-55.637678751541557176096830517054
-56.131988013747964316735306056216
-55.801902869826747632941987831146
-57.617500649712930282930756220594
-57.475731928752232136048405664042
-57.217198932426228452641225885600
-57.574032086352175952015386428684
-57.027006899880220203158387448639
-57.280267010730987919941981090233
-57.565983898889435010914894519374
-57.158900824332164347651996649802
-57.602162759451402962440624833107
-57.184050003449513610576104838401
-58.606382933809548774206632515416
-57.373417610392600352042791200802
-56.589924963517972855697735212743
-54.770397454754061072890181094408
-54.679992322432141804711136501282
-55.493112521107462953295907936990
-55.851068000446431938144087325782
-52.925570256508351008051249664277
-52.658874395363113762869033962488
-51.229728754571176807530719088390
-51.219188277281801902063307352364
-51.409570329539228339399414835498
-50.422909544584342711459612473845
-47.111612497409815603077731793746
-47.484304182331420918217190774158
-45.985054668578683845225896220654
-46.791469810556066022400045767426
-44.376877360048965215355565305799
-42.768040153173728867841418832541
-41.198642669526080339892359916121
-40.219444268707299272591626504436
-41.141058317314517012164287734777
-39.811743274407902504208323080093
-37.030921246799508139702084008604
-35.316616153894685226077854167670
-33.610991721401205722941085696220
-33.367008862305432614903111243621
-32.411542572317330268560908734798
-29.983220716466309596626160782762
-28.947841640239229121789321652614
-27.751848558840645608825070667081
-25.593480696218559700128025724553
-24.123062418576687093718646792695
-23.291975667602017097124189604074
-19.871729011176149981565686175600
-19.862629980641099081140055204742
-16.932645961105656340350833488628
-16.252200255936255501865161932074
-13.945388960580922699250550067518
-12.483819632163626778265097527765
-10.959365001632136227271985262632
-7.905152050357370008271118422272

Difference between calculated and reference values:
0.000000000000000888178419700125
-0.000000000000001776356839400250
0.000000000000001332267629550188
-0.000000000000008437694987151190
-0.000000000000001776356839400250
-0.000000000000015099033134902129
0.000000000000003552713678800501
-0.000000000000001776356839400250
-0.000000000000011546319456101628
-0.000000000000006217248937900877
0.000000000000053290705182007514
0.000000000000037303493627405260
0.000000000000008881784197001252
-0.000000000000010658141036401503
0.000000000000039079850466805510
0.000000000000035527136788005009
-0.000000000000010658141036401503
-0.000000000000031974423109204508
0.000000000000024868995751603507
0.000000000000046185277824406512
0.000000000000063948846218409017
-0.000000000000031974423109204508
-0.000000000000031974423109204508
-0.000000000000031974423109204508
-0.000000000000014210854715202004
0.000000000000042632564145606011
-0.000000000000014210854715202004
-0.000000000000021316282072803006
-0.000000000000049737991503207013
-0.000000000000014210854715202004
-0.000000000000035527136788005009
-0.000000000000063948846218409017
0.000000000000042632564145606011
-0.000000000000028421709430404007
0.000000000000007105427357601002
-0.000000000000035527136788005009
0.000000000000035527136788005009
0.000000000000042632564145606011
0.000000000000007105427357601002
-0.000000000000035527136788005009
0.000000000000035527136788005009
-0.000000000000042632564145606011
0.000000000000063948846218409017
-0.000000000000014210854715202004
0.000000000000049737991503207013
0.000000000000049737991503207013
0.000000000000000000000000000000
-0.000000000000106581410364015028
-0.000000000000127897692436818033
0.000000000000000000000000000000
0.000000000000028421709430404007
0.000000000000000000000000000000
0.000000000000007105427357601002
0.000000000000035527136788005009
0.000000000000063948846218409017
0.000000000000021316282072803006
-0.000000000000028421709430404007
-0.000000000000149213974509621039
-0.000000000000113686837721616030
0.000000000000021316282072803006
0.000000000000049737991503207013
0.000000000000000000000000000000
-0.000000000000028421709430404007
-0.000000000000007105427357601002
0.000000000000042632564145606011
-0.000000000000042632564145606011
-0.000000000000049737991503207013
-0.000000000000042632564145606011
0.000000000000000000000000000000
0.000000000000035527136788005009
0.000000000000028421709430404007
0.000000000000063948846218409017
-0.000000000000028421709430404007
-0.000000000000021316282072803006
-0.000000000000035527136788005009
0.000000000000014210854715202004
-0.000000000000035527136788005009
0.000000000000056843418860808015
0.000000000000028421709430404007
0.000000000000000000000000000000
0.000000000000021316282072803006
-0.000000000000035527136788005009
0.000000000000014210854715202004
0.000000000000000000000000000000
0.000000000000007105427357601002
-0.000000000000014210854715202004
-0.000000000000035527136788005009
0.000000000000042632564145606011
0.000000000000042632564145606011
0.000000000000003552713678800501
-0.000000000000049737991503207013
0.000000000000024868995751603507
0.000000000000035527136788005009
0.000000000000017763568394002505
-0.000000000000017763568394002505
-0.000000000000049737991503207013
-0.000000000000017763568394002505
-0.000000000000021316282072803006
-0.000000000000012434497875801753
0.000000000000055067062021407764
0.000000000000039079850466805510
0.000000000000001776356839400250
-0.000000000000004440892098500626
-0.000000000000007105427357601002
-0.000000000000000888178419700125
-0.000000000000015099033134902129
0.000000000000002664535259100376
-0.000000000000002664535259100376
0.000000000000005773159728050814
0.000000000000015099033134902129
0.000000000000003552713678800501
0.000000000000008881784197001252
-0.000000000000007105427357601002
-0.000000000000021316282072803006
0.000000000000007105427357601002
-0.000000000000026645352591003757
0.000000000000042632564145606011
0.000000000000031974423109204508
-0.000000000000046185277824406512
0.000000000000007105427357601002
0.000000000000010658141036401503
0.000000000000035527136788005009
0.000000000000021316282072803006
-0.000000000000046185277824406512
-0.000000000000039079850466805510
0.000000000000049737991503207013
-0.000000000000007105427357601002
0.000000000000014210854715202004
-0.000000000000049737991503207013
-0.000000000000014210854715202004
0.000000000000035527136788005009
0.000000000000021316282072803006
-0.000000000000042632564145606011
0.000000000000042632564145606011
0.000000000000021316282072803006
0.000000000000000000000000000000
-0.000000000000007105427357601002
-0.000000000000021316282072803006
-0.000000000000028421709430404007
0.000000000000014210854715202004
0.000000000000056843418860808015
-0.000000000000007105427357601002
-0.000000000000056843418860808015
-0.000000000000007105427357601002
0.000000000000035527136788005009
0.000000000000007105427357601002
0.000000000000007105427357601002
-0.000000000000035527136788005009
0.000000000000014210854715202004
0.000000000000042632564145606011
-0.000000000000028421709430404007
0.000000000000042632564145606011
0.000000000000049737991503207013
-0.000000000000056843418860808015
0.000000000000049737991503207013
0.000000000000085265128291212022
-0.000000000000021316282072803006
0.000000000000007105427357601002
0.000000000000021316282072803006
-0.000000000000092370555648813024
0.000000000000042632564145606011
0.000000000000035527136788005009
-0.000000000000028421709430404007
-0.000000000000056843418860808015
-0.000000000000056843418860808015
0.000000000000056843418860808015
-0.000000000000042632564145606011
-0.000000000000007105427357601002
-0.000000000000042632564145606011
-0.000000000000170530256582424045
-0.000000000000028421709430404007
-0.000000000000042632564145606011
0.000000000000021316282072803006
-0.000000000000063948846218409017
-0.000000000000028421709430404007
-0.000000000000035527136788005009
-0.000000000000028421709430404007
-0.000000000000028421709430404007
0.000000000000000000000000000000
-0.000000000000049737991503207013
-0.000000000000021316282072803006
0.000000000000007105427357601002
0.000000000000028421709430404007
0.000000000000042632564145606011
0.000000000000007105427357601002
0.000000000000042632564145606011
0.000000000000014210854715202004
0.000000000000014210854715202004
-0.000000000000042632564145606011
0.000000000000049737991503207013
-0.000000000000010658141036401503
0.000000000000007105427357601002
-0.000000000000067501559897209518
-0.000000000000014210854715202004
0.000000000000046185277824406512
-0.000000000000031974423109204508
0.000000000000010658141036401503
0.000000000000035527136788005009
0.000000000000028421709430404007
0.000000000000042632564145606011
-0.000000000000017763568394002505
0.000000000000005329070518200751
0.000000000000007105427357601002
0.000000000000000000000000000000
0.000000000000000000000000000000
-0.000000000000009769962616701378
0.000000000000003552713678800501
0.000000000000010658141036401503
0.000000000000001332267629550188
0.000000000000001221245327087672
0.000000000000004440892098500626
0.000000000000009769962616701378
0.000000000000001776356839400250
-0.000000000000005329070518200751
-0.000000000000007105427357601002
0.000000000000007105427357601002
0.000000000000008881784197001252
-0.000000000000028421709430404007
0.000000000000035527136788005009
0.000000000000039079850466805510
-0.000000000000035527136788005009
-0.000000000000007105427357601002
0.000000000000014210854715202004
0.000000000000035527136788005009
0.000000000000017763568394002505
0.000000000000017763568394002505
0.000000000000028421709430404007
-0.000000000000031974423109204508
-0.000000000000024868995751603507
0.000000000000014210854715202004
0.000000000000028421709430404007
-0.000000000000028421709430404007
-0.000000000000042632564145606011
0.000000000000000000000000000000
-0.000000000000035527136788005009
-0.000000000000021316282072803006
0.000000000000035527136788005009
0.000000000000042632564145606011
-0.000000000000007105427357601002
0.000000000000035527136788005009
0.000000000000014210854715202004
0.000000000000042632564145606011
0.000000000000035527136788005009
0.000000000000042632564145606011
0.000000000000007105427357601002
-0.000000000000014210854715202004
-0.000000000000014210854715202004
0.000000000000014210854715202004
-0.000000000000014210854715202004
0.000000000000000000000000000000
0.000000000000021316282072803006
-0.000000000000099475983006414026
0.000000000000063948846218409017
0.000000000000042632564145606011
-0.000000000000007105427357601002
-0.000000000000056843418860808015
0.000000000000028421709430404007
-0.000000000000092370555648813024
0.000000000000028421709430404007
-0.000000000000099475983006414026
0.000000000000021316282072803006
-0.000000000000063948846218409017
0.000000000000071054273576010019
0.000000000000021316282072803006
-0.000000000000035527136788005009
-0.000000000000071054273576010019
-0.000000000000028421709430404007
-0.000000000000156319401867222041
0.000000000000049737991503207013
-0.000000000000071054273576010019
-0.000000000000007105427357601002
-0.000000000000014210854715202004
-0.000000000000014210854715202004
-0.000000000000042632564145606011
0.000000000000014210854715202004
-0.000000000000042632564145606011
-0.000000000000042632564145606011
0.000000000000035527136788005009
0.000000000000014210854715202004
-0.000000000000007105427357601002
0.000000000000035527136788005009
0.000000000000014210854715202004
0.000000000000021316282072803006
0.000000000000035527136788005009
0.000000000000014210854715202004
0.000000000000035527136788005009
-0.000000000000007105427357601002
-0.000000000000014210854715202004
0.000000000000007105427357601002
-0.000000000000028421709430404007
-0.000000000000035527136788005009
0.000000000000035527136788005009
-0.000000000000028421709430404007
-0.000000000000021316282072803006
-0.000000000000039079850466805510
-0.000000000000024868995751603507
0.000000000000028421709430404007
-0.000000000000024868995751603507
-0.000000000000014210854715202004
0.000000000000056843418860808015
-0.000000000000017763568394002505
-0.000000000000024868995751603507
0.000000000000046185277824406512
-0.000000000000001776356839400250
-0.000000000000012434497875801753
-0.000000000000021316282072803006
-0.000000000000005329070518200751
0.000000000000008881784197001252
-0.000000000000001776356839400250
0.000000000000005329070518200751
-0.000000000000001554312234475219
0.000000000000018762769116165146
0.000000000000008437694987151190
0.000000000000004440892098500626
-0.000000000000000888178419700125
0.000000000000013322676295501878
0.000000000000003552713678800501
0.000000000000051514348342607263
0.000000000000040856207306205761
-0.000000000000014210854715202004
-0.000000000000051514348342607263
0.000000000000021316282072803006
0.000000000000031974423109204508
-0.000000000000007105427357601002
0.000000000000017763568394002505
-0.000000000000042632564145606011
-0.000000000000053290705182007514
0.000000000000042632564145606011
0.000000000000000000000000000000
0.000000000000000000000000000000
-0.000000000000056843418860808015
0.000000000000028421709430404007
0.000000000000042632564145606011
-0.000000000000063948846218409017
-0.000000000000014210854715202004
0.000000000000035527136788005009
0.000000000000014210854715202004
0.000000000000035527136788005009
0.000000000000007105427357601002
-0.000000000000056843418860808015
-0.000000000000035527136788005009
0.000000000000000000000000000000
0.000000000000000000000000000000
0.000000000000007105427357601002
-0.000000000000021316282072803006
-0.000000000000049737991503207013
0.000000000000021316282072803006
-0.000000000000028421709430404007
0.000000000000021316282072803006
-0.000000000000014210854715202004
0.000000000000035527136788005009
0.000000000000021316282072803006
0.000000000000021316282072803006
0.000000000000028421709430404007
-0.000000000000035527136788005009
-0.000000000000049737991503207013
0.000000000000071054273576010019
-0.000000000000049737991503207013
0.000000000000035527136788005009
-0.000000000000049737991503207013
0.000000000000120792265079217032
0.000000000000035527136788005009
0.000000000000014210854715202004
-0.000000000000021316282072803006
-0.000000000000035527136788005009
-0.000000000000042632564145606011
0.000000000000085265128291212022
-0.000000000000014210854715202004
-0.000000000000056843418860808015
0.000000000000000000000000000000
0.000000000000106581410364015028
-0.000000000000028421709430404007
0.000000000000021316282072803006
0.000000000000042632564145606011
-0.000000000000028421709430404007
-0.000000000000035527136788005009
-0.000000000000028421709430404007
0.000000000000035527136788005009
0.000000000000007105427357601002
0.000000000000049737991503207013
0.000000000000042632564145606011
-0.000000000000042632564145606011
0.000000000000042632564145606011
0.000000000000021316282072803006
0.000000000000028421709430404007
-0.000000000000014210854715202004
0.000000000000049737991503207013
0.000000000000007105427357601002
-0.000000000000049737991503207013
0.000000000000021316282072803006
0.000000000000028421709430404007
-0.000000000000056843418860808015
0.000000000000007105427357601002
-0.000000000000021316282072803006
0.000000000000024868995751603507
-0.000000000000024868995751603507
-0.000000000000014210854715202004
0.000000000000017763568394002505
-0.000000000000024868995751603507
0.000000000000039079850466805510
-0.000000000000007105427357601002
-0.000000000000031974423109204508
-0.000000000000053290705182007514
-0.000000000000039079850466805510
-0.000000000000039079850466805510
-0.000000000000026645352591003757
-0.000000000000008881784197001252
-0.000000000000008881784197001252
0.000000000000021316282072803006
0.000000000000007105427357601002
0.000000000000001776356839400250
0.000000000000003552713678800501
-0.000000000000004884981308350689
-0.000000000000006661338147750939
0.000000000000000832667268468867
-0.000000000000015543122344752192
-0.000000000000015543122344752192
-0.000000000000011546319456101628
0.000000000000000000000000000000
0.000000000000008881784197001252
0.000000000000031974423109204508
-0.000000000000012434497875801753
-0.000000000000015987211554602254
0.000000000000031974423109204508
-0.000000000000003552713678800501
0.000000000000000000000000000000
0.000000000000003552713678800501
-0.000000000000007105427357601002
0.000000000000010658141036401503
0.000000000000046185277824406512
-0.000000000000010658141036401503
0.000000000000031974423109204508
-0.000000000000010658141036401503
0.000000000000021316282072803006
-0.000000000000042632564145606011
-0.000000000000042632564145606011
-0.000000000000028421709430404007
-0.000000000000042632564145606011
0.000000000000042632564145606011
-0.000000000000014210854715202004
0.000000000000056843418860808015
0.000000000000014210854715202004
-0.000000000000014210854715202004
-0.000000000000021316282072803006
0.000000000000021316282072803006
0.000000000000049737991503207013
0.000000000000014210854715202004
0.000000000000000000000000000000
0.000000000000028421709430404007
0.000000000000035527136788005009
0.000000000000056843418860808015
0.000000000000000000000000000000
-0.000000000000021316282072803006
0.000000000000000000000000000000
-0.000000000000021316282072803006
0.000000000000035527136788005009
0.000000000000021316282072803006
0.000000000000049737991503207013
0.000000000000014210854715202004
0.000000000000042632564145606011
-0.000000000000035527136788005009
0.000000000000078159700933611020
-0.000000000000021316282072803006
0.000000000000028421709430404007
-0.000000000000049737991503207013
-0.000000000000056843418860808015
0.000000000000099475983006414026
0.000000000000042632564145606011
0.000000000000035527136788005009
-0.000000000000021316282072803006
-0.000000000000099475983006414026
0.000000000000035527136788005009
0.000000000000049737991503207013
-0.000000000000007105427357601002
-0.000000000000035527136788005009
0.000000000000028421709430404007
0.000000000000028421709430404007
-0.000000000000007105427357601002
0.000000000000000000000000000000
-0.000000000000042632564145606011
0.000000000000000000000000000000
0.000000000000021316282072803006
0.000000000000028421709430404007
0.000000000000028421709430404007
0.000000000000028421709430404007
0.000000000000021316282072803006
-0.000000000000007105427357601002
-0.000000000000049737991503207013
-0.000000000000014210854715202004
0.000000000000014210854715202004
-0.000000000000028421709430404007
-0.000000000000035527136788005009
0.000000000000035527136788005009
-0.000000000000028421709430404007
-0.000000000000063948846218409017
-0.000000000000007105427357601002
-0.000000000000014210854715202004
-0.000000000000014210854715202004
0.000000000000007105427357601002
-0.000000000000031974423109204508
-0.000000000000010658141036401503
-0.000000000000014210854715202004
0.000000000000021316282072803006
-0.000000000000014210854715202004
0.000000000000039079850466805510
0.000000000000056843418860808015
-0.000000000000010658141036401503
-0.000000000000023092638912203256
-0.000000000000012434497875801753
-0.000000000000021316282072803006
-0.000000000000037303493627405260
-0.000000000000007105427357601002
-0.000000000000009769962616701378
-0.000000000000001776356839400250
-0.000000000000000444089209850063
0.000000000000004440892098500626
-0.000000000000014432899320127035
0.000000000000001332267629550188
-0.000000000000006217248937900877
0.000000000000001776356839400250
-0.000000000000007993605777301127
-0.000000000000007105427357601002
-0.000000000000030198066269804258
-0.000000000000035527136788005009
-0.000000000000010658141036401503
-0.000000000000007105427357601002
-0.000000000000024868995751603507
-0.000000000000017763568394002505
-0.000000000000028421709430404007
0.000000000000000000000000000000
-0.000000000000014210854715202004
-0.000000000000007105427357601002
0.000000000000049737991503207013
0.000000000000042632564145606011
0.000000000000003552713678800501
-0.000000000000007105427357601002
-0.000000000000021316282072803006
0.000000000000049737991503207013
-0.000000000000007105427357601002
-0.000000000000021316282072803006
0.000000000000000000000000000000
0.000000000000028421709430404007
0.000000000000042632564145606011
0.000000000000028421709430404007
-0.000000000000049737991503207013
-0.000000000000035527136788005009
0.000000000000014210854715202004
-0.000000000000035527136788005009
-0.000000000000014210854715202004
0.000000000000014210854715202004
-0.000000000000007105427357601002
-0.000000000000014210854715202004
-0.000000000000007105427357601002
-0.000000000000042632564145606011
0.000000000000000000000000000000
0.000000000000007105427357601002
-0.000000000000049737991503207013
0.000000000000078159700933611020
0.000000000000085265128291212022
0.000000000000028421709430404007
-0.000000000000028421709430404007
0.000000000000092370555648813024
0.000000000000014210854715202004
-0.000000000000135003119794419035
0.000000000000042632564145606011
0.000000000000035527136788005009
0.000000000000035527136788005009
0.000000000000071054273576010019
0.000000000000042632564145606011
-0.000000000000035527136788005009
-0.000000000000035527136788005009
-0.000000000000014210854715202004
-0.000000000000049737991503207013
-0.000000000000149213974509621039
-0.000000000000014210854715202004
0.000000000000099475983006414026
0.000000000000021316282072803006
-0.000000000000049737991503207013
-0.000000000000035527136788005009
0.000000000000042632564145606011
-0.000000000000042632564145606011
-0.000000000000035527136788005009
-0.000000000000028421709430404007
-0.000000000000021316282072803006
-0.000000000000021316282072803006
0.000000000000056843418860808015
-0.000000000000021316282072803006
0.000000000000035527136788005009
-0.000000000000028421709430404007
-0.000000000000014210854715202004
0.000000000000028421709430404007
-0.000000000000028421709430404007
0.000000000000007105427357601002
0.000000000000035527136788005009
0.000000000000035527136788005009
0.000000000000028421709430404007
-0.000000000000021316282072803006
0.000000000000000000000000000000
0.000000000000000000000000000000
-0.000000000000028421709430404007
-0.000000000000031974423109204508
-0.000000000000035527136788005009
-0.000000000000049737991503207013
-0.000000000000028421709430404007
-0.000000000000035527136788005009
-0.000000000000035527136788005009
-0.000000000000021316282072803006
0.000000000000010658141036401503
-0.000000000000010658141036401503
-0.000000000000014210854715202004
-0.000000000000046185277824406512
-0.000000000000053290705182007514
0.000000000000001776356839400250
0.000000000000012434497875801753
-0.000000000000004440892098500626
0.000000000000002664535259100376
-0.000000000000001776356839400250
-0.000000000000007549516567451064
-0.000000000000009992007221626409
0.000000000000001221245327087672
-0.000000000000007105427357601002
0.000000000000015987211554602254
0.000000000000002664535259100376
0.000000000000000000000000000000
-0.000000000000003552713678800501
0.000000000000039079850466805510
0.000000000000015987211554602254
-0.000000000000017763568394002505
-0.000000000000049737991503207013
0.000000000000053290705182007514
-0.000000000000007105427357601002
0.000000000000017763568394002505
-0.000000000000014210854715202004
0.000000000000060396132539608516
0.000000000000007105427357601002
-0.000000000000021316282072803006
0.000000000000007105427357601002
0.000000000000056843418860808015
-0.000000000000021316282072803006
0.000000000000035527136788005009
0.000000000000049737991503207013
-0.000000000000021316282072803006
0.000000000000049737991503207013
0.000000000000078159700933611020
0.000000000000049737991503207013
0.000000000000021316282072803006
-0.000000000000014210854715202004
0.000000000000035527136788005009
0.000000000000042632564145606011
-0.000000000000028421709430404007
0.000000000000000000000000000000
-0.000000000000056843418860808015
0.000000000000014210854715202004
-0.000000000000014210854715202004
0.000000000000000000000000000000
0.000000000000014210854715202004
-0.000000000000049737991503207013
-0.000000000000007105427357601002
-0.000000000000014210854715202004
0.000000000000028421709430404007
0.000000000000056843418860808015
-0.000000000000063948846218409017
0.000000000000035527136788005009
-0.000000000000035527136788005009
-0.000000000000007105427357601002
-0.000000000000071054273576010019
0.000000000000021316282072803006
0.000000000000021316282072803006
-0.000000000000042632564145606011
0.000000000000014210854715202004
0.000000000000021316282072803006
-0.000000000000042632564145606011
0.000000000000028421709430404007
0.000000000000042632564145606011
0.000000000000042632564145606011
-0.000000000000127897692436818033
0.000000000000014210854715202004
0.000000000000127897692436818033
-0.000000000000135003119794419035
-0.000000000000021316282072803006
0.000000000000035527136788005009
-0.000000000000007105427357601002
-0.000000000000028421709430404007
-0.000000000000014210854715202004
0.000000000000056843418860808015
-0.000000000000021316282072803006
-0.000000000000014210854715202004
0.000000000000028421709430404007
0.000000000000007105427357601002
-0.000000000000021316282072803006
0.000000000000035527136788005009
-0.000000000000063948846218409017
0.000000000000007105427357601002
-0.000000000000028421709430404007
0.000000000000049737991503207013
-0.000000000000028421709430404007
0.000000000000014210854715202004
0.000000000000035527136788005009
-0.000000000000021316282072803006
0.000000000000000000000000000000
0.000000000000028421709430404007
-0.000000000000014210854715202004
-0.000000000000010658141036401503
-0.000000000000031974423109204508
-0.000000000000024868995751603507
0.000000000000031974423109204508
0.000000000000042632564145606011
0.000000000000035527136788005009
-0.000000000000053290705182007514
0.000000000000031974423109204508
0.000000000000042632564145606011
0.000000000000017763568394002505
-0.000000000000030198066269804258
0.000000000000035527136788005009
0.000000000000055067062021407764
0.000000000000012434497875801753
0.000000000000014210854715202004
0.000000000000008881784197001252
0.000000000000003552713678800501
-0.000000000000006217248937900877
0.000000000000003552713678800501
0.000000000000004510281037539698
-0.000000000000000444089209850063
-0.000000000000006217248937900877
-0.000000000000010658141036401503
-0.000000000000000888178419700125
0.000000000000000000000000000000
0.000000000000042632564145606011
0.000000000000007105427357601002
-0.000000000000023092638912203256
-0.000000000000053290705182007514
0.000000000000024868995751603507
0.000000000000028421709430404007
0.000000000000017763568394002505
-0.000000000000003552713678800501
0.000000000000021316282072803006
0.000000000000010658141036401503
-0.000000000000017763568394002505
-0.000000000000007105427357601002
0.000000000000053290705182007514
0.000000000000007105427357601002
0.000000000000028421709430404007
-0.000000000000028421709430404007
-0.000000000000021316282072803006
-0.000000000000014210854715202004
0.000000000000035527136788005009
-0.000000000000021316282072803006
0.000000000000014210854715202004
-0.000000000000042632564145606011
0.000000000000028421709430404007
-0.000000000000007105427357601002
0.000000000000056843418860808015
0.000000000000014210854715202004
0.000000000000021316282072803006
-0.000000000000007105427357601002
0.000000000000042632564145606011
0.000000000000000000000000000000
0.000000000000014210854715202004
0.000000000000028421709430404007
-0.000000000000028421709430404007
-0.000000000000021316282072803006
0.000000000000113686837721616030
-0.000000000000028421709430404007
0.000000000000021316282072803006
0.000000000000063948846218409017
-0.000000000000021316282072803006
-0.000000000000085265128291212022
0.000000000000113686837721616030
-0.000000000000014210854715202004
-0.000000000000106581410364015028
-0.000000000000035527136788005009
0.000000000000120792265079217032
-0.000000000000042632564145606011
0.000000000000120792265079217032
0.000000000000007105427357601002
-0.000000000000028421709430404007
-0.000000000000099475983006414026
0.000000000000056843418860808015
-0.000000000000035527136788005009
-0.000000000000163424829224823043
0.000000000000049737991503207013
-0.000000000000007105427357601002
-0.000000000000014210854715202004
0.000000000000078159700933611020
-0.000000000000035527136788005009
-0.000000000000021316282072803006
-0.000000000000021316282072803006
-0.000000000000049737991503207013
-0.000000000000014210854715202004
0.000000000000014210854715202004
-0.000000000000035527136788005009
0.000000000000007105427357601002
-0.000000000000028421709430404007
-0.000000000000035527136788005009
-0.000000000000028421709430404007
0.000000000000014210854715202004
0.000000000000028421709430404007
0.000000000000021316282072803006
-0.000000000000007105427357601002
-0.000000000000021316282072803006
-0.000000000000014210854715202004
-0.000000000000007105427357601002
-0.000000000000035527136788005009
0.000000000000007105427357601002
0.000000000000000000000000000000
0.000000000000010658141036401503
0.000000000000017763568394002505
-0.000000000000021316282072803006
-0.000000000000056843418860808015
-0.000000000000010658141036401503
-0.000000000000007105427357601002
0.000000000000014210854715202004
-0.000000000000039079850466805510
-0.000000000000049737991503207013
0.000000000000024868995751603507
0.000000000000047961634663806763
-0.000000000000056843418860808015
-0.000000000000015987211554602254
-0.000000000000019539925233402755
0.000000000000005329070518200751
0.000000000000006217248937900877
0.000000000000003552713678800501
-0.000000000000007327471962526033
0.000000000000004551914400963142
-0.000000000000017125190154843040
0.000000000000007993605777301127
-0.000000000000008881784197001252
0.000000000000000888178419700125
0.000000000000009769962616701378
0.000000000000042632564145606011
-0.000000000000019539925233402755
-0.000000000000015987211554602254
0.000000000000021316282072803006
0.000000000000014210854715202004
-0.000000000000049737991503207013
-0.000000000000039079850466805510
0.000000000000000000000000000000
-0.000000000000042632564145606011
-0.000000000000021316282072803006
-0.000000000000014210854715202004
0.000000000000053290705182007514
0.000000000000014210854715202004
0.000000000000021316282072803006
0.000000000000042632564145606011
0.000000000000035527136788005009
-0.000000000000035527136788005009
0.000000000000035527136788005009
0.000000000000021316282072803006
0.000000000000042632564145606011
-0.000000000000028421709430404007
-0.000000000000021316282072803006
0.000000000000014210854715202004
-0.000000000000042632564145606011
0.000000000000000000000000000000
0.000000000000021316282072803006
0.000000000000007105427357601002
0.000000000000014210854715202004
0.000000000000014210854715202004
-0.000000000000049737991503207013
-0.000000000000035527136788005009
0.000000000000028421709430404007
0.000000000000007105427357601002
0.000000000000049737991503207013
-0.000000000000035527136788005009
0.000000000000028421709430404007
-0.000000000000014210854715202004
-0.000000000000028421709430404007
-0.000000000000035527136788005009
-0.000000000000035527136788005009
-0.000000000000021316282072803006
-0.000000000000078159700933611020
-0.000000000000007105427357601002
0.000000000000007105427357601002
-0.000000000000049737991503207013
-0.000000000000078159700933611020
-0.000000000000056843418860808015
-0.000000000000021316282072803006
-0.000000000000071054273576010019
0.000000000000007105427357601002
0.000000000000007105427357601002
-0.000000000000042632564145606011
0.000000000000042632564145606011
0.000000000000014210854715202004
0.000000000000035527136788005009
-0.000000000000113686837721616030
-0.000000000000049737991503207013
-0.000000000000021316282072803006
-0.000000000000007105427357601002
0.000000000000056843418860808015
-0.000000000000028421709430404007
-0.000000000000035527136788005009
-0.000000000000042632564145606011
0.000000000000014210854715202004
-0.000000000000035527136788005009
-0.000000000000035527136788005009
0.000000000000007105427357601002
0.000000000000014210854715202004
0.000000000000007105427357601002
0.000000000000056843418860808015
-0.000000000000028421709430404007
0.000000000000000000000000000000
0.000000000000007105427357601002
-0.000000000000028421709430404007
-0.000000000000049737991503207013
-0.000000000000021316282072803006
-0.000000000000042632564145606011
0.000000000000035527136788005009
-0.000000000000017763568394002505
-0.000000000000035527136788005009
0.000000000000014210854715202004
-0.000000000000056843418860808015
-0.000000000000031974423109204508
0.000000000000007105427357601002
0.000000000000010658141036401503
-0.000000000000010658141036401503
-0.000000000000007105427357601002
-0.000000000000024868995751603507
-0.000000000000014210854715202004
0.000000000000008881784197001252
0.000000000000019539925233402755
-0.000000000000005329070518200751
-0.000000000000008881784197001252
0.000000000000010658141036401503
0.000000000000005329070518200751
0.000000000000012434497875801753
0.000000000000003552713678800501
-0.000000000000012323475573339238
-0.000000000000010658141036401503
-0.000000000000006661338147750939
-0.000000000000007105427357601002
0.000000000000008881784197001252
-0.000000000000005329070518200751
0.000000000000023092638912203256
0.000000000000021316282072803006
0.000000000000028421709430404007
0.000000000000019539925233402755
-0.000000000000042632564145606011
-0.000000000000046185277824406512
-0.000000000000056843418860808015
-0.000000000000042632564145606011
0.000000000000017763568394002505
-0.000000000000035527136788005009
0.000000000000021316282072803006
0.000000000000060396132539608516
0.000000000000039079850466805510
-0.000000000000007105427357601002
0.000000000000000000000000000000
-0.000000000000063948846218409017
0.000000000000035527136788005009
0.000000000000049737991503207013
0.000000000000042632564145606011
-0.000000000000035527136788005009
0.000000000000000000000000000000
-0.000000000000042632564145606011
0.000000000000042632564145606011
-0.000000000000007105427357601002
0.000000000000063948846218409017
0.000000000000000000000000000000
-0.000000000000021316282072803006
0.000000000000056843418860808015
0.000000000000049737991503207013
0.000000000000000000000000000000
0.000000000000028421709430404007
-0.000000000000021316282072803006
0.000000000000056843418860808015
0.000000000000000000000000000000
0.000000000000000000000000000000
-0.000000000000021316282072803006
0.000000000000035527136788005009
-0.000000000000042632564145606011
-0.000000000000035527136788005009
0.000000000000049737991503207013
0.000000000000028421709430404007
-0.000000000000071054273576010019
0.000000000000028421709430404007
-0.000000000000021316282072803006
0.000000000000021316282072803006
-0.000000000000014210854715202004
0.000000000000035527136788005009
-0.000000000000035527136788005009
0.000000000000000000000000000000
0.000000000000014210854715202004
0.000000000000049737991503207013
-0.000000000000099475983006414026
-0.000000000000028421709430404007
-0.000000000000035527136788005009
0.000000000000042632564145606011
-0.000000000000035527136788005009
0.000000000000028421709430404007
-0.000000000000049737991503207013
0.000000000000014210854715202004
-0.000000000000021316282072803006
0.000000000000000000000000000000
-0.000000000000071054273576010019
0.000000000000042632564145606011
0.000000000000014210854715202004
0.000000000000021316282072803006
-0.000000000000014210854715202004
-0.000000000000035527136788005009
-0.000000000000035527136788005009
0.000000000000028421709430404007
-0.000000000000021316282072803006
0.000000000000000000000000000000
0.000000000000014210854715202004
0.000000000000000000000000000000
0.000000000000007105427357601002
-0.000000000000014210854715202004
0.000000000000007105427357601002
0.000000000000035527136788005009
0.000000000000028421709430404007
0.000000000000010658141036401503
0.000000000000028421709430404007
0.000000000000046185277824406512
-0.000000000000039079850466805510
-0.000000000000014210854715202004
0.000000000000017763568394002505
-0.000000000000049737991503207013
0.000000000000000000000000000000
-0.000000000000042632564145606011
-0.000000000000046185277824406512
0.000000000000023092638912203256
0.000000000000026645352591003757
0.000000000000035527136788005009
0.000000000000000000000000000000
Average difference between calculated and reference values: 0.000000000000028582754110599573
Minimum difference: 0.000000000000000000000000000000	Maximum difference: 0.000000000000170530256582424045
