Version 4
SHEET 1 880 680
WIRE 64 -192 -288 -192
WIRE 176 -192 64 -192
WIRE 224 -192 176 -192
WIRE 352 -192 224 -192
WIRE 400 -192 352 -192
WIRE 512 -192 400 -192
WIRE 400 -176 400 -192
WIRE 352 -160 352 -192
WIRE 64 -112 64 -192
WIRE 176 -112 176 -192
WIRE 352 -112 320 -112
WIRE 224 -96 224 -192
WIRE 512 -80 512 -192
WIRE 512 -80 480 -80
WIRE 560 -80 512 -80
WIRE 560 -64 560 -80
WIRE 512 -48 512 -80
WIRE 32 0 -64 0
WIRE 64 0 64 -48
WIRE 64 0 32 0
WIRE 80 0 64 0
WIRE 176 0 176 -32
WIRE 176 0 80 0
WIRE 400 0 400 -96
WIRE 480 0 400 0
WIRE 512 0 480 0
WIRE 480 16 336 16
WIRE 560 16 480 16
WIRE 640 16 560 16
WIRE 224 48 224 -48
WIRE 224 48 128 48
WIRE -128 64 -208 64
WIRE -64 64 -64 0
WIRE -16 64 -64 64
WIRE 32 64 32 0
WIRE 192 64 176 64
WIRE 224 64 224 48
WIRE 256 64 224 64
WIRE 320 64 320 -112
WIRE 320 64 256 64
WIRE 400 64 320 64
WIRE 640 64 640 16
WIRE -128 80 -128 64
WIRE -112 80 -128 80
WIRE -16 80 -16 64
WIRE 336 80 336 16
WIRE 352 80 336 80
WIRE 480 80 480 16
WIRE 592 80 480 80
WIRE -208 112 -208 64
WIRE 176 128 176 112
WIRE 176 128 128 128
WIRE 192 144 192 64
WIRE 192 144 128 144
WIRE 208 144 192 144
WIRE 80 160 80 0
WIRE -288 240 -288 -192
WIRE -208 240 -208 192
WIRE -208 240 -288 240
WIRE -112 240 -112 128
WIRE -112 240 -208 240
WIRE -64 240 -64 144
WIRE -64 240 -112 240
WIRE -16 240 -16 128
WIRE -16 240 -64 240
WIRE 32 240 32 144
WIRE 32 240 -16 240
WIRE 80 240 80 208
WIRE 80 240 32 240
WIRE 128 240 128 224
WIRE 128 240 80 240
WIRE 176 240 176 128
WIRE 176 240 128 240
WIRE 208 240 208 224
WIRE 208 240 176 240
WIRE 256 240 256 128
WIRE 256 240 208 240
WIRE 352 240 352 128
WIRE 352 240 256 240
WIRE 400 240 400 144
WIRE 400 240 352 240
WIRE 480 240 480 144
WIRE 480 240 400 240
WIRE 592 240 592 128
WIRE 592 240 480 240
WIRE 640 240 640 144
WIRE 640 240 592 240
FLAG 640 16 Vout
FLAG -208 240 0
SYMBOL voltage -208 96 R0
WINDOW 3 24 44 Left 2
WINDOW 123 24 72 Left 2
WINDOW 39 0 0 Left 2
SYMATTR Value 1
SYMATTR Value2 AC 1
SYMATTR InstName AC
SYMBOL g -64 48 R0
WINDOW 0 17 94 Left 2
WINDOW 3 -41 121 Left 2
SYMATTR InstName G1
SYMATTR Value {gma}
SYMBOL g 32 48 R0
WINDOW 0 17 94 Left 2
WINDOW 3 -42 121 Left 2
SYMATTR InstName G2
SYMATTR Value {-gma}
SYMBOL g 128 32 M0
WINDOW 0 -8 3 Left 2
WINDOW 3 -31 195 Left 2
SYMATTR InstName G3x
SYMATTR Value {-gmi}
SYMBOL cap 48 -112 R0
SYMATTR InstName C1
SYMATTR Value {C1}
SYMBOL g 176 -16 R180
WINDOW 0 -90 89 Left 2
WINDOW 3 -138 59 Left 2
SYMATTR InstName G4
SYMATTR Value {-{gmi}}
SYMBOL cap 240 64 R0
WINDOW 0 40 38 Left 2
WINDOW 3 24 80 Left 2
SYMATTR InstName Ci
SYMATTR Value {Ci}
SYMBOL g 400 48 R0
WINDOW 3 -37 121 Left 2
SYMATTR Value {-{gmi}}
SYMATTR InstName G5
SYMBOL g 560 32 M180
WINDOW 0 6 107 Left 2
WINDOW 3 30 83 Left 2
SYMATTR InstName G6x
SYMATTR Value {-gmi}
SYMBOL g 640 48 R0
WINDOW 0 46 38 Left 2
WINDOW 3 36 79 Left 2
SYMATTR InstName G7
SYMATTR Value {-gmb}
SYMBOL cap 464 80 R0
WINDOW 0 41 24 Left 2
SYMATTR InstName C2
SYMATTR Value {C2}
SYMBOL g 128 128 R0
WINDOW 0 -23 11 Left 2
WINDOW 3 19 -93 Left 2
SYMATTR InstName G3z
SYMATTR Value {-gmi}
SYMBOL res 192 128 R0
WINDOW 0 2 4 Left 2
WINDOW 3 -8 98 Left 2
SYMATTR InstName R3z
SYMATTR Value {1/gmi}
SYMBOL g 400 -80 M180
WINDOW 0 20 101 Left 2
WINDOW 3 32 76 Left 2
SYMATTR InstName G6z
SYMATTR Value {-gmi}
SYMBOL res 464 -96 R0
WINDOW 0 -54 32 Left 2
WINDOW 3 -81 71 Left 2
SYMATTR InstName R6z
SYMATTR Value {1/gmi}
TEXT 136 304 Left 2 !.ac dec 25 20000 40000000
TEXT 456 336 Left 2 !.param R1={159155*0.25}
TEXT 456 368 Left 2 !.param R2={R1*100}
TEXT -136 400 Left 2 !.param Ci={L/(R1*R1)}
TEXT 456 304 Left 2 !.param L=2*{R1}*{R1}*{C1}
TEXT -136 368 Left 2 !.param gmi={gma}
TEXT -136 304 Left 2 !.param gma={1/{R1}}
TEXT -136 336 Left 2 !.param gmb={1/{R2}}
TEXT 456 400 Left 2 !.param C1=400fF
TEXT 456 432 Left 2 !.param C2={C1}
