Version 4
SHEET 1 880 680
WIRE 224 -224 208 -224
WIRE 320 -224 304 -224
WIRE 96 -176 80 -176
WIRE 208 -176 208 -224
WIRE 224 -176 208 -176
WIRE 320 -176 320 -224
WIRE 320 -176 288 -176
WIRE 336 -176 320 -176
WIRE 368 -176 336 -176
WIRE 400 -176 368 -176
WIRE -96 -144 -112 -144
WIRE 0 -144 0 -176
WIRE 0 -144 -16 -144
WIRE 16 -144 0 -144
WIRE 96 -128 96 -176
WIRE 96 -128 80 -128
WIRE 112 -128 96 -128
WIRE 208 -128 208 -176
WIRE 208 -128 192 -128
WIRE 224 -128 208 -128
WIRE 16 -112 0 -112
WIRE 320 -112 320 -176
WIRE 320 -112 288 -112
WIRE 336 -112 336 -176
WIRE 368 -112 336 -112
WIRE 224 -96 208 -96
WIRE 0 -80 0 -112
WIRE 368 -80 368 -112
WIRE 480 -80 368 -80
WIRE 208 -64 208 -96
WIRE 272 -32 256 -32
WIRE 368 -32 336 -32
WIRE 384 -32 368 -32
WIRE 480 -32 480 -80
WIRE 480 -32 464 -32
WIRE 368 16 368 -32
WIRE 368 16 352 16
WIRE 432 16 368 16
WIRE -112 32 -112 -144
WIRE -64 32 -112 32
WIRE 240 32 -64 32
WIRE 256 32 256 -32
WIRE 256 32 240 32
WIRE 288 32 256 32
WIRE 368 48 352 48
WIRE 432 48 432 16
WIRE 368 80 368 48
WIRE 80 112 64 112
WIRE 176 112 160 112
WIRE -64 144 -64 32
WIRE -48 144 -64 144
WIRE 48 144 32 144
WIRE 64 160 64 112
WIRE 80 160 64 160
WIRE 176 160 176 112
WIRE 176 160 144 160
WIRE 304 176 288 176
WIRE -64 208 -112 208
WIRE -48 208 -64 208
WIRE 48 208 48 144
WIRE 48 208 32 208
WIRE 64 208 64 160
WIRE 64 208 48 208
WIRE 80 208 64 208
WIRE 176 224 176 160
WIRE 176 224 144 224
WIRE 192 224 176 224
WIRE 208 224 192 224
WIRE 288 224 288 176
WIRE 304 224 288 224
WIRE 80 240 64 240
WIRE 384 240 384 176
WIRE 384 240 368 240
WIRE 416 240 384 240
WIRE 432 240 432 128
WIRE 432 240 416 240
WIRE 304 256 288 256
WIRE 64 272 64 240
WIRE 288 288 288 256
WIRE -112 304 -112 288
FLAG 64 272 0
FLAG 288 288 0
FLAG 368 80 0
FLAG -112 304 0
FLAG 208 -64 0
FLAG 368 -176 Vout
FLAG -64 208 Vin
FLAG 192 224 V_C1
FLAG 416 240 -V_C1
FLAG 240 32 V_L
FLAG 304 -80 V_C2
FLAG 0 -80 0
SYMBOL Opamps\\opamp 112 160 R0
WINDOW 0 0 32 Invisible 2
SYMATTR InstName U1
SYMATTR SpiceLine2 GBW=1000Meg
SYMBOL Opamps\\opamp 336 176 R0
WINDOW 0 0 32 Invisible 2
SYMATTR InstName U2
SYMATTR SpiceLine2 GBW=1000Meg
SYMBOL Opamps\\opamp 320 -32 M0
WINDOW 0 2 38 Invisible 2
SYMATTR InstName U3
SYMATTR SpiceLine2 GBW=1000Meg
SYMBOL Opamps\\opamp 256 -176 R0
WINDOW 0 0 32 Invisible 2
SYMATTR InstName U4
SYMATTR SpiceLine2 GBW=1000Meg
SYMBOL res 304 208 R90
WINDOW 0 1 89 Invisible 2
WINDOW 3 -28 60 VTop 2
SYMATTR InstName R1
SYMATTR Value 80K
SYMBOL res 400 160 R90
WINDOW 0 16 101 Invisible 2
WINDOW 3 -26 60 VTop 2
SYMATTR InstName R2
SYMATTR Value 80K
SYMBOL cap 80 176 R270
WINDOW 0 18 7 Invisible 2
WINDOW 3 44 62 VBottom 2
SYMATTR InstName C1
SYMATTR Value {C1}
SYMBOL res 64 128 R270
WINDOW 0 16 8 Invisible 2
WINDOW 3 56 50 VBottom 2
SYMATTR InstName R3
SYMATTR Value {R1}
SYMBOL res -64 224 R270
WINDOW 0 22 13 Invisible 2
WINDOW 3 60 50 VBottom 2
SYMATTR InstName R4
SYMATTR Value {R1}
SYMBOL res -64 160 R270
WINDOW 0 21 15 Invisible 2
WINDOW 3 61 51 VBottom 2
SYMATTR InstName R5
SYMATTR Value {R1}
SYMBOL res 416 32 R0
WINDOW 0 16 9 Invisible 2
WINDOW 3 25 47 Left 2
SYMATTR InstName R6
SYMATTR Value {R1}
SYMBOL res 368 -16 R270
WINDOW 0 22 18 Invisible 2
WINDOW 3 58 48 VBottom 2
SYMATTR InstName R7
SYMATTR Value {R1}
SYMBOL res 96 -112 R270
WINDOW 0 21 18 Invisible 2
WINDOW 3 62 52 VBottom 2
SYMATTR InstName R8
SYMATTR Value {R1}
SYMBOL res 208 -208 R270
WINDOW 0 17 11 Invisible 2
WINDOW 3 60 48 VBottom 2
SYMATTR InstName R9
SYMATTR Value {R2}
SYMBOL cap 272 -16 R270
WINDOW 0 16 6 Invisible 2
WINDOW 3 61 31 VBottom 2
SYMATTR InstName C2
SYMATTR Value {Ci}
SYMBOL cap 224 -160 R270
WINDOW 0 16 6 Invisible 2
WINDOW 3 43 62 VBottom 2
SYMATTR InstName C3
SYMATTR Value {C2}
SYMBOL voltage -112 192 R0
WINDOW 0 -37 5 Left 2
WINDOW 3 77 97 Left 2
WINDOW 123 16 97 Left 2
WINDOW 39 0 0 Left 2
SYMATTR InstName AC
SYMATTR Value 1
SYMATTR Value2 AC 1 -180
SYMBOL Opamps\\opamp 48 -192 R0
WINDOW 0 0 32 Invisible 2
SYMATTR InstName U5
SYMATTR SpiceLine2 GBW=1000Meg
SYMBOL res -112 -128 R270
WINDOW 0 32 56 Invisible 2
WINDOW 3 56 49 VBottom 2
SYMATTR InstName R10
SYMATTR Value 80K
SYMBOL res -16 -160 R270
WINDOW 0 32 56 Invisible 2
WINDOW 3 54 51 VBottom 2
SYMATTR InstName R11
SYMATTR Value 80K
TEXT -432 -216 Left 2 !.param R1=100000
TEXT -432 -184 Left 2 !.param R2={100*R1}
TEXT -432 -152 Left 2 !.param C1=159.15fF
TEXT -432 -120 Left 2 !.param C2={C1}
TEXT -432 -248 Left 2 !.param L=2*{R1}*{R1}*{C1}
TEXT -432 -88 Left 2 !.param Ci={L/(R1*R1)}
TEXT -16 304 Left 2 !.ac dec 25 20000 40000000
TEXT -432 -56 Left 2 !.include opamp.sub
