Name;Start Time(ns);Duration(ns);GridX;GridY;GridZ;BlockX;BlockY;BlockZ;Registers/Thread;Static Shared Memory;Dynamic Shared Memory;Size(bytes);Throughput(bytes/sec);DRAM Write Throughput(bytes/sec);DRAM Read Throughput(bytes/sec);Instruction Replay Overhead(%);Global Memory Cache Replay Overhead(%);Shared Memory Replay Overhead(%);Global Memory Store Efficiency(%);Local Memory Cache Replay Overhead(%);Warp Execution Efficiency(%);Achieved Occupancy;Global Memory Load Efficiency(%);instructions issued
"Memcpy HtoD [sync]";34859972;2048;;;;;;;;;;8280;4042968750;;;;;;;;;;;
"Memcpy HtoD [sync]";34869828;928;;;;;;;;;;88;94827586;;;;;;;;;;;
"FIR(...)";34901701;6528;2;1;1;768;1;1;22;0;0;;;1254901960;151960784;32,439;10,039;0;100;0;100;0,416;18,208;2540
"FIR(...)";35153401;5216;2;1;1;768;1;1;22;0;0;;;1570552147;0;28,904;10,629;0;100;0;100;0,417;18,208;2406
"FIR(...)";35165530;5216;2;1;1;768;1;1;22;0;0;;;1570552147;0;28,874;10,621;0;100;0;100;0,418;18,208;2404
"FIR(...)";35176378;5312;2;1;1;768;1;1;22;0;0;;;1542168674;0;28,904;10,652;0;100;0;100;0,424;18,208;2392
"FIR(...)";35187130;5248;2;1;1;768;1;1;22;0;0;;;1560975609;0;28,696;10,665;0;100;0;100;0,419;18,208;2392
"FIR(...)";35197850;5249;2;1;1;768;1;1;22;0;0;;;1560678224;0;29,022;10,625;0;100;0;100;0,417;18,208;2398
"FIR(...)";35208379;5216;2;1;1;768;1;1;22;0;0;;;1570552147;0;28,607;10,634;0;100;0;100;0,419;18,208;2392
"FIR(...)";35218907;5280;2;1;1;768;1;1;22;0;0;;;1551515151;0;28,726;10,647;0;100;0;100;0,42;18,208;2391
"FIR(...)";35229275;5280;2;1;1;768;1;1;22;0;0;;;1551515151;0;28,518;10,585;0;100;0;100;0,422;18,208;2401
"FIR(...)";35239771;5281;2;1;1;768;1;1;22;0;0;;;1551221359;0;28,368;10,599;0;100;0;100;0,418;18,208;2397
"FIR(...)";35250460;5280;2;1;1;768;1;1;22;0;0;;;1551515151;0;28,785;10,625;0;100;0;100;0,418;18,208;2394
"FIR(...)";35260476;5376;2;1;1;768;1;1;22;0;0;;;1523809523;0;28,458;10,643;0;100;0;100;0,423;18,208;2397
"FIR(...)";35270940;4992;2;1;1;768;1;1;22;0;0;;;1641025641;0;28,518;10,647;0;100;0;100;0,42;18,208;2399
"FIR(...)";35280989;5216;2;1;1;768;1;1;22;0;0;;;1570552147;0;28,488;10,643;0;100;0;100;0,422;18,208;2405
"FIR(...)";35291581;5408;2;1;1;768;1;1;22;0;0;;;1514792899;0;28,548;10,607;0;100;0;100;0,418;18,208;2397
"FIR(...)";35301981;5280;2;1;1;768;1;1;22;0;0;;;1551515151;0;28,845;10,634;0;100;0;100;0,417;18,208;2388
"FIR(...)";35312541;5184;2;1;1;768;1;1;22;0;0;;;1580246913;0;28,696;10,616;0;100;0;100;0,414;18,208;2420
"FIR(...)";35329918;5184;2;1;1;768;1;1;22;0;0;;;1580246913;0;28,607;10,647;0;100;0;100;0,415;18,208;2402
"FIR(...)";35340286;5120;2;1;1;768;1;1;22;0;0;;;1600000000;0;28,696;10,638;0;100;0;100;0,419;18,208;2403
"FIR(...)";35350718;5088;2;1;1;768;1;1;22;0;0;;;1610062893;0;28,607;10,683;0;100;0;100;0,42;18,208;2397
"FIR(...)";35361247;5280;2;1;1;768;1;1;22;0;0;;;1551515151;0;28,637;10,603;0;100;0;100;0,413;18,208;2389
"FIR(...)";35371391;5248;2;1;1;768;1;1;22;0;0;;;1560975609;0;28,577;10,656;0;100;0;100;0,416;18,208;2395
"FIR(...)";35381599;5248;2;1;1;768;1;1;22;0;0;;;1560975609;0;28,785;10,661;0;100;0;100;0,419;18,208;2399
"FIR(...)";35391647;5217;2;1;1;768;1;1;22;0;0;;;1570251102;0;28,577;10,625;0;100;0;100;0,417;18,208;2404
"FIR(...)";35402080;5344;2;1;1;768;1;1;22;0;0;;;1532934131;0;28,637;10,568;0;100;0;100;0,418;18,208;2405
"FIR(...)";35412448;5312;2;1;1;768;1;1;22;0;0;;;1542168674;0;28,933;10,647;0;100;0;100;0,417;18,208;2400
"FIR(...)";35422592;5152;2;1;1;768;1;1;22;0;0;;;1590062111;0;28,726;10,625;0;100;0;100;0,418;18,208;2412
"FIR(...)";35432640;5313;2;1;1;768;1;1;22;0;0;;;1541878411;0;28,518;10,656;0;100;0;100;0,417;18,208;2400
"FIR(...)";35442785;5216;2;1;1;768;1;1;22;0;0;;;1570552147;0;28,696;10,647;0;100;0;100;0,42;18,208;2402
"FIR(...)";35453057;5216;2;1;1;768;1;1;22;0;0;;;1570552147;0;28,488;10,612;0;100;0;100;0,414;18,208;2396
"FIR(...)";35463137;5312;2;1;1;768;1;1;22;0;0;;;1542168674;0;28,756;10,652;0;100;0;100;0,424;18,208;2396
"Memcpy DtoH [sync]";35604046;3104;;;;;;;;;;8192;2639175257;;;;;;;;;;;
