\relax 
\providecommand\hyper@newdestlabel[2]{}
\providecommand\HyperFirstAtBeginDocument{\AtBeginDocument}
\HyperFirstAtBeginDocument{\ifx\hyper@anchor\@undefined
\global\let\oldcontentsline\contentsline
\gdef\contentsline#1#2#3#4{\oldcontentsline{#1}{#2}{#3}}
\global\let\oldnewlabel\newlabel
\gdef\newlabel#1#2{\newlabelxx{#1}#2}
\gdef\newlabelxx#1#2#3#4#5#6{\oldnewlabel{#1}{{#2}{#3}}}
\AtEndDocument{\ifx\hyper@anchor\@undefined
\let\contentsline\oldcontentsline
\let\newlabel\oldnewlabel
\fi}
\fi}
\global\let\hyper@last\relax 
\gdef\HyperFirstAtBeginDocument#1{#1}
\providecommand\HyField@AuxAddToFields[1]{}
\providecommand\HyField@AuxAddToCoFields[2]{}
\@writefile{toc}{\contentsline {chapter}{\numberline {1}Introduction}{1}{chapter.1}}
\@writefile{lof}{\addvspace {10\p@ }}
\@writefile{lot}{\addvspace {10\p@ }}
\@writefile{toc}{\contentsline {chapter}{\numberline {2}Testing}{3}{chapter.2}}
\@writefile{lof}{\addvspace {10\p@ }}
\@writefile{lot}{\addvspace {10\p@ }}
\@writefile{toc}{\contentsline {section}{\numberline {2.1}Approach}{3}{section.2.1}}
\@writefile{toc}{\contentsline {section}{\numberline {2.2}Testbench}{3}{section.2.2}}
\@writefile{toc}{\contentsline {chapter}{\numberline {3}Architectures}{4}{chapter.3}}
\@writefile{lof}{\addvspace {10\p@ }}
\@writefile{lot}{\addvspace {10\p@ }}
\@writefile{toc}{\contentsline {section}{\numberline {3.1}General Description}{4}{section.3.1}}
\@writefile{toc}{\contentsline {subsection}{\numberline {3.1.1}Memory}{4}{subsection.3.1.1}}
\@writefile{toc}{\contentsline {section}{\numberline {3.2}Behavioral / Golden Unit}{5}{section.3.2}}
\@writefile{toc}{\contentsline {subsection}{\numberline {3.2.1}Correctness / Testing}{5}{subsection.3.2.1}}
\@writefile{toc}{\contentsline {section}{\numberline {3.3}Algorithmic}{5}{section.3.3}}
\@writefile{toc}{\contentsline {section}{\numberline {3.4}Structural}{5}{section.3.4}}
\@writefile{toc}{\contentsline {chapter}{\numberline {4}Instructions}{6}{chapter.4}}
\@writefile{lof}{\addvspace {10\p@ }}
\@writefile{lot}{\addvspace {10\p@ }}
\@writefile{toc}{\contentsline {section}{\numberline {4.1}SRLV}{6}{section.4.1}}
\@writefile{toc}{\contentsline {section}{\numberline {4.2}SLTIU}{6}{section.4.2}}
\@writefile{toc}{\contentsline {section}{\numberline {4.3}BGTZ}{7}{section.4.3}}
\@writefile{toc}{\contentsline {section}{\numberline {4.4}LW}{7}{section.4.4}}
\@writefile{toc}{\contentsline {section}{\numberline {4.5}SW}{7}{section.4.5}}
\@writefile{toc}{\contentsline {section}{\numberline {4.6}JR}{7}{section.4.6}}
\@writefile{toc}{\contentsline {section}{\numberline {4.7}JAL}{7}{section.4.7}}
\@writefile{toc}{\contentsline {section}{\numberline {4.8}DIVU}{7}{section.4.8}}
\@writefile{toc}{\contentsline {subsubsection}{1. Euclidian Division, Division by repeated subtraction}{7}{section*.2}}
\@writefile{toc}{\contentsline {subsubsection}{2. Restoring Unsigned Division Algorithm}{8}{section*.3}}
\@writefile{toc}{\contentsline {subsubsection}{3. Nonrestoring unsigned division}{8}{section*.4}}
\@writefile{toc}{\contentsline {section}{\numberline {4.9}MFHI}{9}{section.4.9}}
\@writefile{toc}{\contentsline {section}{\numberline {4.10}MFLO}{9}{section.4.10}}
\@writefile{toc}{\contentsline {section}{\numberline {4.11}Comparison}{9}{section.4.11}}
\@writefile{toc}{\contentsline {subsubsection}{Choice}{10}{section*.5}}
