0.352107724780416130000000000000
1.338604230695221700000000000000
2.031930435424288600000000000000
3.538065060958718500000000000000
3.825878741494181900000000000000
4.730331235628295200000000000000
5.894266224897946500000000000000
6.919309597630051400000000000000
5.958704990767941500000000000000
7.732882683410315900000000000000
10.035258299321447000000000000000
12.514791959804862000000000000000
13.311264163790691000000000000000
16.157727940473812000000000000000
16.362708652728962000000000000000
17.609747685158663000000000000000
20.652337576141711000000000000000
22.694653056806633000000000000000
21.680068887043774000000000000000
24.384714817349955000000000000000
26.775577705700037000000000000000
29.193879939859730000000000000000
29.865883853097632000000000000000
31.151682733588032000000000000000
33.726689258290214000000000000000
33.328849126116260000000000000000
35.771700704543512000000000000000
37.237236437827121000000000000000
38.682370873531546000000000000000
39.795501745654818000000000000000
40.980463957673237000000000000000
43.465904187537866000000000000000
43.614303860067061000000000000000
43.742674165422130000000000000000
46.917828355568396000000000000000
46.033869896567538000000000000000
46.615112683806863000000000000000
48.633632613556657000000000000000
50.681377266403693000000000000000
50.655579310255035000000000000000
52.323033139050764000000000000000
52.172058187658443000000000000000
51.928839278340639000000000000000
53.438047140803313000000000000000
54.832247372522254000000000000000
54.201541810825852000000000000000
54.548696311970701000000000000000
56.824403532145205000000000000000
57.116349654569028000000000000000
56.527020841535702000000000000000
57.465082862363872000000000000000
56.502321595399302000000000000000
56.377445950834392000000000000000
57.182522025037365000000000000000
58.553129674237937000000000000000
57.825357778984880000000000000000
57.871029801325825000000000000000
58.677010718099851000000000000000
57.397802166589713000000000000000
57.171484997017679000000000000000
56.059789997963350000000000000000
58.205509345249503000000000000000
56.327625018080226000000000000000
55.020845509665008000000000000000
55.358862783031157000000000000000
55.640210655925443000000000000000
54.305679620181948000000000000000
54.407629433174144000000000000000
52.693133121849300000000000000000
52.647469653008265000000000000000
51.636872739739871000000000000000
52.177819500599433000000000000000
50.455717331809225000000000000000
48.249612016241819000000000000000
48.562234816371735000000000000000
47.728582040757189000000000000000
46.376511924058732000000000000000
44.879096417283641000000000000000
44.242551875339572000000000000000
42.898350438882197000000000000000
42.848142546415879000000000000000
40.704859749737338000000000000000
39.802027227301487000000000000000
38.111770663476698000000000000000
37.235330928711996000000000000000
35.661174483452214000000000000000
34.141342978249234000000000000000
32.254311593548259000000000000000
29.765444582182159000000000000000
28.810513748306796000000000000000
28.416381852299850000000000000000
25.710160022168374000000000000000
24.527566015596566000000000000000
22.995782838243482000000000000000
21.221948749239417000000000000000
19.822299948306149000000000000000
17.698273026300818000000000000000
16.235655217207420000000000000000
12.430816251162312000000000000000
12.322455298326044000000000000000
10.318098304791860000000000000000
8.376299049968038100000000000000
7.542935750918144500000000000000
4.532737701810167300000000000000
4.178174869897670600000000000000
3.403540618863855300000000000000
1.367868987972057400000000000000
-1.110312891350197400000000000000
-3.470841492669915600000000000000
-5.197086550946744800000000000000
-7.251136064361133100000000000000
-8.357227563297138700000000000000
-9.813251516851892100000000000000
-12.483192223449779000000000000000
-13.701561927128507000000000000000
-13.738312267797673000000000000000
-15.625439596538342000000000000000
-19.328054228206831000000000000000
-20.069387304660854000000000000000
-21.929204504987606000000000000000
-24.067134194522410000000000000000
-24.879739952155134000000000000000
-26.981483277416022000000000000000
-28.210925191075155000000000000000
-29.195810238315961000000000000000
-30.246088493983748000000000000000
-30.901672070858694000000000000000
-34.344354287149912000000000000000
-35.210981641630248000000000000000
-35.244520698570184000000000000000
-38.870234164963037000000000000000
-39.503608502503923000000000000000
-41.132031936690254000000000000000
-40.686734705558841000000000000000
-42.179316558234518000000000000000
-43.791996959191003000000000000000
-43.458697087424696000000000000000
-46.592574997673879000000000000000
-47.143987150081372000000000000000
-47.356725024420314000000000000000
-49.943807237881160000000000000000
-50.957886418684090000000000000000
-51.392932519083345000000000000000
-50.331466314867995000000000000000
-52.832487432682733000000000000000
-53.963229258398705000000000000000
-52.719230010767205000000000000000
-55.220473351750066000000000000000
-53.930609748454117000000000000000
-55.250992670034243000000000000000
-56.044840481280971000000000000000
-56.664970463976246000000000000000
-56.641778587819950000000000000000
-56.413277339078746000000000000000
-58.160396159910050000000000000000
-57.984526239951286000000000000000
-58.046129031269878000000000000000
-57.237202405641405000000000000000
-57.009454588132819000000000000000
-58.917114647439007000000000000000
-57.751614536348342000000000000000
-56.686774172822837000000000000000
-56.207998097031272000000000000000
-57.023862638319841000000000000000
-56.882700120502541000000000000000
-56.350808602947254000000000000000
-56.197589997951255000000000000000
-55.143814663782294000000000000000
-54.735231373722655000000000000000
-55.737942925187433000000000000000
-53.263748570305474000000000000000
-51.817419125569359000000000000000
-51.083335372856219000000000000000
-51.763060346872933000000000000000
-50.815986795592373000000000000000
-49.554654789574464000000000000000
-47.527108671817373000000000000000
-46.812743207751168000000000000000
-46.283080188131997000000000000000
-46.137648310533152000000000000000
-44.030635696712579000000000000000
-42.980347431379009000000000000000
-42.901744964708229000000000000000
-41.302425654860940000000000000000
-40.784780582663110000000000000000
-38.449949934077445000000000000000
-36.391627224193712000000000000000
-34.652757214053217000000000000000
-34.480246382515659000000000000000
-33.914044839998951000000000000000
-31.771162238041988000000000000000
-30.190902749417408000000000000000
-28.698732274746934000000000000000
-27.039136852041384000000000000000
-25.265758019313747000000000000000
-23.538076996912967000000000000000
-22.200245558038510000000000000000
-21.614845494215036000000000000000
-18.812616386206930000000000000000
-17.576598414924842000000000000000
-15.582913399181383000000000000000
-13.025618346138906000000000000000
-12.209323382879507000000000000000
-9.498786726313639400000000000000
-8.555785296058150600000000000000
-7.006277535712770000000000000000
-5.724681549345803900000000000000
-3.875461139795440600000000000000
-1.453772306830891400000000000000
0.812834217670676760000000000000
2.252551272519195600000000000000
4.444790141727640500000000000000
5.283265607089508500000000000000
8.686365519529244800000000000000
9.287992084892717800000000000000
9.303452726127352100000000000000
11.624442644415792000000000000000
14.716751229374429000000000000000
14.945835826541964000000000000000
18.712300272834561000000000000000
19.378077709888935000000000000000
20.364392463849306000000000000000
23.077327346523784000000000000000
24.400374077061663000000000000000
26.834941999514182000000000000000
26.089862028090682000000000000000
28.363161030558672000000000000000
30.767045232823531000000000000000
31.034310380622927000000000000000
33.521271958457383000000000000000
34.523110717935872000000000000000
35.633790341525931000000000000000
37.403370234551346000000000000000
38.596459857436102000000000000000
40.054882115027638000000000000000
41.344353753679222000000000000000
42.763383416104467000000000000000
43.818623555227155000000000000000
44.734499805787905000000000000000
45.385202594394961000000000000000
47.104605242963885000000000000000
47.591649698973960000000000000000
49.046926140748361000000000000000
50.134883785995456000000000000000
50.638300808932691000000000000000
51.595275867108818000000000000000
51.885761117712214000000000000000
52.863738557018685000000000000000
53.925777864293316000000000000000
53.290485897466198000000000000000
55.426895932641180000000000000000
55.688358910814699000000000000000
55.681193990014933000000000000000
55.760306370479057000000000000000
56.414839127631105000000000000000
55.892512741402854000000000000000
55.967808000189969000000000000000
57.368238507003895000000000000000
57.399758910859674000000000000000
57.218860436088100000000000000000
57.508682807058676000000000000000
57.323830297764765000000000000000
56.883320614349230000000000000000
57.242110103828480000000000000000
57.345512693012033000000000000000
55.645720384142670000000000000000
55.774946794747329000000000000000
56.863667992247855000000000000000
56.225765194976752000000000000000
55.139187402765870000000000000000
53.483737172106309000000000000000
54.028817400564115000000000000000
53.291438038443111000000000000000
52.758366873058741000000000000000
52.761331985918083000000000000000
51.256447207135345000000000000000
50.920751393565645000000000000000
49.322439341060864000000000000000
50.049227744061284000000000000000
47.160024571062607000000000000000
45.652899661276265000000000000000
46.583035207955184000000000000000
44.925009289842279000000000000000
42.867377067781668000000000000000
43.129307186514289000000000000000
42.001362293608565000000000000000
41.453240752585309000000000000000
38.414611211550813000000000000000
38.422069702104395000000000000000
37.194101195391731000000000000000
34.761232375492938000000000000000
33.371492418495265000000000000000
32.537558677583128000000000000000
30.157117607237321000000000000000
29.617127204479541000000000000000
27.390860482583026000000000000000
26.573837908843071000000000000000
25.600304868225525000000000000000
23.543542448692115000000000000000
22.481023330261245000000000000000
19.860129354339819000000000000000
17.030671775278325000000000000000
16.249208593914155000000000000000
14.043631102734901000000000000000
12.933727523006812000000000000000
10.681231119354321000000000000000
9.447642743472854900000000000000
8.776350171246781100000000000000
7.343551983557081700000000000000
4.713856212382594900000000000000
1.788434675992791600000000000000
-0.595635711522693790000000000000
-1.550917444823758400000000000000
-2.943492523349424200000000000000
-4.424299471721768700000000000000
-6.541441225087023500000000000000
-8.830297889334993000000000000000
-10.190851931494151000000000000000
-10.450768638681740000000000000000
-13.403208956726285000000000000000
-15.987332963269548000000000000000
-18.284006526922322000000000000000
-18.496118384329431000000000000000
-20.075241231189292000000000000000
-21.865842678075719000000000000000
-22.804409366366858000000000000000
-26.111915896880848000000000000000
-28.007140267634643000000000000000
-27.788420502529700000000000000000
-28.312074352703601000000000000000
-31.311250069323744000000000000000
-33.870964754101628000000000000000
-34.223159940128241000000000000000
-35.473965793762339000000000000000
-36.642304306224986000000000000000
-38.281013166821836000000000000000
-39.637217856163112000000000000000
-41.650441473856539000000000000000
-41.713511451378004000000000000000
-41.627068280451141000000000000000
-44.264747410362766000000000000000
-45.225102023030601000000000000000
-46.872710037009597000000000000000
-48.183407892515106000000000000000
-47.231456261055179000000000000000
-49.851075590917453000000000000000
-49.758251246760324000000000000000
-50.968147184543568000000000000000
-51.437216596879722000000000000000
-53.380477548459083000000000000000
-53.074124909993735000000000000000
-53.723941537074118000000000000000
-54.008421945944420000000000000000
-56.327739911494930000000000000000
-53.987681221496963000000000000000
-55.967003045932252000000000000000
-57.118250616929274000000000000000
-56.476242234400750000000000000000
-56.285755464832235000000000000000
-57.761138788085951000000000000000
-57.646542257260521000000000000000
-57.596693841230532000000000000000
-58.299015636670717000000000000000
-56.744499233793675000000000000000
-56.171087138811764000000000000000
-56.314755181671956000000000000000
-58.715164048701283000000000000000
-56.558647077998984000000000000000
-55.381011517570641000000000000000
-56.378513844406797000000000000000
-56.585619412441005000000000000000
-56.248416021245170000000000000000
-55.961762854845318000000000000000
-53.954049115461345000000000000000
-52.696946185576671000000000000000
-52.075764950064567000000000000000
-53.883158816720375000000000000000
-51.312198421976838000000000000000
-50.700620435973505000000000000000
-50.488295920982750000000000000000
-49.142446641986943000000000000000
-48.912566897237355000000000000000
-46.731928214465846000000000000000
-46.908535285622520000000000000000
-43.796430135295630000000000000000
-42.952708415008686000000000000000
-43.127452367448250000000000000000
-40.172599608973009000000000000000
-41.080573862493154000000000000000
-39.682539696114723000000000000000
-36.656495365150931000000000000000
-36.048303996810240000000000000000
-35.596825504869109000000000000000
-33.830370547005181000000000000000
-31.920327851899923000000000000000
-30.226391759665574000000000000000
-29.097283923456686000000000000000
-26.833936060851919000000000000000
-27.683070921058174000000000000000
-26.015923505517041000000000000000
-22.302361839229494000000000000000
-20.720839819133769000000000000000
-20.063499196304448000000000000000
-18.727682085710562000000000000000
-16.848583295729462000000000000000
-14.872582553992173000000000000000
-13.585773374293691000000000000000
-11.583709936822592000000000000000
-10.534974301864620000000000000000
-8.219914491690577300000000000000
-5.830645178323531600000000000000
-3.197885736208623700000000000000
-2.586110855325145100000000000000
-1.464871827537973300000000000000
0.412452796373327160000000000000
2.871763569907165500000000000000
3.860754945576595700000000000000
5.716834767106651500000000000000
8.671162608881950000000000000000
8.903069096118560600000000000000
10.610958701380568000000000000000
12.474477589869313000000000000000
14.325496594198215000000000000000
15.848639328168169000000000000000
17.080023947305804000000000000000
19.936211620406201000000000000000
20.936703993925796000000000000000
22.256696707918607000000000000000
25.500374096897691000000000000000
25.223662284285155000000000000000
26.432232481961211000000000000000
27.618699446829670000000000000000
29.971742736787711000000000000000
32.414745166703177000000000000000
32.610700148592343000000000000000
35.133227364703245000000000000000
35.479424446975727000000000000000
37.723130751011340000000000000000
39.160098214370358000000000000000
41.051459637157812000000000000000
41.827515898800044000000000000000
42.706934527432388000000000000000
43.848635797680011000000000000000
45.141130473763319000000000000000
45.696612093275078000000000000000
47.047407802027550000000000000000
48.358233053501287000000000000000
49.555808736949601000000000000000
49.771102237660870000000000000000
51.944694687179464000000000000000
51.727094988272043000000000000000
52.716161617159401000000000000000
52.806825416031820000000000000000
53.302911075449003000000000000000
53.932396003887924000000000000000
54.296328608471768000000000000000
55.647638166260180000000000000000
55.405132778286450000000000000000
55.676699637178586000000000000000
56.811175395265956000000000000000
57.268182831684832000000000000000
57.556551562706922000000000000000
56.620426549206819000000000000000
57.800659709839572000000000000000
57.148016950552652000000000000000
57.212917211971259000000000000000
57.955236884655903000000000000000
56.775271013100955000000000000000
57.293217774369367000000000000000
56.844567128654923000000000000000
57.535352403852897000000000000000
57.662557392691966000000000000000
56.633629185740752000000000000000
56.067071657153804000000000000000
54.766548053548135000000000000000
55.215599781801473000000000000000
54.837235922537069000000000000000
53.151405056213406000000000000000
52.765659319360800000000000000000
51.291089167793146000000000000000
50.883226947332702000000000000000
50.838146353485776000000000000000
51.002614931788074000000000000000
47.723844508621170000000000000000
46.712118186565569000000000000000
47.463687161727279000000000000000
44.660427574428006000000000000000
45.359582910444253000000000000000
43.284168972011017000000000000000
42.066860348560589000000000000000
40.864213238591731000000000000000
40.620718712621134000000000000000
39.180925651552862000000000000000
35.817760524814226000000000000000
35.480365534451167000000000000000
35.399162003582106000000000000000
32.956564861784415000000000000000
33.254413362371317000000000000000
29.898095812418592000000000000000
29.548697818864031000000000000000
27.228355366348509000000000000000
26.519316428214914000000000000000
24.305693262572479000000000000000
22.310861598107714000000000000000
21.176658278069560000000000000000
20.026501288330444000000000000000
18.346028159045410000000000000000
15.557840061967623000000000000000
13.941356984391913000000000000000
12.327993614159121000000000000000
10.414996608836438000000000000000
9.011471086713807900000000000000
6.999344771489189700000000000000
4.791631201513301800000000000000
3.941515117768610300000000000000
2.291699319554585400000000000000
-0.414834729254555560000000000000
-1.971916802199491300000000000000
-2.967512353803763800000000000000
-5.125787843401751900000000000000
-6.993270208137811700000000000000
-8.259593290869512200000000000000
-11.005103214066470000000000000000
-13.100933679802164000000000000000
-13.276379753641489000000000000000
-14.449315532153793000000000000000
-17.803075669165775000000000000000
-17.929600026105181000000000000000
-21.025285442732773000000000000000
-21.828112880517700000000000000000
-23.370816134758787000000000000000
-25.256646396463594000000000000000
-27.029074302727750000000000000000
-29.473684435553942000000000000000
-30.426947455807102000000000000000
-30.325000841406691000000000000000
-33.509999322070378000000000000000
-35.191071260203252000000000000000
-36.828034061122494000000000000000
-37.315729252623775000000000000000
-37.507670717571898000000000000000
-39.847561357522729000000000000000
-41.804275236250540000000000000000
-43.165103169909528000000000000000
-45.488130898144050000000000000000
-44.476205877308168000000000000000
-45.658965594471717000000000000000
-47.191018673968266000000000000000
-48.364870438757485000000000000000
-48.918359533398515000000000000000
-48.303035575801594000000000000000
-50.013361937290789000000000000000
-51.749177794310292000000000000000
-51.840649998131660000000000000000
-53.695004580661298000000000000000
-53.278219799669010000000000000000
-52.750832577082448000000000000000
-54.769118277440477000000000000000
-56.611133748923187000000000000000
-55.527650874781131000000000000000
-55.368697916622274000000000000000
-56.149642051424394000000000000000
-56.457430722776714000000000000000
-57.314139308282364000000000000000
-56.718585839440244000000000000000
-57.472703855348335000000000000000
-56.187899810633134000000000000000
-58.078895875416869000000000000000
-58.323683807524745000000000000000
-57.506389412898464000000000000000
-57.400061321156265000000000000000
-58.100861008735087000000000000000
-57.386950326447050000000000000000
-57.095399738945751000000000000000
-56.537386502017185000000000000000
-55.687942666921998000000000000000
-54.148082324471822000000000000000
-54.235495171152550000000000000000
-54.978413930688163000000000000000
-53.458795951985643000000000000000
-53.717685296032258000000000000000
-54.054746514894461000000000000000
-52.682327416796170000000000000000
-50.418818316344378000000000000000
-50.348904270731978000000000000000
-48.358311014055957000000000000000
-47.627663284365980000000000000000
-46.594507945388138000000000000000
-47.054524059961373000000000000000
-44.092273063941185000000000000000
-44.435006790800628000000000000000
-43.891444585070772000000000000000
-42.097385496351507000000000000000
-40.034336645717836000000000000000
-37.952148895985637000000000000000
-37.254838404889526000000000000000
-37.170173208598079000000000000000
-34.817129055652401000000000000000
-33.562018653499102000000000000000
-31.629427652233673000000000000000
-31.128610593379069000000000000000
-29.906405568416265000000000000000
-27.347549444415950000000000000000
-26.499280135120472000000000000000
-23.800796930296663000000000000000
-22.709764198316165000000000000000
-21.514843340593679000000000000000
-19.439201753115512000000000000000
-18.484438151871590000000000000000
-16.652506696203886000000000000000
-14.770055300431453000000000000000
-13.714283352907547000000000000000
-10.682608184959301000000000000000
-9.659107265908023300000000000000
-7.457488088722065800000000000000
-5.134477899959312800000000000000
-4.385678788141698100000000000000
-1.428601100777752400000000000000
-1.774520761639530000000000000000
0.508284826584599720000000000000
3.263637009463836900000000000000
5.156112605479704000000000000000
6.884246234154417700000000000000
8.561634968033740000000000000000
9.443891799442294400000000000000
12.007352346433461000000000000000
13.300827404265783000000000000000
15.978825970916617000000000000000
15.452688705588050000000000000000
18.637448697071246000000000000000
20.462876855536308000000000000000
22.739275420404383000000000000000
22.403279362985113000000000000000
24.783494438099741000000000000000
25.827573804422993000000000000000
27.231983474214420000000000000000
29.769451789513493000000000000000
30.649882939032043000000000000000
30.639811821883523000000000000000
34.040376046074165000000000000000
36.190267808834548000000000000000
36.632883682788425000000000000000
36.663640136354154000000000000000
39.657525144227925000000000000000
41.614556505398852000000000000000
41.943359907930379000000000000000
41.990313350047913000000000000000
42.762047257036166000000000000000
44.735433515525955000000000000000
46.415493512203831000000000000000
47.529792465616303000000000000000
48.706039154215155000000000000000
49.360732279309183000000000000000
49.864777110207015000000000000000
52.410539730406803000000000000000
52.840214753400289000000000000000
51.659713710629248000000000000000
53.243293246831009000000000000000
53.588578285370417000000000000000
54.458312190438370000000000000000
54.605564462164843000000000000000
56.224941504119663000000000000000
55.261102450054366000000000000000
54.548155596196537000000000000000
56.532971700112306000000000000000
57.306704875439671000000000000000
56.912787484041978000000000000000
58.581426388820582000000000000000
57.389462767098841000000000000000
56.684728287594488000000000000000
57.443615843104581000000000000000
58.092777305810543000000000000000
56.249303998655073000000000000000
55.754755363415960000000000000000
55.935065296747361000000000000000
57.132503547513529000000000000000
57.106510139903484000000000000000
55.649489177937973000000000000000
56.526544184088934000000000000000
54.663358563181625000000000000000
54.910777274981065000000000000000
54.271340106766608000000000000000
54.561413016315825000000000000000
52.414157267702016000000000000000
51.731682818267345000000000000000
51.001606800329618000000000000000
51.031904316098114000000000000000
49.285296346945671000000000000000
48.961577064218993000000000000000
47.338097176285821000000000000000
47.002675858645361000000000000000
45.972164899136764000000000000000
44.765838812928493000000000000000
43.202055770399731000000000000000
42.279518723464250000000000000000
39.944009588088129000000000000000
40.090808444965482000000000000000
38.831460766358568000000000000000
37.956073887158624000000000000000
35.146040382518898000000000000000
34.934381456810172000000000000000
33.083132515094711000000000000000
30.400794677661910000000000000000
30.039017019403634000000000000000
27.878116259559025000000000000000
25.910467054220668000000000000000
24.856105413400758000000000000000
25.618453708615366000000000000000
22.812216301800454000000000000000
20.179727411009367000000000000000
19.668573099991956000000000000000
16.554822730841384000000000000000
15.517480336635730000000000000000
13.245628487456164000000000000000
11.184774763847946000000000000000
9.121799341079578100000000000000
7.753165177455875900000000000000
8.508071392461310700000000000000
4.473345374462996700000000000000
2.655436193207786100000000000000
2.180136970880586700000000000000
-0.124029448410922500000000000000
-2.320680279896479600000000000000
-4.324916315254624200000000000000
-5.982039619502699200000000000000
-7.995136063057419300000000000000
-9.367925705988300300000000000000
-11.248957959249342000000000000000
-13.754647218739407000000000000000
-15.004728596649176000000000000000
-16.087977533131848000000000000000
-18.167267261821724000000000000000
-19.367268487141327000000000000000
-20.958145853080719000000000000000
-23.991425274130496000000000000000
-24.988480156970823000000000000000
-26.774155690868209000000000000000
-27.143992508204782000000000000000
-29.581589807896592000000000000000
-30.326625156794652000000000000000
-33.026266032520006000000000000000
-34.132069017930831000000000000000
-35.044305217507770000000000000000
-35.721865196888082000000000000000
-38.764579578308087000000000000000
-38.938692243050134000000000000000
-40.178074313228080000000000000000
-41.002224781045513000000000000000
-41.916398614354257000000000000000
-43.173895609415432000000000000000
-45.533600691310596000000000000000
-46.628462144579160000000000000000
-48.465135523669318000000000000000
-47.031054059512023000000000000000
-49.569403975261693000000000000000
-50.953969462384244000000000000000
-50.697556332571700000000000000000
-52.279780899216313000000000000000
-52.324982288920332000000000000000
-53.437278541571871000000000000000
-54.066706050119876000000000000000
-56.045740221236414000000000000000
-54.717936592038072000000000000000
-55.918663641018618000000000000000
-56.291356773522466000000000000000
-57.601495191250280000000000000000
-57.687661265696612000000000000000
-57.878062145751912000000000000000
-57.634736660223787000000000000000
-57.649231492550896000000000000000
-56.582407707765363000000000000000
-58.111562877772819000000000000000
-55.392359045743255000000000000000
-59.079221434342919000000000000000
-57.448981911803308000000000000000
-57.799345885540468000000000000000
-58.006682879609400000000000000000
-57.758891841300560000000000000000
-56.774894726945064000000000000000
-56.472336923289035000000000000000
-54.720200278335348000000000000000
-54.723393446915694000000000000000
-53.387008203594888000000000000000
-55.210415618752279000000000000000
-53.195104765842167000000000000000
-54.121787339214677000000000000000
-52.510072160353481000000000000000
-51.672898375296150000000000000000
-50.020737319598787000000000000000
-50.290104296074915000000000000000
-49.254278676807466000000000000000
-47.124098510355410000000000000000
-46.153533990148475000000000000000
-45.926825570468864000000000000000
-43.896646667150272000000000000000
-43.436983070710816000000000000000
-42.778780057010032000000000000000
-41.115761132108020000000000000000
-39.604007163630193000000000000000
-39.090672644018277000000000000000
-38.233757963687886000000000000000
-35.988464226168091000000000000000
-34.832241742907364000000000000000
-33.680526950509105000000000000000
-30.690678451972801000000000000000
-29.365126809032912000000000000000
-29.353393193232019000000000000000
-27.978445550850378000000000000000
-26.300778826313945000000000000000
-23.781466515295090000000000000000
-23.612638539834393000000000000000
-21.785455833154213000000000000000
-19.126201301311461000000000000000
-17.845756950588051000000000000000
-16.027423000053727000000000000000
-14.746638339224548000000000000000
-13.055583491438544000000000000000
-11.712589774431985000000000000000
-10.060345297472981000000000000000
-7.006574823794585100000000000000
-6.381067303341636100000000000000
-4.217546294795923200000000000000
-1.235503019825512600000000000000
-0.793647252225362590000000000000
-0.142213004297002870000000000000
2.881453344738341900000000000000
4.753204094992979000000000000000
5.993626841152728700000000000000
7.139553184297610300000000000000
10.452238125915557000000000000000
11.739517041161719000000000000000
13.735524758382216000000000000000
15.215824649713079000000000000000
17.272718672325887000000000000000
18.751571488293848000000000000000
20.952236332467137000000000000000
22.213947777191599000000000000000
23.665443057141342000000000000000
25.376295081802322000000000000000
26.472803776622513000000000000000
27.519509065954747000000000000000
29.605200489346984000000000000000
30.969579166203477000000000000000
33.760393787979957000000000000000
34.327987782853363000000000000000
34.886796087584436000000000000000
37.471086286400066000000000000000
38.395347506778279000000000000000
40.147908360279359000000000000000
40.223379246911428000000000000000
42.021822445956523000000000000000
41.952447475141085000000000000000
44.390202885239944000000000000000
45.523941816605500000000000000000
45.971833911215079000000000000000
46.821316471403492000000000000000
49.582261338352083000000000000000
48.535155724654388000000000000000
49.363254847582652000000000000000
51.508811877269835000000000000000
51.521642828898770000000000000000
51.418352641392893000000000000000
52.796725970562150000000000000000
54.924361544192337000000000000000
54.497495799497770000000000000000
55.010947720975715000000000000000
56.372657986297625000000000000000
54.586755230371537000000000000000
55.105548436222236000000000000000
56.447760421292521000000000000000
56.194546564874280000000000000000
56.627172399364710000000000000000
56.777126980921494000000000000000
57.696134882818647000000000000000
58.184882716420177000000000000000
57.933689491651954000000000000000
56.767238131834318000000000000000
56.452686888773471000000000000000
56.573661504533490000000000000000
56.565743981912796000000000000000
57.081880947597945000000000000000
55.249762392202555000000000000000
55.640739772726889000000000000000
54.398649170597167000000000000000
56.094002839433912000000000000000
54.813221769906349000000000000000
52.876246979973921000000000000000
51.973609491138610000000000000000
52.620175225361244000000000000000
51.871767965712031000000000000000
50.846687242665837000000000000000
49.755579023570945000000000000000
49.674322444195383000000000000000
48.918305489456536000000000000000
48.481615245166836000000000000000
46.020954537737893000000000000000
45.717962537828285000000000000000
43.215110883879291000000000000000
42.668876213098741000000000000000
41.688044400585127000000000000000
39.703360076264502000000000000000
40.697195341858993000000000000000
40.025868409284030000000000000000
38.005870248920750000000000000000
35.283022847650621000000000000000
33.942959679485845000000000000000
32.443118770047562000000000000000
31.461004104310717000000000000000
29.036794000280036000000000000000
27.387412884487986000000000000000
25.292383214661058000000000000000
25.592875427648931000000000000000
24.696921821212293000000000000000
22.590039274407790000000000000000
20.405056275404611000000000000000
18.435375311051207000000000000000
15.664643168142526000000000000000
15.181196282020114000000000000000
13.764098785797991000000000000000
11.026856489065180000000000000000
8.076119740573965100000000000000
7.744872317207958500000000000000
6.449465690976859700000000000000
5.881772966847564500000000000000
3.808187757817657700000000000000
2.311681814085286400000000000000
-0.835678223105254640000000000000
-2.646036488817929300000000000000
-3.901998430542193300000000000000
-5.763106705296563000000000000000
-8.373527460439488500000000000000
-9.694009345067344800000000000000
-11.058720672720524000000000000000
-12.100227744603520000000000000000
-13.156427549135229000000000000000
-15.615144212174220000000000000000
-17.606679556616257000000000000000
-19.516484803483852000000000000000
-22.022017164681944000000000000000
-22.776708706799958000000000000000
-24.897045657203318000000000000000
-26.923078801958763000000000000000
-27.349096992547622000000000000000
-29.519874260425659000000000000000
-29.391359087710438000000000000000
-32.478288865823195000000000000000
-33.674111365532397000000000000000
-34.716659600173834000000000000000
-36.991785173400935000000000000000
-37.807916950005051000000000000000
-39.475197717819142000000000000000
-40.348179141558361000000000000000
-41.249963365479502000000000000000
-43.087553720469359000000000000000
-44.578489260251644000000000000000
-44.184609439064296000000000000000
-47.506762379711567000000000000000
-46.749284641782999000000000000000
-48.455412151411281000000000000000
-49.268044965401558000000000000000
-49.913743245109252000000000000000
-50.202230302703498000000000000000
-51.852731528916827000000000000000
-52.322178714654477000000000000000
-53.932133164706059000000000000000
-53.834106966173202000000000000000
-55.558228845448802000000000000000
-53.792065346509879000000000000000
-54.842243141444932000000000000000
-55.637678751541557000000000000000
-56.131988013747964000000000000000
-55.801902869826748000000000000000
-57.617500649712930000000000000000
-57.475731928752232000000000000000
-57.217198932426228000000000000000
-57.574032086352176000000000000000
-57.027006899880220000000000000000
-57.280267010730988000000000000000
-57.565983898889435000000000000000
-57.158900824332164000000000000000
-57.602162759451403000000000000000
-57.184050003449514000000000000000
-58.606382933809549000000000000000
-57.373417610392600000000000000000
-56.589924963517973000000000000000
-54.770397454754061000000000000000
-54.679992322432142000000000000000
-55.493112521107463000000000000000
-55.851068000446432000000000000000
-52.925570256508351000000000000000
-52.658874395363114000000000000000
-51.229728754571177000000000000000
-51.219188277281802000000000000000
-51.409570329539228000000000000000
-50.422909544584343000000000000000
-47.111612497409816000000000000000
-47.484304182331421000000000000000
-45.985054668578684000000000000000
-46.791469810556066000000000000000
-44.376877360048965000000000000000
-42.768040153173729000000000000000
-41.198642669526080000000000000000
-40.219444268707299000000000000000
-41.141058317314517000000000000000
-39.811743274407903000000000000000
-37.030921246799508000000000000000
-35.316616153894685000000000000000
-33.610991721401206000000000000000
-33.367008862305433000000000000000
-32.411542572317330000000000000000
-29.983220716466310000000000000000
-28.947841640239229000000000000000
-27.751848558840646000000000000000
-25.593480696218560000000000000000
-24.123062418576687000000000000000
-23.291975667602017000000000000000
-19.871729011176150000000000000000
-19.862629980641099000000000000000
-16.932645961105656000000000000000
-16.252200255936256000000000000000
-13.945388960580923000000000000000
-12.483819632163627000000000000000
-10.959365001632136000000000000000
-7.905152050357370000000000000000
