%!PS-Adobe-3.0 EPSF-3.0
%%Creator: MATLAB, The MathWorks, Inc. Version 8.0.0.783 (R2012b). Operating System: Microsoft Windows 7.
%%Title: C:\work\Dropbox\ECA1\Assignment\Report\eca1-power_cell.eps
%%CreationDate: 11/25/2012  15:18:08
%%DocumentNeededFonts: Helvetica
%%DocumentProcessColors: Cyan Magenta Yellow Black
%%LanguageLevel: 2
%%Pages: 1
%%BoundingBox:    87   262   507   578
%%EndComments

%%BeginProlog
% MathWorks dictionary
/MathWorks 160 dict begin
% definition operators
/bdef {bind def} bind def
/ldef {load def} bind def
/xdef {exch def} bdef
/xstore {exch store} bdef
% operator abbreviations
/c  /clip ldef
/cc /concat ldef
/cp /closepath ldef
/gr /grestore ldef
/gs /gsave ldef
/mt /moveto ldef
/np /newpath ldef
/cm /currentmatrix ldef
/sm /setmatrix ldef
/rm /rmoveto ldef
/rl /rlineto ldef
/s {show newpath} bdef
/sc {setcmykcolor} bdef
/sr /setrgbcolor ldef
/sg /setgray ldef
/w /setlinewidth ldef
/j /setlinejoin ldef
/cap /setlinecap ldef
/rc {rectclip} bdef
/rf {rectfill} bdef
% page state control
/pgsv () def
/bpage {/pgsv save def} bdef
/epage {pgsv restore} bdef
/bplot /gsave ldef
/eplot {stroke grestore} bdef
% orientation switch
/portraitMode 0 def /landscapeMode 1 def /rotateMode 2 def
% coordinate system mappings
/dpi2point 0 def
% font control
/FontSize 0 def
/FMS {/FontSize xstore findfont [FontSize 0 0 FontSize neg 0 0]
  makefont setfont} bdef
/ISOLatin1Encoding where {pop /WindowsLatin1Encoding 256 array bdef
ISOLatin1Encoding WindowsLatin1Encoding copy pop
/.notdef/.notdef/quotesinglbase/florin/quotedblbase/ellipsis/dagger
/daggerdbl/circumflex/perthousand/Scaron/guilsinglleft/OE/.notdef/.notdef
/.notdef/.notdef/quoteleft/quoteright/quotedblleft/quotedblright/bullet
/endash/emdash/tilde/trademark/scaron/guilsinglright/oe/.notdef/.notdef
/Ydieresis WindowsLatin1Encoding 128 32 getinterval astore pop}
{/WindowsLatin1Encoding StandardEncoding bdef} ifelse
/reencode {exch dup where {pop load} {pop StandardEncoding} ifelse
  exch dup 3 1 roll findfont dup length dict begin
  { 1 index /FID ne {def}{pop pop} ifelse } forall
  /Encoding exch def currentdict end definefont pop} bdef
/isroman {findfont /CharStrings get /Agrave known} bdef
/FMSR {3 1 roll 1 index dup isroman {reencode} {pop pop} ifelse
  exch FMS} bdef
/csm {1 dpi2point div -1 dpi2point div scale neg translate
 dup landscapeMode eq {pop -90 rotate}
  {rotateMode eq {90 rotate} if} ifelse} bdef
% line types: solid, dotted, dashed, dotdash
/SO { [] 0 setdash } bdef
/DO { [.5 dpi2point mul 4 dpi2point mul] 0 setdash } bdef
/DA { [6 dpi2point mul] 0 setdash } bdef
/DD { [.5 dpi2point mul 4 dpi2point mul 6 dpi2point mul 4
  dpi2point mul] 0 setdash } bdef
% macros for lines and objects
/L {lineto stroke} bdef
/MP {3 1 roll moveto 1 sub {rlineto} repeat} bdef
/AP {{rlineto} repeat} bdef
/PDlw -1 def
/W {/PDlw currentlinewidth def setlinewidth} def
/PP {closepath eofill} bdef
/DP {closepath stroke} bdef
/MR {4 -2 roll moveto dup  0 exch rlineto exch 0 rlineto
  neg 0 exch rlineto closepath} bdef
/FR {MR stroke} bdef
/PR {MR fill} bdef
/L1i {{currentfile picstr readhexstring pop} image} bdef
/tMatrix matrix def
/MakeOval {newpath tMatrix currentmatrix pop translate scale
0 0 1 0 360 arc tMatrix setmatrix} bdef
/FO {MakeOval stroke} bdef
/PO {MakeOval fill} bdef
/PD {currentlinewidth 2 div 0 360 arc fill
   PDlw -1 eq not {PDlw w /PDlw -1 def} if} def
/FA {newpath tMatrix currentmatrix pop translate scale
  0 0 1 5 -2 roll arc tMatrix setmatrix stroke} bdef
/PA {newpath tMatrix currentmatrix pop	translate 0 0 moveto scale
  0 0 1 5 -2 roll arc closepath tMatrix setmatrix fill} bdef
/FAn {newpath tMatrix currentmatrix pop translate scale
  0 0 1 5 -2 roll arcn tMatrix setmatrix stroke} bdef
/PAn {newpath tMatrix currentmatrix pop translate 0 0 moveto scale
  0 0 1 5 -2 roll arcn closepath tMatrix setmatrix fill} bdef
/vradius 0 def /hradius 0 def /lry 0 def
/lrx 0 def /uly 0 def /ulx 0 def /rad 0 def
/MRR {/vradius xdef /hradius xdef /lry xdef /lrx xdef /uly xdef
  /ulx xdef newpath tMatrix currentmatrix pop ulx hradius add uly
  vradius add translate hradius vradius scale 0 0 1 180 270 arc 
  tMatrix setmatrix lrx hradius sub uly vradius add translate
  hradius vradius scale 0 0 1 270 360 arc tMatrix setmatrix
  lrx hradius sub lry vradius sub translate hradius vradius scale
  0 0 1 0 90 arc tMatrix setmatrix ulx hradius add lry vradius sub
  translate hradius vradius scale 0 0 1 90 180 arc tMatrix setmatrix
  closepath} bdef
/FRR {MRR stroke } bdef
/PRR {MRR fill } bdef
/MlrRR {/lry xdef /lrx xdef /uly xdef /ulx xdef /rad lry uly sub 2 div def
  newpath tMatrix currentmatrix pop ulx rad add uly rad add translate
  rad rad scale 0 0 1 90 270 arc tMatrix setmatrix lrx rad sub lry rad
  sub translate rad rad scale 0 0 1 270 90 arc tMatrix setmatrix
  closepath} bdef
/FlrRR {MlrRR stroke } bdef
/PlrRR {MlrRR fill } bdef
/MtbRR {/lry xdef /lrx xdef /uly xdef /ulx xdef /rad lrx ulx sub 2 div def
  newpath tMatrix currentmatrix pop ulx rad add uly rad add translate
  rad rad scale 0 0 1 180 360 arc tMatrix setmatrix lrx rad sub lry rad
  sub translate rad rad scale 0 0 1 0 180 arc tMatrix setmatrix
  closepath} bdef
/FtbRR {MtbRR stroke } bdef
/PtbRR {MtbRR fill } bdef
/stri 6 array def /dtri 6 array def
/smat 6 array def /dmat 6 array def
/tmat1 6 array def /tmat2 6 array def /dif 3 array def
/asub {/ind2 exch def /ind1 exch def dup dup
  ind1 get exch ind2 get sub exch } bdef
/tri_to_matrix {
  2 0 asub 3 1 asub 4 0 asub 5 1 asub
  dup 0 get exch 1 get 7 -1 roll astore } bdef
/compute_transform {
  dmat dtri tri_to_matrix tmat1 invertmatrix 
  smat stri tri_to_matrix tmat2 concatmatrix } bdef
/ds {stri astore pop} bdef
/dt {dtri astore pop} bdef
/db {2 copy /cols xdef /rows xdef mul dup 3 mul string
  currentfile 
  3 index 0 eq {/ASCIIHexDecode filter}
  {/ASCII85Decode filter 3 index 2 eq {/RunLengthDecode filter} if }
  ifelse exch readstring pop
  dup 0 3 index getinterval /rbmap xdef
  dup 2 index dup getinterval /gbmap xdef
  1 index dup 2 mul exch getinterval /bbmap xdef pop pop}bdef
/it {gs np dtri aload pop moveto lineto lineto cp c
  cols rows 8 compute_transform 
  rbmap gbmap bbmap true 3 colorimage gr}bdef
/il {newpath moveto lineto stroke}bdef
currentdict end def
%%EndProlog

%%BeginSetup
MathWorks begin

0 cap

end
%%EndSetup

%%Page: 1 1
%%BeginPageSetup
%%PageBoundingBox:    87   262   507   578
MathWorks begin
bpage
%%EndPageSetup

%%BeginObject: obj1
bplot

/dpi2point 12 def
portraitMode 1044 6936 csm

    0     0  5045  3782 rc
85 dict begin %Colortable dictionary
/c0 { 0.000000 0.000000 0.000000 sr} bdef
/c1 { 1.000000 1.000000 1.000000 sr} bdef
/c2 { 0.900000 0.000000 0.000000 sr} bdef
/c3 { 0.000000 0.820000 0.000000 sr} bdef
/c4 { 0.000000 0.000000 0.800000 sr} bdef
/c5 { 0.910000 0.820000 0.320000 sr} bdef
/c6 { 1.000000 0.260000 0.820000 sr} bdef
/c7 { 0.000000 0.820000 0.820000 sr} bdef
c0
1 j
1 sg
   0    0 5046 3783 rf
6 w
0 3082 3910 0 0 -3082 656 3366 4 MP
PP
-3910 0 0 3082 3910 0 0 -3082 656 3366 5 MP stroke
4 w
DO
SO
6 w
0 sg
 656  284 mt 4566  284 L
 656 3366 mt 4566 3366 L
4566 3366 mt 4566  284 L
 656 3366 mt  656  284 L
 656 3366 mt 4566 3366 L
 656 3366 mt  656  284 L
 656 3366 mt  656 3326 L
 656  284 mt  656  323 L
%%IncludeResource: font Helvetica
/Helvetica /WindowsLatin1Encoding 120 FMSR

 623 3511 mt 
(0) s
1214 3366 mt 1214 3326 L
1214  284 mt 1214  323 L
1181 3511 mt 
(2) s
1773 3366 mt 1773 3326 L
1773  284 mt 1773  323 L
1740 3511 mt 
(4) s
2331 3366 mt 2331 3326 L
2331  284 mt 2331  323 L
2298 3511 mt 
(6) s
2890 3366 mt 2890 3326 L
2890  284 mt 2890  323 L
2857 3511 mt 
(8) s
3448 3366 mt 3448 3326 L
3448  284 mt 3448  323 L
3382 3511 mt 
(10) s
4007 3366 mt 4007 3326 L
4007  284 mt 4007  323 L
3941 3511 mt 
(12) s
4566 3366 mt 4566 3326 L
4566  284 mt 4566  323 L
4500 3511 mt 
(14) s
 656 3366 mt  695 3366 L
4566 3366 mt 4526 3366 L
 421 3410 mt 
(167) s
 656 2852 mt  695 2852 L
4566 2852 mt 4526 2852 L
 321 2896 mt 
(167.5) s
 656 2338 mt  695 2338 L
4566 2338 mt 4526 2338 L
 421 2382 mt 
(168) s
 656 1825 mt  695 1825 L
4566 1825 mt 4526 1825 L
 321 1869 mt 
(168.5) s
 656 1311 mt  695 1311 L
4566 1311 mt 4526 1311 L
 421 1355 mt 
(169) s
 656  797 mt  695  797 L
4566  797 mt 4526  797 L
 321  841 mt 
(169.5) s
 656  284 mt  695  284 L
4566  284 mt 4526  284 L
 421  328 mt 
(170) s
 656  284 mt 4566  284 L
 656 3366 mt 4566 3366 L
4566 3366 mt 4566  284 L
 656 3366 mt  656  284 L
gs 656 284 3911 3083 rc
/c8 { 0.000000 0.000000 1.000000 sr} bdef
c8
70 111 70 45 70 -7 70 -46 70 -72 69 -85 70 -83 70 -69 
70 -44 70 -26 70 -16 69 -16 70 -21 70 -16 70 2 70 35 
69 73 70 94 70 87 70 54 70 4 70 -32 69 -43 70 -32 
70 -2 70 23 70 38 69 44 70 40 70 33 70 22 70 8 
70 -9 69 -23 70 -32 70 -39 70 -42 70 -47 70 -54 69 -63 
70 -69 70 -56 70 -20 70 43 69 116 70 155 70 148 70 94 
70 7 70 -67 69 -114 70 -134 70 -127 70 -95 70 -35 69 52 
656 1105 57 MP stroke
/c9 { 0.000000 0.500000 0.000000 sr} bdef
c9
70 67 70 58 70 46 70 34 70 21 69 8 70 -7 70 -22 
70 -36 70 -38 70 -26 69 -3 70 30 70 44 70 32 70 -3 
69 -55 70 -87 70 -94 70 -72 70 -29 70 12 69 46 70 74 
70 91 70 93 70 78 69 46 70 2 70 -28 70 -41 70 -36 
70 -16 69 1 70 8 70 7 70 1 70 -3 70 -2 69 4 
70 12 70 12 70 0 70 -24 69 -53 70 -67 70 -58 70 -27 
70 17 70 53 69 68 70 67 70 48 70 11 70 -45 69 -117 
656 1003 57 MP stroke
/c10 { 1.000000 0.000000 0.000000 sr} bdef
c10
70 108 70 43 70 -7 70 -42 70 -60 69 -65 70 -53 70 -27 
70 9 70 33 70 37 69 24 70 -4 70 -26 70 -37 70 -36 
69 -29 70 -23 70 -23 70 -28 70 -35 70 -36 69 -26 70 -6 
70 20 70 35 70 33 69 15 70 -12 70 -32 70 -34 70 -25 
70 -3 69 8 70 6 70 -11 70 -34 70 -43 70 -29 69 4 
70 52 70 84 70 93 70 79 69 46 70 12 70 -16 70 -42 
70 -63 70 -77 69 -84 70 -84 70 -79 70 -65 70 -44 69 -18 
656 1311 57 MP stroke
/c11 { 0.000000 0.750000 0.750000 sr} bdef
c11
70 9 70 24 70 32 70 38 70 38 69 33 70 23 70 9 
70 -9 70 -23 70 -33 69 -38 70 -39 70 -33 70 -24 70 -7 
69 13 70 26 70 33 70 31 70 24 70 21 69 25 70 33 
70 44 70 44 70 25 69 -10 70 -55 70 -85 70 -92 70 -77 
70 -44 69 -12 70 17 70 39 70 58 70 62 70 54 69 32 
70 0 70 -25 70 -38 70 -40 69 -33 70 -27 70 -22 70 -21 
70 -21 70 -23 69 -27 70 -31 70 -39 70 -46 70 -55 69 -66 
656 1311 57 MP stroke
/c12 { 0.750000 0.000000 0.750000 sr} bdef
c12
70 -6 70 -3 70 2 70 7 70 13 69 21 70 29 70 39 
70 48 70 42 70 24 69 -11 70 -54 70 -83 70 -92 70 -79 
69 -52 70 -28 70 -14 70 -9 70 -12 70 -19 69 -29 70 -43 
70 -56 70 -61 70 -54 69 -34 70 -5 70 19 70 39 70 50 
70 55 69 56 70 52 70 42 70 31 70 23 70 22 69 27 
70 35 70 35 70 26 70 7 69 -19 70 -33 70 -33 70 -18 
70 8 70 26 69 36 70 33 70 20 70 -3 70 -38 69 -82 
656 2749 57 MP stroke
/c13 { 0.750000 0.750000 0.000000 sr} bdef
c13
70 -5 70 -21 70 -33 70 -44 70 -50 69 -53 70 -53 70 -50 
70 -42 70 -33 70 -21 69 -6 70 9 70 23 70 33 70 37 
69 39 70 34 70 24 70 6 70 -14 70 -28 69 -33 70 -28 
70 -16 70 -4 70 6 69 14 70 21 70 26 70 28 70 28 
70 28 69 26 70 25 70 24 70 22 70 24 70 26 69 31 
70 36 70 35 70 25 70 6 69 -16 70 -31 70 -33 70 -22 
70 -4 70 7 69 5 70 -8 70 -34 70 -72 70 -122 69 -183 
656 3057 57 MP stroke
0.25 sg
70 58 70 33 70 14 70 -2 70 -15 69 -24 70 -31 70 -33 
70 -32 70 -29 70 -24 69 -17 70 -10 70 -2 70 4 70 8 
69 11 70 18 70 29 70 44 70 61 70 64 69 53 70 28 
70 -8 70 -31 70 -38 69 -26 70 -3 70 10 70 6 70 -13 
70 -43 69 -61 70 -60 70 -41 70 -9 70 19 70 40 69 52 
70 57 70 56 70 52 70 41 69 27 70 11 70 -8 70 -30 
70 -51 70 -60 69 -56 70 -39 70 -6 70 41 70 100 69 174 
656 2646 57 MP stroke
c8
70 2 70 0 70 -1 70 -1 70 -1 69 -1 70 0 70 2 
70 3 70 3 70 0 69 -6 70 -13 70 -11 70 1 70 23 
69 51 70 64 70 58 70 32 70 -6 70 -33 69 -38 70 -25 
70 1 70 13 70 7 69 -21 70 -62 70 -87 70 -89 70 -71 
70 -34 69 -3 70 15 70 22 70 21 70 22 70 25 69 35 
70 45 70 42 70 25 70 -9 69 -52 70 -82 70 -91 70 -83 
70 -59 70 -34 69 -13 70 3 70 16 70 25 70 30 69 32 
656 3057 57 MP stroke
gr

c8
0 sg
2507 3654 mt 
(t \(s\)) s
 239 2101 mt  -90 rotate
(power \(W\)) s
90 rotate
 639 3409 mt 
( ) s
4550  326 mt 
( ) s
1 sg
0 1170 1152 0 0 -1170 3873 2396 4 MP
PP
-1152 0 0 1170 1152 0 0 -1170 3873 2396 5 MP stroke
4 w
DO
SO
6 w
0 sg
3873 1226 mt 5025 1226 L
3873 2396 mt 5025 2396 L
5025 2396 mt 5025 1226 L
3873 2396 mt 3873 1226 L
3873 2396 mt 5025 2396 L
3873 2396 mt 3873 1226 L
3873 1226 mt 5025 1226 L
3873 2396 mt 5025 2396 L
5025 2396 mt 5025 1226 L
3873 2396 mt 3873 1226 L
%%IncludeResource: font Helvetica
/Helvetica /WindowsLatin1Encoding 84 FMSR

4377 1349 mt 
(ppe-dp-fma) s
gs 3873 1226 1153 1171 rc
c8
387 0 3950 1318 2 MP stroke
gr

c8
0 sg
4377 1490 mt 
(ppe-dp-no-fma) s
gs 3873 1226 1153 1171 rc
c9
387 0 3950 1459 2 MP stroke
gr

c9
0 sg
4377 1630 mt 
(ppe-sp-fma) s
gs 3873 1226 1153 1171 rc
c10
387 0 3950 1600 2 MP stroke
gr

c10
0 sg
4377 1771 mt 
(ppe-sp-no-fma) s
gs 3873 1226 1153 1171 rc
c11
387 0 3950 1740 2 MP stroke
gr

c11
0 sg
4377 1912 mt 
(spe-dp-fma) s
gs 3873 1226 1153 1171 rc
c12
387 0 3950 1881 2 MP stroke
gr

c12
0 sg
4377 2053 mt 
(spe-dp-no-fma) s
gs 3873 1226 1153 1171 rc
c13
387 0 3950 2021 2 MP stroke
gr

c13
0 sg
4377 2193 mt 
(spe-sp-fma) s
gs 3873 1226 1153 1171 rc
0.25 sg
387 0 3950 2162 2 MP stroke
gr

0.25 sg
0 sg
4377 2334 mt 
(spe-sp-no-fma) s
gs 3873 1226 1153 1171 rc
c8
387 0 3950 2303 2 MP stroke
gr

c8

end %%Color Dict

eplot
%%EndObject

epage
end

showpage

%%Trailer
%%EOF
