%!PS-Adobe-3.0 EPSF-3.0
%%Creator: MATLAB, The MathWorks, Inc. Version 8.0.0.783 (R2012b). Operating System: Microsoft Windows 7.
%%Title: C:\work\Dropbox\ECA1\Assignment\Report\eca1-power_cuda.eps
%%CreationDate: 11/25/2012  14:20:52
%%DocumentNeededFonts: Helvetica
%%DocumentProcessColors: Cyan Magenta Yellow Black
%%LanguageLevel: 2
%%Pages: 1
%%BoundingBox:    87   262   507   578
%%EndComments

%%BeginProlog
% MathWorks dictionary
/MathWorks 160 dict begin
% definition operators
/bdef {bind def} bind def
/ldef {load def} bind def
/xdef {exch def} bdef
/xstore {exch store} bdef
% operator abbreviations
/c  /clip ldef
/cc /concat ldef
/cp /closepath ldef
/gr /grestore ldef
/gs /gsave ldef
/mt /moveto ldef
/np /newpath ldef
/cm /currentmatrix ldef
/sm /setmatrix ldef
/rm /rmoveto ldef
/rl /rlineto ldef
/s {show newpath} bdef
/sc {setcmykcolor} bdef
/sr /setrgbcolor ldef
/sg /setgray ldef
/w /setlinewidth ldef
/j /setlinejoin ldef
/cap /setlinecap ldef
/rc {rectclip} bdef
/rf {rectfill} bdef
% page state control
/pgsv () def
/bpage {/pgsv save def} bdef
/epage {pgsv restore} bdef
/bplot /gsave ldef
/eplot {stroke grestore} bdef
% orientation switch
/portraitMode 0 def /landscapeMode 1 def /rotateMode 2 def
% coordinate system mappings
/dpi2point 0 def
% font control
/FontSize 0 def
/FMS {/FontSize xstore findfont [FontSize 0 0 FontSize neg 0 0]
  makefont setfont} bdef
/ISOLatin1Encoding where {pop /WindowsLatin1Encoding 256 array bdef
ISOLatin1Encoding WindowsLatin1Encoding copy pop
/.notdef/.notdef/quotesinglbase/florin/quotedblbase/ellipsis/dagger
/daggerdbl/circumflex/perthousand/Scaron/guilsinglleft/OE/.notdef/.notdef
/.notdef/.notdef/quoteleft/quoteright/quotedblleft/quotedblright/bullet
/endash/emdash/tilde/trademark/scaron/guilsinglright/oe/.notdef/.notdef
/Ydieresis WindowsLatin1Encoding 128 32 getinterval astore pop}
{/WindowsLatin1Encoding StandardEncoding bdef} ifelse
/reencode {exch dup where {pop load} {pop StandardEncoding} ifelse
  exch dup 3 1 roll findfont dup length dict begin
  { 1 index /FID ne {def}{pop pop} ifelse } forall
  /Encoding exch def currentdict end definefont pop} bdef
/isroman {findfont /CharStrings get /Agrave known} bdef
/FMSR {3 1 roll 1 index dup isroman {reencode} {pop pop} ifelse
  exch FMS} bdef
/csm {1 dpi2point div -1 dpi2point div scale neg translate
 dup landscapeMode eq {pop -90 rotate}
  {rotateMode eq {90 rotate} if} ifelse} bdef
% line types: solid, dotted, dashed, dotdash
/SO { [] 0 setdash } bdef
/DO { [.5 dpi2point mul 4 dpi2point mul] 0 setdash } bdef
/DA { [6 dpi2point mul] 0 setdash } bdef
/DD { [.5 dpi2point mul 4 dpi2point mul 6 dpi2point mul 4
  dpi2point mul] 0 setdash } bdef
% macros for lines and objects
/L {lineto stroke} bdef
/MP {3 1 roll moveto 1 sub {rlineto} repeat} bdef
/AP {{rlineto} repeat} bdef
/PDlw -1 def
/W {/PDlw currentlinewidth def setlinewidth} def
/PP {closepath eofill} bdef
/DP {closepath stroke} bdef
/MR {4 -2 roll moveto dup  0 exch rlineto exch 0 rlineto
  neg 0 exch rlineto closepath} bdef
/FR {MR stroke} bdef
/PR {MR fill} bdef
/L1i {{currentfile picstr readhexstring pop} image} bdef
/tMatrix matrix def
/MakeOval {newpath tMatrix currentmatrix pop translate scale
0 0 1 0 360 arc tMatrix setmatrix} bdef
/FO {MakeOval stroke} bdef
/PO {MakeOval fill} bdef
/PD {currentlinewidth 2 div 0 360 arc fill
   PDlw -1 eq not {PDlw w /PDlw -1 def} if} def
/FA {newpath tMatrix currentmatrix pop translate scale
  0 0 1 5 -2 roll arc tMatrix setmatrix stroke} bdef
/PA {newpath tMatrix currentmatrix pop	translate 0 0 moveto scale
  0 0 1 5 -2 roll arc closepath tMatrix setmatrix fill} bdef
/FAn {newpath tMatrix currentmatrix pop translate scale
  0 0 1 5 -2 roll arcn tMatrix setmatrix stroke} bdef
/PAn {newpath tMatrix currentmatrix pop translate 0 0 moveto scale
  0 0 1 5 -2 roll arcn closepath tMatrix setmatrix fill} bdef
/vradius 0 def /hradius 0 def /lry 0 def
/lrx 0 def /uly 0 def /ulx 0 def /rad 0 def
/MRR {/vradius xdef /hradius xdef /lry xdef /lrx xdef /uly xdef
  /ulx xdef newpath tMatrix currentmatrix pop ulx hradius add uly
  vradius add translate hradius vradius scale 0 0 1 180 270 arc 
  tMatrix setmatrix lrx hradius sub uly vradius add translate
  hradius vradius scale 0 0 1 270 360 arc tMatrix setmatrix
  lrx hradius sub lry vradius sub translate hradius vradius scale
  0 0 1 0 90 arc tMatrix setmatrix ulx hradius add lry vradius sub
  translate hradius vradius scale 0 0 1 90 180 arc tMatrix setmatrix
  closepath} bdef
/FRR {MRR stroke } bdef
/PRR {MRR fill } bdef
/MlrRR {/lry xdef /lrx xdef /uly xdef /ulx xdef /rad lry uly sub 2 div def
  newpath tMatrix currentmatrix pop ulx rad add uly rad add translate
  rad rad scale 0 0 1 90 270 arc tMatrix setmatrix lrx rad sub lry rad
  sub translate rad rad scale 0 0 1 270 90 arc tMatrix setmatrix
  closepath} bdef
/FlrRR {MlrRR stroke } bdef
/PlrRR {MlrRR fill } bdef
/MtbRR {/lry xdef /lrx xdef /uly xdef /ulx xdef /rad lrx ulx sub 2 div def
  newpath tMatrix currentmatrix pop ulx rad add uly rad add translate
  rad rad scale 0 0 1 180 360 arc tMatrix setmatrix lrx rad sub lry rad
  sub translate rad rad scale 0 0 1 0 180 arc tMatrix setmatrix
  closepath} bdef
/FtbRR {MtbRR stroke } bdef
/PtbRR {MtbRR fill } bdef
/stri 6 array def /dtri 6 array def
/smat 6 array def /dmat 6 array def
/tmat1 6 array def /tmat2 6 array def /dif 3 array def
/asub {/ind2 exch def /ind1 exch def dup dup
  ind1 get exch ind2 get sub exch } bdef
/tri_to_matrix {
  2 0 asub 3 1 asub 4 0 asub 5 1 asub
  dup 0 get exch 1 get 7 -1 roll astore } bdef
/compute_transform {
  dmat dtri tri_to_matrix tmat1 invertmatrix 
  smat stri tri_to_matrix tmat2 concatmatrix } bdef
/ds {stri astore pop} bdef
/dt {dtri astore pop} bdef
/db {2 copy /cols xdef /rows xdef mul dup 3 mul string
  currentfile 
  3 index 0 eq {/ASCIIHexDecode filter}
  {/ASCII85Decode filter 3 index 2 eq {/RunLengthDecode filter} if }
  ifelse exch readstring pop
  dup 0 3 index getinterval /rbmap xdef
  dup 2 index dup getinterval /gbmap xdef
  1 index dup 2 mul exch getinterval /bbmap xdef pop pop}bdef
/it {gs np dtri aload pop moveto lineto lineto cp c
  cols rows 8 compute_transform 
  rbmap gbmap bbmap true 3 colorimage gr}bdef
/il {newpath moveto lineto stroke}bdef
currentdict end def
%%EndProlog

%%BeginSetup
MathWorks begin

0 cap

end
%%EndSetup

%%Page: 1 1
%%BeginPageSetup
%%PageBoundingBox:    87   262   507   578
MathWorks begin
bpage
%%EndPageSetup

%%BeginObject: obj1
bplot

/dpi2point 12 def
portraitMode 1044 6936 csm

    0     0  5045  3782 rc
85 dict begin %Colortable dictionary
/c0 { 0.000000 0.000000 0.000000 sr} bdef
/c1 { 1.000000 1.000000 1.000000 sr} bdef
/c2 { 0.900000 0.000000 0.000000 sr} bdef
/c3 { 0.000000 0.820000 0.000000 sr} bdef
/c4 { 0.000000 0.000000 0.800000 sr} bdef
/c5 { 0.910000 0.820000 0.320000 sr} bdef
/c6 { 1.000000 0.260000 0.820000 sr} bdef
/c7 { 0.000000 0.820000 0.820000 sr} bdef
c0
1 j
1 sg
   0    0 5046 3783 rf
6 w
0 3082 3910 0 0 -3082 656 3366 4 MP
PP
-3910 0 0 3082 3910 0 0 -3082 656 3366 5 MP stroke
4 w
DO
SO
6 w
0 sg
 656  284 mt 4566  284 L
 656 3366 mt 4566 3366 L
4566 3366 mt 4566  284 L
 656 3366 mt  656  284 L
 656 3366 mt 4566 3366 L
 656 3366 mt  656  284 L
 656 3366 mt  656 3326 L
 656  284 mt  656  323 L
%%IncludeResource: font Helvetica
/Helvetica /WindowsLatin1Encoding 120 FMSR

 623 3511 mt 
(0) s
1090 3366 mt 1090 3326 L
1090  284 mt 1090  323 L
1057 3511 mt 
(1) s
1524 3366 mt 1524 3326 L
1524  284 mt 1524  323 L
1491 3511 mt 
(2) s
1959 3366 mt 1959 3326 L
1959  284 mt 1959  323 L
1926 3511 mt 
(3) s
2393 3366 mt 2393 3326 L
2393  284 mt 2393  323 L
2360 3511 mt 
(4) s
2828 3366 mt 2828 3326 L
2828  284 mt 2828  323 L
2795 3511 mt 
(5) s
3262 3366 mt 3262 3326 L
3262  284 mt 3262  323 L
3229 3511 mt 
(6) s
3697 3366 mt 3697 3326 L
3697  284 mt 3697  323 L
3664 3511 mt 
(7) s
4131 3366 mt 4131 3326 L
4131  284 mt 4131  323 L
4098 3511 mt 
(8) s
4566 3366 mt 4566 3326 L
4566  284 mt 4566  323 L
4533 3511 mt 
(9) s
 656 3366 mt  695 3366 L
4566 3366 mt 4526 3366 L
 421 3410 mt 
(365) s
 656 2925 mt  695 2925 L
4566 2925 mt 4526 2925 L
 421 2969 mt 
(370) s
 656 2485 mt  695 2485 L
4566 2485 mt 4526 2485 L
 421 2529 mt 
(375) s
 656 2045 mt  695 2045 L
4566 2045 mt 4526 2045 L
 421 2089 mt 
(380) s
 656 1604 mt  695 1604 L
4566 1604 mt 4526 1604 L
 421 1648 mt 
(385) s
 656 1164 mt  695 1164 L
4566 1164 mt 4526 1164 L
 421 1208 mt 
(390) s
 656  724 mt  695  724 L
4566  724 mt 4526  724 L
 421  768 mt 
(395) s
 656  284 mt  695  284 L
4566  284 mt 4526  284 L
 421  328 mt 
(400) s
 656  284 mt 4566  284 L
 656 3366 mt 4566 3366 L
4566 3366 mt 4566  284 L
 656 3366 mt  656  284 L
gs 656 284 3911 3083 rc
/c8 { 0.000000 0.000000 1.000000 sr} bdef
c8
109 56 109 30 108 9 109 -7 109 -18 108 -25 109 -25 108 -20 
109 -12 109 -4 108 4 109 12 108 16 109 12 109 -2 108 -26 
109 -55 108 -64 109 -48 109 -9 108 47 109 90 109 109 108 106 
109 83 108 58 109 30 109 5 108 -21 109 -41 108 -54 109 -60 
109 -61 108 -54 109 -40 108 -21 656 2925 37 MP stroke
/c9 { 0.000000 0.500000 0.000000 sr} bdef
c9
109 -25 109 -22 108 -21 109 -20 109 -20 108 -21 109 -22 108 -25 
109 -27 109 -26 108 -22 109 -13 108 -3 109 4 109 3 108 -4 
109 -16 108 -23 109 -26 109 -23 108 -14 109 4 109 31 108 67 
109 104 108 117 109 93 109 38 108 -42 109 -105 108 -142 109 -151 
109 -135 108 -93 109 -22 108 74 656 3189 37 MP stroke
/c10 { 1.000000 0.000000 0.000000 sr} bdef
c10
109 -48 108 -45 109 -42 109 -41 108 -40 109 -42 108 -45 109 -49 
109 -54 108 -61 109 -70 108 -79 656 1076 13 MP stroke
/c11 { 0.000000 0.750000 0.750000 sr} bdef
c11
109 -74 108 -52 109 -32 109 -18 108 -6 109 1 108 3 109 2 
109 -3 108 -13 109 -27 108 -45 656 548 13 MP stroke
gr

c11
0 sg
2507 3654 mt 
(t \(s\)) s
 339 2101 mt  -90 rotate
(power \(W\)) s
90 rotate
 639 3409 mt 
( ) s
4550  326 mt 
( ) s
1 sg
0 626 1113 0 0 -626 3394 970 4 MP
PP
-1113 0 0 626 1113 0 0 -626 3394 970 5 MP stroke
4 w
DO
SO
6 w
0 sg
3394  344 mt 4507  344 L
3394  970 mt 4507  970 L
4507  970 mt 4507  344 L
3394  970 mt 3394  344 L
3394  970 mt 4507  970 L
3394  970 mt 3394  344 L
3394  344 mt 4507  344 L
3394  970 mt 4507  970 L
4507  970 mt 4507  344 L
3394  970 mt 3394  344 L
3898  478 mt 
(dp-fma) s
gs 3394 344 1114 627 rc
c8
387 0 3471 436 2 MP stroke
gr

c8
0 sg
3898  626 mt 
(dp-no-fma) s
gs 3394 344 1114 627 rc
c9
387 0 3471 583 2 MP stroke
gr

c9
0 sg
3898  773 mt 
(sp-fma) s
gs 3394 344 1114 627 rc
c10
387 0 3471 730 2 MP stroke
gr

c10
0 sg
3898  921 mt 
(sp-no-fma) s
gs 3394 344 1114 627 rc
c11
387 0 3471 877 2 MP stroke
gr

c11

end %%Color Dict

eplot
%%EndObject

epage
end

showpage

%%Trailer
%%EOF
