%!PS-Adobe-3.0 EPSF-3.0
%%Creator: MATLAB, The MathWorks, Inc. Version 8.0.0.783 (R2012b). Operating System: Microsoft Windows 7.
%%Title: C:\work\Dropbox\ECA1\Assignment\Report\eca1-precision_dp.eps
%%CreationDate: 11/25/2012  15:54:23
%%DocumentNeededFonts: Helvetica
%%DocumentProcessColors: Cyan Magenta Yellow Black
%%LanguageLevel: 2
%%Pages: 1
%%BoundingBox:    87   262   507   578
%%EndComments

%%BeginProlog
% MathWorks dictionary
/MathWorks 160 dict begin
% definition operators
/bdef {bind def} bind def
/ldef {load def} bind def
/xdef {exch def} bdef
/xstore {exch store} bdef
% operator abbreviations
/c  /clip ldef
/cc /concat ldef
/cp /closepath ldef
/gr /grestore ldef
/gs /gsave ldef
/mt /moveto ldef
/np /newpath ldef
/cm /currentmatrix ldef
/sm /setmatrix ldef
/rm /rmoveto ldef
/rl /rlineto ldef
/s {show newpath} bdef
/sc {setcmykcolor} bdef
/sr /setrgbcolor ldef
/sg /setgray ldef
/w /setlinewidth ldef
/j /setlinejoin ldef
/cap /setlinecap ldef
/rc {rectclip} bdef
/rf {rectfill} bdef
% page state control
/pgsv () def
/bpage {/pgsv save def} bdef
/epage {pgsv restore} bdef
/bplot /gsave ldef
/eplot {stroke grestore} bdef
% orientation switch
/portraitMode 0 def /landscapeMode 1 def /rotateMode 2 def
% coordinate system mappings
/dpi2point 0 def
% font control
/FontSize 0 def
/FMS {/FontSize xstore findfont [FontSize 0 0 FontSize neg 0 0]
  makefont setfont} bdef
/ISOLatin1Encoding where {pop /WindowsLatin1Encoding 256 array bdef
ISOLatin1Encoding WindowsLatin1Encoding copy pop
/.notdef/.notdef/quotesinglbase/florin/quotedblbase/ellipsis/dagger
/daggerdbl/circumflex/perthousand/Scaron/guilsinglleft/OE/.notdef/.notdef
/.notdef/.notdef/quoteleft/quoteright/quotedblleft/quotedblright/bullet
/endash/emdash/tilde/trademark/scaron/guilsinglright/oe/.notdef/.notdef
/Ydieresis WindowsLatin1Encoding 128 32 getinterval astore pop}
{/WindowsLatin1Encoding StandardEncoding bdef} ifelse
/reencode {exch dup where {pop load} {pop StandardEncoding} ifelse
  exch dup 3 1 roll findfont dup length dict begin
  { 1 index /FID ne {def}{pop pop} ifelse } forall
  /Encoding exch def currentdict end definefont pop} bdef
/isroman {findfont /CharStrings get /Agrave known} bdef
/FMSR {3 1 roll 1 index dup isroman {reencode} {pop pop} ifelse
  exch FMS} bdef
/csm {1 dpi2point div -1 dpi2point div scale neg translate
 dup landscapeMode eq {pop -90 rotate}
  {rotateMode eq {90 rotate} if} ifelse} bdef
% line types: solid, dotted, dashed, dotdash
/SO { [] 0 setdash } bdef
/DO { [.5 dpi2point mul 4 dpi2point mul] 0 setdash } bdef
/DA { [6 dpi2point mul] 0 setdash } bdef
/DD { [.5 dpi2point mul 4 dpi2point mul 6 dpi2point mul 4
  dpi2point mul] 0 setdash } bdef
% macros for lines and objects
/L {lineto stroke} bdef
/MP {3 1 roll moveto 1 sub {rlineto} repeat} bdef
/AP {{rlineto} repeat} bdef
/PDlw -1 def
/W {/PDlw currentlinewidth def setlinewidth} def
/PP {closepath eofill} bdef
/DP {closepath stroke} bdef
/MR {4 -2 roll moveto dup  0 exch rlineto exch 0 rlineto
  neg 0 exch rlineto closepath} bdef
/FR {MR stroke} bdef
/PR {MR fill} bdef
/L1i {{currentfile picstr readhexstring pop} image} bdef
/tMatrix matrix def
/MakeOval {newpath tMatrix currentmatrix pop translate scale
0 0 1 0 360 arc tMatrix setmatrix} bdef
/FO {MakeOval stroke} bdef
/PO {MakeOval fill} bdef
/PD {currentlinewidth 2 div 0 360 arc fill
   PDlw -1 eq not {PDlw w /PDlw -1 def} if} def
/FA {newpath tMatrix currentmatrix pop translate scale
  0 0 1 5 -2 roll arc tMatrix setmatrix stroke} bdef
/PA {newpath tMatrix currentmatrix pop	translate 0 0 moveto scale
  0 0 1 5 -2 roll arc closepath tMatrix setmatrix fill} bdef
/FAn {newpath tMatrix currentmatrix pop translate scale
  0 0 1 5 -2 roll arcn tMatrix setmatrix stroke} bdef
/PAn {newpath tMatrix currentmatrix pop translate 0 0 moveto scale
  0 0 1 5 -2 roll arcn closepath tMatrix setmatrix fill} bdef
/vradius 0 def /hradius 0 def /lry 0 def
/lrx 0 def /uly 0 def /ulx 0 def /rad 0 def
/MRR {/vradius xdef /hradius xdef /lry xdef /lrx xdef /uly xdef
  /ulx xdef newpath tMatrix currentmatrix pop ulx hradius add uly
  vradius add translate hradius vradius scale 0 0 1 180 270 arc 
  tMatrix setmatrix lrx hradius sub uly vradius add translate
  hradius vradius scale 0 0 1 270 360 arc tMatrix setmatrix
  lrx hradius sub lry vradius sub translate hradius vradius scale
  0 0 1 0 90 arc tMatrix setmatrix ulx hradius add lry vradius sub
  translate hradius vradius scale 0 0 1 90 180 arc tMatrix setmatrix
  closepath} bdef
/FRR {MRR stroke } bdef
/PRR {MRR fill } bdef
/MlrRR {/lry xdef /lrx xdef /uly xdef /ulx xdef /rad lry uly sub 2 div def
  newpath tMatrix currentmatrix pop ulx rad add uly rad add translate
  rad rad scale 0 0 1 90 270 arc tMatrix setmatrix lrx rad sub lry rad
  sub translate rad rad scale 0 0 1 270 90 arc tMatrix setmatrix
  closepath} bdef
/FlrRR {MlrRR stroke } bdef
/PlrRR {MlrRR fill } bdef
/MtbRR {/lry xdef /lrx xdef /uly xdef /ulx xdef /rad lrx ulx sub 2 div def
  newpath tMatrix currentmatrix pop ulx rad add uly rad add translate
  rad rad scale 0 0 1 180 360 arc tMatrix setmatrix lrx rad sub lry rad
  sub translate rad rad scale 0 0 1 0 180 arc tMatrix setmatrix
  closepath} bdef
/FtbRR {MtbRR stroke } bdef
/PtbRR {MtbRR fill } bdef
/stri 6 array def /dtri 6 array def
/smat 6 array def /dmat 6 array def
/tmat1 6 array def /tmat2 6 array def /dif 3 array def
/asub {/ind2 exch def /ind1 exch def dup dup
  ind1 get exch ind2 get sub exch } bdef
/tri_to_matrix {
  2 0 asub 3 1 asub 4 0 asub 5 1 asub
  dup 0 get exch 1 get 7 -1 roll astore } bdef
/compute_transform {
  dmat dtri tri_to_matrix tmat1 invertmatrix 
  smat stri tri_to_matrix tmat2 concatmatrix } bdef
/ds {stri astore pop} bdef
/dt {dtri astore pop} bdef
/db {2 copy /cols xdef /rows xdef mul dup 3 mul string
  currentfile 
  3 index 0 eq {/ASCIIHexDecode filter}
  {/ASCII85Decode filter 3 index 2 eq {/RunLengthDecode filter} if }
  ifelse exch readstring pop
  dup 0 3 index getinterval /rbmap xdef
  dup 2 index dup getinterval /gbmap xdef
  1 index dup 2 mul exch getinterval /bbmap xdef pop pop}bdef
/it {gs np dtri aload pop moveto lineto lineto cp c
  cols rows 8 compute_transform 
  rbmap gbmap bbmap true 3 colorimage gr}bdef
/il {newpath moveto lineto stroke}bdef
currentdict end def
%%EndProlog

%%BeginSetup
MathWorks begin

0 cap

end
%%EndSetup

%%Page: 1 1
%%BeginPageSetup
%%PageBoundingBox:    87   262   507   578
MathWorks begin
bpage
%%EndPageSetup

%%BeginObject: obj1
bplot

/dpi2point 12 def
portraitMode 1044 6936 csm

    0     0  5045  3782 rc
85 dict begin %Colortable dictionary
/c0 { 0.000000 0.000000 0.000000 sr} bdef
/c1 { 1.000000 1.000000 1.000000 sr} bdef
/c2 { 0.900000 0.000000 0.000000 sr} bdef
/c3 { 0.000000 0.820000 0.000000 sr} bdef
/c4 { 0.000000 0.000000 0.800000 sr} bdef
/c5 { 0.910000 0.820000 0.320000 sr} bdef
/c6 { 1.000000 0.260000 0.820000 sr} bdef
/c7 { 0.000000 0.820000 0.820000 sr} bdef
c0
1 j
1 sg
   0    0 5046 3783 rf
6 w
0 3082 3911 0 0 -3082 655 3366 4 MP
PP
-3911 0 0 3082 3911 0 0 -3082 655 3366 5 MP stroke
4 w
DO
SO
6 w
0 sg
 655  284 mt 4566  284 L
 655 3366 mt 4566 3366 L
4566 3366 mt 4566  284 L
 655 3366 mt  655  284 L
 655 3366 mt 4566 3366 L
 655 3366 mt  655  284 L
 655 3366 mt  655 3326 L
 655  284 mt  655  323 L
%%IncludeResource: font Helvetica
/Helvetica /WindowsLatin1Encoding 120 FMSR

 622 3511 mt 
(0) s
1438 3366 mt 1438 3326 L
1438  284 mt 1438  323 L
1355 3511 mt 
(0.2) s
2220 3366 mt 2220 3326 L
2220  284 mt 2220  323 L
2137 3511 mt 
(0.4) s
3002 3366 mt 3002 3326 L
3002  284 mt 3002  323 L
2919 3511 mt 
(0.6) s
3784 3366 mt 3784 3326 L
3784  284 mt 3784  323 L
3701 3511 mt 
(0.8) s
4566 3366 mt 4566 3326 L
4566  284 mt 4566  323 L
4533 3511 mt 
(1) s
 655 3366 mt  695 3366 L
4566 3366 mt 4526 3366 L
 555 3410 mt 
(0) s
 655 3023 mt  695 3023 L
4566 3023 mt 4526 3023 L
 455 3067 mt 
(0.2) s
 655 2681 mt  695 2681 L
4566 2681 mt 4526 2681 L
 455 2725 mt 
(0.4) s
 655 2338 mt  695 2338 L
4566 2338 mt 4526 2338 L
 455 2382 mt 
(0.6) s
 655 1996 mt  695 1996 L
4566 1996 mt 4526 1996 L
 455 2040 mt 
(0.8) s
 655 1653 mt  695 1653 L
4566 1653 mt 4526 1653 L
 555 1697 mt 
(1) s
 655 1311 mt  695 1311 L
4566 1311 mt 4526 1311 L
 455 1355 mt 
(1.2) s
 655  968 mt  695  968 L
4566  968 mt 4526  968 L
 455 1012 mt 
(1.4) s
 655  626 mt  695  626 L
4566  626 mt 4526  626 L
 455  670 mt 
(1.6) s
 655  284 mt  695  284 L
4566  284 mt 4526  284 L
 455  328 mt 
(1.8) s
 655  230 mt 
(x 10) s
%%IncludeResource: font Helvetica
/Helvetica /WindowsLatin1Encoding 80 FMSR

 881  156 mt 
(-13) s
 655  284 mt 4566  284 L
 655 3366 mt 4566 3366 L
4566 3366 mt 4566  284 L
 655 3366 mt  655  284 L
gs 656 284 3911 3083 rc
/c8 { 0.000000 0.000000 1.000000 sr} bdef
c8
4 -4 4 150 4 -43 4 -11 4 120 3 10 4 -112 4 -46 
4 -37 4 105 4 -26 3 -119 4 239 4 18 4 -263 4 173 
3 12 4 -147 4 67 4 28 4 -100 4 317 3 -196 4 -133 
4 38 4 10 4 57 3 55 4 -150 4 271 4 -222 4 36 
4 19 3 8 4 821 4 -418 4 -464 4 -30 3 60 4 1616 
4 -1247 4 -487 4 289 4 -262 3 829 4 -308 4 -422 4 53 
4 209 3 1156 4 -1201 4 -190 4 -4 4 -145 4 240 3 -156 
4 335 4 -403 4 437 4 -437 3 228 4 -4 4 -133 4 264 
4 -59 4 -163 3 201 4 -228 4 154 4 -266 4 68 3 192 
4 0 4 27 4 -175 4 167 4 -232 3 -59 4 289 4 -47 
4 -213 4 142 3 253 4 -357 4 143 4 -22 4 -16 4 -168 
3 257 4 -130 4 -54 4 -75 4 130 3 16 4 -47 4 16 
4 88 4 -118 4 152 3 -131 4 24 4 5 4 6 4 -54 
3 0 4 -67 4 291 4 -311 4 122 4 -13 3 51 4 -154 
4 234 4 -135 4 47 3 88 4 -80 4 -95 4 108 4 -74 
4 -95 3 51 4 135 4 -125 4 44 4 66 3 -70 4 135 
4 -72 4 -168 4 323 4 -235 3 -57 4 -23 4 144 4 4 
4 247 3 -281 4 2140 4 -2045 4 281 4 -452 4 836 3 -509 
4 179 4 22 4 137 4 -475 3 1661 4 -562 4 -1122 4 -34 
4 665 4 -699 3 315 4 -178 4 -19 4 -221 4 103 3 1289 
4 -1426 4 243 4 -154 4 -62 4 57 3 -18 4 35 4 -69 
4 200 4 -228 3 194 4 -46 4 106 4 -22 4 -128 4 -62 
3 121 4 91 4 -239 4 108 4 10 3 109 4 -111 4 108 
4 -70 4 -173 4 204 3 -115 4 19 4 -110 4 71 4 126 
3 -177 4 58 4 -5 4 -22 4 84 4 -17 3 172 4 -225 
4 26 4 -10 4 11 3 -49 4 132 4 -176 4 98 4 15 
4 250 3 -282 4 -73 4 179 4 -109 4 -76 3 231 4 -97 
4 72 4 -119 4 7 4 -72 3 192 4 -4 4 -68 4 117 
4 -235 3 230 4 -109 4 365 4 -277 4 -93 4 93 3 102 
4 -163 4 -49 4 -35 4 -49 3 -11 4 212 4 -186 4 1608 
4 -1091 4 -376 3 121 4 1609 4 -1631 4 817 4 338 3 -1376 
4 164 4 1152 4 -1266 4 1543 4 -1600 3 1642 4 -1578 4 1380 
4 -289 4 -882 3 76 4 -349 4 136 4 1909 4 -1954 4 76 
3 -19 4 -23 4 -99 4 -82 4 40 3 133 4 -13 4 8 
4 -57 4 60 4 -138 3 42 4 -8 4 171 4 -179 4 36 
3 118 4 -188 4 -34 4 182 4 -55 4 7 3 -49 4 87 
4 71 4 8 4 -210 3 -15 4 76 4 107 4 -192 4 -19 
4 10 3 -15 4 143 3424 3218 300 MP stroke
4 19 4 -128 4 42 3 -66 4 119 4 -108 4 74 4 96 
4 -12 3 -33 4 34 4 -125 4 203 4 -240 3 48 4 52 
4 -72 4 127 4 105 4 -104 3 -2 4 -66 4 -50 4 38 
4 -60 3 114 4 1 4 -26 4 9 4 80 4 -215 3 152 
4 194 4 -121 4 -73 4 35 3 57 4 30 4 -120 4 -87 
4 -15 4 148 3 171 4 -350 4 198 4 1430 4 -324 3 -1209 
4 1582 4 -1650 4 68 4 -26 4 292 3 -380 4 228 4 1175 
4 -300 4 -909 3 1654 4 -1813 4 34 4 -50 4 400 4 -255 
3 -152 4 315 4 -194 4 -41 4 -42 3 53 4 19 4 30 
4 61 4 -42 4 168 3 -137 4 15 4 -154 4 145 4 -170 
3 268 4 -252 4 -58 4 20 4 81 4 -42 3 119 4 -24 
4 -95 4 37 4 77 3 -146 4 135 4 259 4 -211 4 95 
4 -214 3 -14 4 8 4 -4 4 -56 4 19 3 141 4 -3 
4 -169 4 186 4 -108 4 -60 3 78 4 1 4 56 4 -100 
4 122 3 -5 4 -105 4 -43 4 25 4 37 4 -2 3 11 
4 -38 4 -52 4 91 4 -36 3 -48 4 120 4 -38 4 -28 
4 98 4 -129 3 57 4 -17 4 57 4 -63 4 65 3 99 
4 -86 4 4 4 169 4 -177 4 -119 3 140 4 1346 4 -1289 
4 -110 4 186 3 -285 4 46 4 1213 4 -1084 4 1757 4 -1943 
3 825 4 -791 4 122 4 600 4 130 3 -871 4 1095 4 -1000 
4 1487 4 -1346 4 574 3 -643 4 -57 4 905 4 -194 4 -676 
3 136 4 -148 4 -110 4 114 4 -84 4 190 3 -193 4 -46 
4 -13 4 129 4 -131 3 76 4 180 4 -49 4 -143 4 166 
4 -111 3 -81 4 81 4 -117 4 108 4 156 3 -133 4 -84 
4 167 4 -161 4 -32 4 173 3 -104 4 227 4 -20 4 -105 
4 -122 3 -26 4 128 4 -38 4 -49 4 78 4 -171 3 245 
4 -247 4 54 4 -46 4 80 3 18 4 117 4 9 4 79 
4 -275 4 199 3 7 4 -114 4 -52 4 4 4 204 4 -99 
3 81 4 8 4 -133 4 28 4 33 3 150 4 -352 4 29 
4 308 4 -213 4 -63 3 -46 4 84 4 -8 4 -13 4 59 
3 150 4 -256 4 269 4 -288 4 15 4 30 3 53 4 860 
4 -886 4 -65 4 186 3 -167 4 1114 4 266 4 -1414 4 239 
4 -235 3 943 4 -727 4 -45 4 0 4 -107 3 1270 4 -91 
4 -1217 4 392 4 -407 4 76 3 69 4 -95 4 -65 4 148 
4 65 3 87 4 -243 4 179 4 -149 4 48 4 -88 3 31 
4 285 4 -188 4 7 4 -108 3 10 4 72 4 -14 4 -45 
4 82 4 -173 3 182 4 -198 4 234 4 -217 4 302 3 -235 
4 305 4 -301 4 215 2282 3061 300 MP stroke
4 -172 4 52 3 -108 4 157 4 -183 4 122 4 -147 3 134 
4 128 4 -77 4 -189 4 36 4 85 3 -112 4 29 4 45 
4 58 4 -103 3 188 4 -66 4 -69 4 262 4 -128 4 -209 
3 12 4 75 4 18 4 -1 4 -73 3 -13 4 34 4 270 
4 9 4 -251 4 -40 3 103 4 -131 4 53 4 192 4 -256 
3 68 4 -72 4 34 4 6 4 220 4 -184 3 4 4 155 
4 -11 4 -179 4 27 3 125 4 852 4 -969 4 1102 4 -935 
4 -202 3 -11 4 1076 4 -319 4 -711 4 41 3 844 4 -254 
4 752 4 -813 4 -403 4 -202 3 1107 4 -19 4 -1088 4 194 
4 -133 3 646 4 -646 4 536 4 -543 4 -122 4 152 3 -108 
4 -40 4 -8 4 361 4 -353 3 123 4 160 4 -240 4 278 
4 -272 4 -44 3 381 4 -215 4 -169 4 72 4 234 3 -126 
4 23 4 44 4 -89 4 -51 4 5 3 -67 4 -39 4 8 
4 158 4 -145 3 87 4 -8 4 -114 4 173 4 -144 4 -27 
3 193 4 125 4 -310 4 14 4 -9 3 185 4 -158 4 70 
4 43 4 -101 4 -41 3 55 4 -59 4 93 4 -42 4 35 
3 -54 4 232 4 -143 4 -111 4 219 4 49 3 -279 4 155 
4 -58 4 -88 4 110 3 73 4 -185 4 -17 4 202 4 -200 
4 190 3 -194 4 128 4 -130 4 183 4 -69 3 27 4 -11 
4 -46 4 148 4 -61 4 1810 3 -1920 4 2209 4 -2114 4 297 
4 -247 3 68 4 91 4 867 4 -190 4 893 4 -1919 3 1669 
4 -1517 4 216 4 -346 4 141 3 42 4 1163 4 -247 4 -1004 
4 0 4 -38 3 259 4 30 4 -118 4 -98 4 -40 3 -92 
4 63 4 114 4 -66 4 36 4 -164 3 33 4 169 4 -181 
4 15 4 82 3 17 4 -99 4 293 4 -278 4 -27 4 218 
3 -144 4 144 4 -144 4 98 4 -120 3 149 4 -17 4 0 
4 -106 4 5 4 0 3 -20 4 -23 4 118 4 -137 4 -39 
3 81 4 32 4 -138 4 129 4 -78 4 -6 3 54 4 27 
4 -101 4 -17 4 -11 3 143 4 -111 4 77 4 -99 4 41 
4 209 3 87 4 -169 4 0 4 97 4 -114 3 88 4 -65 
4 -74 4 28 4 -11 4 -23 3 86 4 -107 4 46 4 262 
4 -219 3 -96 4 -4 4 194 4 -145 4 34 4 95 3 1894 
4 -2106 4 125 4 175 4 988 3 -1235 4 505 4 -528 4 122 
4 -95 4 1555 3 -1586 4 -49 4 140 4 1616 4 -1589 3 163 
4 -163 4 -133 4 61 4 49 4 -53 3 -80 4 202 4 -137 
4 163 4 15 3 -199 4 68 4 84 4 -38 4 13 4 -137 
3 284 4 -164 4 188 4 -367 4 107 3 -23 4 32 4 -13 
4 194 4 27 4 -229 1140 3269 300 MP stroke
3 82 4 -121 4 -47 4 272 4 -279 3 0 4 22 4 -6 
4 206 4 -70 4 16 3 -56 4 93 4 -120 4 120 4 -207 
3 188 4 -81 4 -17 4 -20 4 108 4 -174 3 76 4 -25 
4 -8 4 112 4 -73 3 60 4 -39 4 150 4 -126 4 -121 
4 52 3 19 4 47 4 -78 4 80 4 -55 3 0 4 148 
4 -152 4 -21 4 2 4 -12 3 42 4 280 4 -297 4 91 
4 154 3 -135 4 -26 4 -31 4 21 4 57 4 1300 3 -1475 
4 141 4 -99 4 1259 4 -1217 3 -80 4 107 4 19 4 121 
4 426 4 -677 3 130 4 1961 4 951 4 -2753 4 -205 3 1163 
4 -992 4 15 4 361 4 -365 4 118 3 1726 4 -631 4 -1482 
4 34 4 1277 3 -1277 4 68 4 38 4 19 4 -4 4 -116 
3 225 4 -276 4 344 4 -236 4 16 3 -57 4 365 4 -356 
4 272 4 -310 4 6 3 70 4 -104 4 233 4 -26 4 44 
3 -200 4 343 4 -356 4 83 4 114 4 -46 3 -137 4 126 
4 -190 4 144 4 -82 3 101 4 -44 4 13 4 -31 4 -103 
4 212 3 -214 4 156 4 -155 4 15 4 -4 659 3352 127 MP stroke
/c9 { 0.000000 0.500000 0.000000 sr} bdef
c9
4 1 4 160 4 -43 4 -11 4 120 3 10 4 -112 4 -46 
4 -37 4 166 4 -26 3 -180 4 239 4 18 4 -263 4 173 
3 12 4 -147 4 67 4 28 4 -55 4 150 3 -74 4 -133 
4 38 4 10 4 -65 3 55 4 -28 4 150 4 -101 4 36 
4 19 3 8 4 821 4 -418 4 -517 4 23 3 60 4 1495 
4 -1126 4 -487 4 289 4 -262 3 707 4 -186 4 -422 4 53 
4 209 3 1034 4 -1079 4 -190 4 117 4 -266 4 240 3 -34 
4 334 4 -441 4 354 4 -437 3 106 4 118 4 -133 4 264 
4 -59 4 -163 3 201 4 -350 4 276 4 -266 4 68 3 192 
4 0 4 27 4 -175 4 167 4 -232 3 -59 4 289 4 -47 
4 -213 4 142 3 253 4 -357 4 203 4 -82 4 -16 4 -138 
3 258 4 -161 4 -54 4 -45 4 100 3 16 4 -47 4 16 
4 91 4 -128 4 159 3 -131 4 24 4 5 4 6 4 -54 
3 0 4 -67 4 321 4 -341 4 122 4 -74 3 112 4 -93 
4 234 4 -196 4 -13 3 148 4 -80 4 27 4 -135 4 -36 
4 -12 3 55 4 131 4 -125 4 44 4 66 3 -70 4 135 
4 -72 4 -54 4 88 4 -114 3 -57 4 99 4 -99 4 125 
4 126 3 -160 4 2140 4 -2045 4 281 4 -452 4 715 3 -388 
4 179 4 22 4 137 4 -475 3 1540 4 -563 4 -1000 4 -34 
4 787 4 -943 3 437 4 -178 4 102 4 -342 4 50 3 1342 
4 -1426 4 122 4 89 4 -184 4 57 3 -18 4 35 4 -69 
4 321 4 -349 3 194 4 -46 4 106 4 -22 4 -128 4 -62 
3 121 4 -30 4 -118 4 108 4 10 3 109 4 -50 4 -14 
4 52 4 -234 4 204 3 -54 4 -42 4 -110 4 71 4 126 
3 -177 4 58 4 -5 4 -22 4 84 4 -17 3 175 4 -232 
4 34 4 -14 4 11 3 -49 4 132 4 -176 4 98 4 -16 
4 220 3 -221 4 -73 4 179 4 -109 4 -76 3 231 4 -158 
4 72 4 3 4 -54 4 -72 3 192 4 -4 4 -68 4 -4 
4 -114 3 230 4 -109 4 365 4 -399 4 29 4 93 3 102 
4 -41 4 -171 4 -35 4 73 3 -133 4 212 4 -64 4 1486 
4 -1091 4 -376 3 0 4 1730 4 -1631 4 817 4 338 3 -1376 
4 164 4 1030 4 -1144 4 1665 4 -1722 3 1642 4 -1456 4 1258 
4 -167 4 -1004 3 76 4 -349 4 136 4 1909 4 -1954 4 76 
3 -19 4 -23 4 -99 4 40 4 -82 3 255 4 -135 4 8 
4 -57 4 182 4 -260 3 42 4 -8 4 293 4 -301 4 36 
3 118 4 -188 4 65 4 83 4 -55 4 68 3 -110 4 87 
4 71 4 69 4 -271 3 -29 4 90 4 167 4 -252 4 -19 
4 10 3 -15 4 143 3424 3218 300 MP stroke
4 19 4 -128 4 39 3 -71 4 119 4 -100 4 74 4 111 
4 4 3 -64 4 4 4 -95 4 203 4 -179 3 -13 4 52 
4 -72 4 127 4 105 4 -43 3 -63 4 -66 4 -50 4 38 
4 -15 3 69 4 -120 4 95 4 -112 4 201 4 -215 3 152 
4 194 4 -121 4 -194 4 156 3 57 4 30 4 -120 4 -102 
4 15 4 133 3 171 4 -228 4 76 4 1430 4 -324 3 -1209 
4 1704 4 -1772 4 68 4 -26 4 292 3 -380 4 228 4 1297 
4 -300 4 -1152 3 1653 4 -1691 4 34 4 -50 4 278 4 -133 
3 -31 4 194 4 -194 4 -41 4 -42 3 53 4 19 4 30 
4 -60 4 79 4 46 3 -15 4 -107 4 -32 4 145 4 -170 
3 268 4 -131 4 -57 4 -102 4 81 4 19 3 -3 4 37 
4 -34 4 37 4 16 3 -138 4 127 4 259 4 -211 4 95 
4 -184 3 -14 4 -22 4 -4 4 -56 4 19 3 141 4 -3 
4 -167 4 184 4 -108 4 -60 3 78 4 1 4 56 4 -131 
4 153 3 -5 4 -105 4 -51 4 94 4 -24 4 -2 3 11 
4 -38 4 -52 4 152 4 -36 3 -109 4 242 4 -160 4 -28 
4 98 4 -98 3 26 4 -17 4 57 4 -63 4 -57 3 99 
4 36 4 4 4 169 4 -177 4 -119 3 140 4 1346 4 -1289 
4 12 4 64 3 -285 4 46 4 1091 4 -962 4 1757 4 -1943 
3 825 4 -669 4 -122 4 722 4 130 3 -871 4 973 4 -756 
4 1365 4 -1346 4 574 3 -643 4 -57 4 784 4 49 4 -798 
3 15 4 95 4 -232 4 114 4 38 4 -53 3 -72 4 15 
4 -74 4 251 4 -253 3 76 4 180 4 -49 4 -143 4 166 
4 -111 3 -81 4 -40 4 4 4 108 4 156 3 -133 4 -84 
4 167 4 -161 4 -32 4 173 3 -165 4 348 4 -80 4 -105 
4 -122 3 -26 4 128 4 -38 4 -49 4 78 4 -175 3 246 
4 -244 4 46 4 -53 4 95 3 -12 4 117 4 39 4 79 
4 -275 4 199 3 7 4 -114 4 -52 4 -57 4 265 4 -99 
3 20 4 130 4 -316 4 150 4 33 3 150 4 -245 4 -78 
4 429 4 -334 4 -78 3 -31 4 84 4 -8 4 -13 4 -63 
3 272 4 -256 4 391 4 -410 4 15 4 152 3 -69 4 738 
4 -764 4 -65 4 186 3 -136 4 1083 4 266 4 -1292 4 117 
4 -144 3 852 4 -727 4 -45 4 -122 4 15 3 1270 4 31 
4 -1301 4 354 4 -285 4 -46 3 69 4 -95 4 -65 4 148 
4 65 3 87 4 -243 4 179 4 -149 4 -74 4 34 3 31 
4 163 4 -188 4 129 4 -108 3 10 4 72 4 -14 4 -45 
4 82 4 -173 3 182 4 -76 4 112 4 -96 4 181 3 -296 
4 366 4 -301 4 215 2282 3061 300 MP stroke
4 -172 4 52 3 -78 4 127 4 -183 4 122 4 -147 3 134 
4 128 4 -77 4 -192 4 32 4 99 3 -126 4 36 4 45 
4 58 4 -134 3 219 4 -96 4 -39 4 262 4 -128 4 -209 
3 -26 4 113 4 18 4 -1 4 -73 3 -13 4 95 4 87 
4 10 4 -130 4 -40 3 -19 4 -9 4 53 4 192 4 -256 
3 68 4 -72 4 34 4 6 4 220 4 -184 3 4 4 34 
4 -12 4 -57 4 27 3 125 4 852 4 -1076 4 1209 4 -935 
4 -202 3 -11 4 1076 4 -319 4 -711 4 41 3 844 4 -254 
4 752 4 -813 4 -403 4 -202 3 1107 4 -19 4 -1088 4 194 
4 -133 3 646 4 -524 4 414 4 -543 4 -122 4 152 3 13 
4 -161 4 -8 4 361 4 -353 3 123 4 160 4 -240 4 278 
4 -279 4 -37 3 381 4 -337 4 -47 4 72 4 234 3 -187 
4 84 4 44 4 -149 4 70 4 -56 3 -67 4 -39 4 8 
4 158 4 -145 3 87 4 -8 4 -114 4 173 4 -144 4 -27 
3 193 4 125 4 -317 4 21 4 -9 3 185 4 -158 4 70 
4 43 4 -70 4 -72 3 55 4 -59 4 93 4 -42 4 96 
3 -155 4 211 4 -143 4 -50 4 219 4 49 3 -279 4 34 
4 -44 4 141 4 110 3 -49 4 -185 4 90 4 95 4 -78 
4 68 3 -194 4 128 4 -16 4 69 4 53 3 27 4 -133 
4 -99 4 201 4 -61 4 1810 3 -1927 4 2094 4 -1870 4 53 
4 -4 3 -53 4 -152 4 1110 4 -190 4 893 4 -1919 3 1669 
4 -1517 4 216 4 -224 4 19 3 42 4 1163 4 -125 4 -1126 
4 0 4 84 3 259 4 -92 4 -118 4 -98 4 -40 3 -92 
4 63 4 114 4 -66 4 36 4 -164 3 44 4 158 4 -181 
4 15 4 82 3 17 4 -99 4 293 4 -278 4 -27 4 218 
3 -144 4 144 4 -83 4 37 4 -120 3 149 4 -48 4 1 
4 -46 4 -25 4 0 3 -20 4 -23 4 118 4 -137 4 -37 
3 82 4 29 4 -138 4 144 4 -93 4 -6 3 54 4 27 
4 -101 4 -17 4 -11 3 204 4 -172 4 138 4 -99 4 -62 
4 251 3 27 4 -109 4 0 4 97 4 -114 3 88 4 57 
4 -75 4 -93 4 -11 4 -23 3 86 4 -107 4 167 4 141 
4 -219 3 -96 4 -4 4 194 4 -267 4 156 4 -26 3 1893 
4 -1984 4 125 4 175 4 988 3 -1235 4 505 4 -528 4 122 
4 -95 4 1555 3 -1464 4 -80 4 -72 4 1859 4 -1711 3 163 
4 -285 4 -11 4 61 4 171 4 -175 3 42 4 80 4 -16 
4 42 4 -106 3 -78 4 -53 4 205 4 -38 4 13 4 -137 
3 284 4 -164 4 67 4 -246 4 107 3 -23 4 32 4 -13 
4 72 4 149 4 -229 1140 3269 300 MP stroke
3 82 4 -61 4 -67 4 232 4 -279 3 0 4 22 4 -6 
4 206 4 -9 4 -45 3 -56 4 93 4 -120 4 120 4 -207 
3 188 4 -81 4 -21 4 -20 4 104 4 -166 3 76 4 -25 
4 -8 4 112 4 -73 3 60 4 -39 4 150 4 -66 4 -181 
4 113 3 19 4 -14 4 -78 4 80 4 -116 3 61 4 26 
4 -30 4 -21 4 2 4 -12 3 42 4 158 4 -175 4 91 
4 33 3 -135 4 95 4 -149 4 261 4 -65 4 1179 3 -1354 
4 141 4 -99 4 1137 4 -1095 3 -80 4 107 4 19 4 121 
4 426 4 -677 3 130 4 1961 4 951 4 -2753 4 -205 3 1163 
4 -1114 4 137 4 483 4 -487 4 118 3 1848 4 -753 4 -1482 
4 155 4 1035 3 -1156 4 190 4 38 4 -224 4 239 4 -238 
3 225 4 -169 4 237 4 -346 4 126 3 64 4 244 4 -356 
4 272 4 -310 4 6 3 70 4 -104 4 112 4 95 4 -17 
3 -200 4 404 4 -356 4 83 4 114 4 -46 3 -137 4 126 
4 -190 4 144 4 -82 3 101 4 -44 4 13 4 -46 4 -88 
4 212 3 -206 4 148 4 -155 4 15 4 -4 659 3352 127 MP stroke
gr

c9
0 sg
%%IncludeResource: font Helvetica
/Helvetica /WindowsLatin1Encoding 120 FMSR

 373 2521 mt  -90 rotate
(difference \(rounding error\)) s
90 rotate
2593 3654 mt 
(t) s
 639 3409 mt 
( ) s
4550  326 mt 
( ) s
1 sg
0 334 1904 0 0 -334 2603 678 4 MP
PP
-1904 0 0 334 1904 0 0 -334 2603 678 5 MP stroke
4 w
DO
SO
6 w
0 sg
2603  344 mt 4507  344 L
2603  678 mt 4507  678 L
4507  678 mt 4507  344 L
2603  678 mt 2603  344 L
2603  678 mt 4507  678 L
2603  678 mt 2603  344 L
2603  344 mt 4507  344 L
2603  678 mt 4507  678 L
4507  678 mt 4507  344 L
2603  678 mt 2603  344 L
3106  479 mt 
(ppe/spe/cuda-dp-fma) s
gs 2603 344 1905 335 rc
c8
386 0 2680 436 2 MP stroke
gr

c8
0 sg
3106  628 mt 
(ppe/spe/cuda-dp-no-fma) s
gs 2603 344 1905 335 rc
c9
386 0 2680 585 2 MP stroke
gr

c9

end %%Color Dict

eplot
%%EndObject

epage
end

showpage

%%Trailer
%%EOF
