%!PS-Adobe-3.0 EPSF-3.0
%%Creator: MATLAB, The MathWorks, Inc. Version 8.0.0.783 (R2012b). Operating System: Microsoft Windows 7.
%%Title: C:\work\Dropbox\ECA1\Assignment\Report\eca1-precision_sp.eps
%%CreationDate: 11/25/2012  15:52:49
%%DocumentNeededFonts: Helvetica
%%DocumentProcessColors: Cyan Magenta Yellow Black
%%LanguageLevel: 2
%%Pages: 1
%%BoundingBox:    87   262   507   578
%%EndComments

%%BeginProlog
% MathWorks dictionary
/MathWorks 160 dict begin
% definition operators
/bdef {bind def} bind def
/ldef {load def} bind def
/xdef {exch def} bdef
/xstore {exch store} bdef
% operator abbreviations
/c  /clip ldef
/cc /concat ldef
/cp /closepath ldef
/gr /grestore ldef
/gs /gsave ldef
/mt /moveto ldef
/np /newpath ldef
/cm /currentmatrix ldef
/sm /setmatrix ldef
/rm /rmoveto ldef
/rl /rlineto ldef
/s {show newpath} bdef
/sc {setcmykcolor} bdef
/sr /setrgbcolor ldef
/sg /setgray ldef
/w /setlinewidth ldef
/j /setlinejoin ldef
/cap /setlinecap ldef
/rc {rectclip} bdef
/rf {rectfill} bdef
% page state control
/pgsv () def
/bpage {/pgsv save def} bdef
/epage {pgsv restore} bdef
/bplot /gsave ldef
/eplot {stroke grestore} bdef
% orientation switch
/portraitMode 0 def /landscapeMode 1 def /rotateMode 2 def
% coordinate system mappings
/dpi2point 0 def
% font control
/FontSize 0 def
/FMS {/FontSize xstore findfont [FontSize 0 0 FontSize neg 0 0]
  makefont setfont} bdef
/ISOLatin1Encoding where {pop /WindowsLatin1Encoding 256 array bdef
ISOLatin1Encoding WindowsLatin1Encoding copy pop
/.notdef/.notdef/quotesinglbase/florin/quotedblbase/ellipsis/dagger
/daggerdbl/circumflex/perthousand/Scaron/guilsinglleft/OE/.notdef/.notdef
/.notdef/.notdef/quoteleft/quoteright/quotedblleft/quotedblright/bullet
/endash/emdash/tilde/trademark/scaron/guilsinglright/oe/.notdef/.notdef
/Ydieresis WindowsLatin1Encoding 128 32 getinterval astore pop}
{/WindowsLatin1Encoding StandardEncoding bdef} ifelse
/reencode {exch dup where {pop load} {pop StandardEncoding} ifelse
  exch dup 3 1 roll findfont dup length dict begin
  { 1 index /FID ne {def}{pop pop} ifelse } forall
  /Encoding exch def currentdict end definefont pop} bdef
/isroman {findfont /CharStrings get /Agrave known} bdef
/FMSR {3 1 roll 1 index dup isroman {reencode} {pop pop} ifelse
  exch FMS} bdef
/csm {1 dpi2point div -1 dpi2point div scale neg translate
 dup landscapeMode eq {pop -90 rotate}
  {rotateMode eq {90 rotate} if} ifelse} bdef
% line types: solid, dotted, dashed, dotdash
/SO { [] 0 setdash } bdef
/DO { [.5 dpi2point mul 4 dpi2point mul] 0 setdash } bdef
/DA { [6 dpi2point mul] 0 setdash } bdef
/DD { [.5 dpi2point mul 4 dpi2point mul 6 dpi2point mul 4
  dpi2point mul] 0 setdash } bdef
% macros for lines and objects
/L {lineto stroke} bdef
/MP {3 1 roll moveto 1 sub {rlineto} repeat} bdef
/AP {{rlineto} repeat} bdef
/PDlw -1 def
/W {/PDlw currentlinewidth def setlinewidth} def
/PP {closepath eofill} bdef
/DP {closepath stroke} bdef
/MR {4 -2 roll moveto dup  0 exch rlineto exch 0 rlineto
  neg 0 exch rlineto closepath} bdef
/FR {MR stroke} bdef
/PR {MR fill} bdef
/L1i {{currentfile picstr readhexstring pop} image} bdef
/tMatrix matrix def
/MakeOval {newpath tMatrix currentmatrix pop translate scale
0 0 1 0 360 arc tMatrix setmatrix} bdef
/FO {MakeOval stroke} bdef
/PO {MakeOval fill} bdef
/PD {currentlinewidth 2 div 0 360 arc fill
   PDlw -1 eq not {PDlw w /PDlw -1 def} if} def
/FA {newpath tMatrix currentmatrix pop translate scale
  0 0 1 5 -2 roll arc tMatrix setmatrix stroke} bdef
/PA {newpath tMatrix currentmatrix pop	translate 0 0 moveto scale
  0 0 1 5 -2 roll arc closepath tMatrix setmatrix fill} bdef
/FAn {newpath tMatrix currentmatrix pop translate scale
  0 0 1 5 -2 roll arcn tMatrix setmatrix stroke} bdef
/PAn {newpath tMatrix currentmatrix pop translate 0 0 moveto scale
  0 0 1 5 -2 roll arcn closepath tMatrix setmatrix fill} bdef
/vradius 0 def /hradius 0 def /lry 0 def
/lrx 0 def /uly 0 def /ulx 0 def /rad 0 def
/MRR {/vradius xdef /hradius xdef /lry xdef /lrx xdef /uly xdef
  /ulx xdef newpath tMatrix currentmatrix pop ulx hradius add uly
  vradius add translate hradius vradius scale 0 0 1 180 270 arc 
  tMatrix setmatrix lrx hradius sub uly vradius add translate
  hradius vradius scale 0 0 1 270 360 arc tMatrix setmatrix
  lrx hradius sub lry vradius sub translate hradius vradius scale
  0 0 1 0 90 arc tMatrix setmatrix ulx hradius add lry vradius sub
  translate hradius vradius scale 0 0 1 90 180 arc tMatrix setmatrix
  closepath} bdef
/FRR {MRR stroke } bdef
/PRR {MRR fill } bdef
/MlrRR {/lry xdef /lrx xdef /uly xdef /ulx xdef /rad lry uly sub 2 div def
  newpath tMatrix currentmatrix pop ulx rad add uly rad add translate
  rad rad scale 0 0 1 90 270 arc tMatrix setmatrix lrx rad sub lry rad
  sub translate rad rad scale 0 0 1 270 90 arc tMatrix setmatrix
  closepath} bdef
/FlrRR {MlrRR stroke } bdef
/PlrRR {MlrRR fill } bdef
/MtbRR {/lry xdef /lrx xdef /uly xdef /ulx xdef /rad lrx ulx sub 2 div def
  newpath tMatrix currentmatrix pop ulx rad add uly rad add translate
  rad rad scale 0 0 1 180 360 arc tMatrix setmatrix lrx rad sub lry rad
  sub translate rad rad scale 0 0 1 0 180 arc tMatrix setmatrix
  closepath} bdef
/FtbRR {MtbRR stroke } bdef
/PtbRR {MtbRR fill } bdef
/stri 6 array def /dtri 6 array def
/smat 6 array def /dmat 6 array def
/tmat1 6 array def /tmat2 6 array def /dif 3 array def
/asub {/ind2 exch def /ind1 exch def dup dup
  ind1 get exch ind2 get sub exch } bdef
/tri_to_matrix {
  2 0 asub 3 1 asub 4 0 asub 5 1 asub
  dup 0 get exch 1 get 7 -1 roll astore } bdef
/compute_transform {
  dmat dtri tri_to_matrix tmat1 invertmatrix 
  smat stri tri_to_matrix tmat2 concatmatrix } bdef
/ds {stri astore pop} bdef
/dt {dtri astore pop} bdef
/db {2 copy /cols xdef /rows xdef mul dup 3 mul string
  currentfile 
  3 index 0 eq {/ASCIIHexDecode filter}
  {/ASCII85Decode filter 3 index 2 eq {/RunLengthDecode filter} if }
  ifelse exch readstring pop
  dup 0 3 index getinterval /rbmap xdef
  dup 2 index dup getinterval /gbmap xdef
  1 index dup 2 mul exch getinterval /bbmap xdef pop pop}bdef
/it {gs np dtri aload pop moveto lineto lineto cp c
  cols rows 8 compute_transform 
  rbmap gbmap bbmap true 3 colorimage gr}bdef
/il {newpath moveto lineto stroke}bdef
currentdict end def
%%EndProlog

%%BeginSetup
MathWorks begin

0 cap

end
%%EndSetup

%%Page: 1 1
%%BeginPageSetup
%%PageBoundingBox:    87   262   507   578
MathWorks begin
bpage
%%EndPageSetup

%%BeginObject: obj1
bplot

/dpi2point 12 def
portraitMode 1044 6936 csm

    0     0  5045  3782 rc
85 dict begin %Colortable dictionary
/c0 { 0.000000 0.000000 0.000000 sr} bdef
/c1 { 1.000000 1.000000 1.000000 sr} bdef
/c2 { 0.900000 0.000000 0.000000 sr} bdef
/c3 { 0.000000 0.820000 0.000000 sr} bdef
/c4 { 0.000000 0.000000 0.800000 sr} bdef
/c5 { 0.910000 0.820000 0.320000 sr} bdef
/c6 { 1.000000 0.260000 0.820000 sr} bdef
/c7 { 0.000000 0.820000 0.820000 sr} bdef
c0
1 j
1 sg
   0    0 5046 3783 rf
6 w
0 3083 3910 0 0 -3083 656 3366 4 MP
PP
-3910 0 0 3083 3910 0 0 -3083 656 3366 5 MP stroke
4 w
DO
SO
6 w
0 sg
 656  283 mt 4566  283 L
 656 3366 mt 4566 3366 L
4566 3366 mt 4566  283 L
 656 3366 mt  656  283 L
 656 3366 mt 4566 3366 L
 656 3366 mt  656  283 L
 656 3366 mt  656 3326 L
 656  284 mt  656  323 L
%%IncludeResource: font Helvetica
/Helvetica /WindowsLatin1Encoding 120 FMSR

 623 3511 mt 
(0) s
1438 3366 mt 1438 3326 L
1438  284 mt 1438  323 L
1355 3511 mt 
(0.2) s
2220 3366 mt 2220 3326 L
2220  284 mt 2220  323 L
2137 3511 mt 
(0.4) s
3002 3366 mt 3002 3326 L
3002  284 mt 3002  323 L
2919 3511 mt 
(0.6) s
3784 3366 mt 3784 3326 L
3784  284 mt 3784  323 L
3701 3511 mt 
(0.8) s
4566 3366 mt 4566 3326 L
4566  284 mt 4566  323 L
4533 3511 mt 
(1) s
 656 3366 mt  695 3366 L
4566 3366 mt 4526 3366 L
 555 3410 mt 
(0) s
 656 3057 mt  695 3057 L
4566 3057 mt 4526 3057 L
 455 3101 mt 
(0.1) s
 656 2749 mt  695 2749 L
4566 2749 mt 4526 2749 L
 455 2793 mt 
(0.2) s
 656 2441 mt  695 2441 L
4566 2441 mt 4526 2441 L
 455 2485 mt 
(0.3) s
 656 2133 mt  695 2133 L
4566 2133 mt 4526 2133 L
 455 2177 mt 
(0.4) s
 656 1825 mt  695 1825 L
4566 1825 mt 4526 1825 L
 455 1869 mt 
(0.5) s
 656 1516 mt  695 1516 L
4566 1516 mt 4526 1516 L
 455 1560 mt 
(0.6) s
 656 1208 mt  695 1208 L
4566 1208 mt 4526 1208 L
 455 1252 mt 
(0.7) s
 656  900 mt  695  900 L
4566  900 mt 4526  900 L
 455  944 mt 
(0.8) s
 656  592 mt  695  592 L
4566  592 mt 4526  592 L
 455  636 mt 
(0.9) s
 656  284 mt  695  284 L
4566  284 mt 4526  284 L
 555  328 mt 
(1) s
 656  230 mt 
(x 10) s
%%IncludeResource: font Helvetica
/Helvetica /WindowsLatin1Encoding 80 FMSR

 882  156 mt 
(-5) s
 656  283 mt 4566  283 L
 656 3366 mt 4566 3366 L
4566 3366 mt 4566  283 L
 656 3366 mt  656  283 L
gs 656 284 3911 3083 rc
/c8 { 0.000000 0.000000 1.000000 sr} bdef
c8
4 -49 4 67 4 -50 4 203 4 -204 3 271 4 -286 4 353 
4 112 4 -26 4 9 3 -482 4 103 4 385 4 -288 4 17 
3 928 4 -934 4 527 4 -259 4 -479 4 17 3 120 4 25 
4 939 4 -901 4 311 3 1196 4 -1474 4 241 4 -348 4 -110 
4 1122 3 -774 4 1551 4 -1342 4 -466 4 984 3 -752 4 -122 
4 196 4 296 4 -294 4 879 3 -453 4 -37 4 -449 4 -277 
4 630 3 1324 4 -1927 4 -76 4 127 4 617 4 -758 3 193 
4 564 4 -613 4 -24 4 784 3 -387 4 101 4 -271 4 83 
4 67 4 106 3 -287 4 -31 4 300 4 201 4 -93 3 380 
4 -185 4 -412 4 1233 4 -1709 4 865 3 -227 4 8 4 -566 
4 117 4 293 3 242 4 -716 4 165 4 -71 4 -16 4 24 
3 -83 4 68 4 -94 4 109 4 -114 3 163 4 -82 4 14 
4 -41 4 52 4 -116 3 -2 4 10 4 59 4 119 4 -176 
3 170 4 -169 4 15 4 -6 4 54 4 203 3 -139 4 162 
4 -304 4 37 4 161 3 -157 4 38 4 176 4 43 4 695 
4 -116 3 -207 4 57 4 -394 4 -205 4 -102 3 639 4 -546 
4 517 4 -320 4 363 4 -107 3 -556 4 281 4 -52 4 -118 
4 -2 3 800 4 -85 4 -245 4 472 4 -236 4 -366 3 -13 
4 -366 4 86 4 -29 4 -34 3 8 4 367 4 -284 4 360 
4 -314 4 91 3 -213 4 618 4 492 4 -1099 4 401 3 -346 
4 900 4 -667 4 203 4 -610 4 70 3 921 4 -642 4 587 
4 -454 4 -265 3 166 4 54 4 273 4 -179 4 282 4 -808 
3 494 4 -200 4 -287 4 354 4 -225 3 633 4 -426 4 14 
4 206 4 -479 4 37 3 -100 4 3 4 23 4 87 4 541 
3 -650 4 228 4 -169 4 -41 4 7 4 269 3 -173 4 -89 
4 8 4 -41 4 -43 3 79 4 21 4 28 4 6 4 -130 
4 252 3 -135 4 -28 4 -62 4 -19 4 264 3 -125 4 275 
4 -323 4 244 4 -106 4 -183 3 144 4 -171 4 845 4 -544 
4 1007 3 -1246 4 509 4 -34 4 -40 4 360 4 262 3 -782 
4 59 4 622 4 -75 4 -126 3 -100 4 -545 4 325 4 414 
4 -808 4 737 3 -666 4 621 4 337 4 -1104 4 77 3 1351 
4 -1395 4 577 4 -8 4 -128 4 -173 3 -203 4 532 4 153 
4 648 4 -741 3 -87 4 -481 4 1257 4 -830 4 -135 4 758 
3 -249 4 49 4 -796 4 192 4 -242 3 235 4 175 4 -110 
4 -235 4 105 4 105 3 457 4 -793 4 409 4 -482 4 681 
3 -333 4 -289 4 449 4 -185 4 466 4 7 3 -584 4 149 
4 -201 4 0 4 51 3 -142 4 715 4 -757 4 513 4 182 
4 -762 3 66 4 157 3424 3123 300 MP stroke
4 -81 4 -131 4 62 3 -77 4 157 4 -143 4 108 4 -117 
4 19 3 142 4 -141 4 118 4 -100 4 615 3 -629 4 109 
4 -70 4 37 4 -92 4 79 3 572 4 -585 4 270 4 232 
4 -138 3 -420 4 607 4 661 4 -778 4 463 4 -648 3 774 
4 -888 4 312 4 -370 4 231 3 -80 4 236 4 -308 4 619 
4 121 4 -927 3 899 4 -725 4 389 4 -158 4 -105 3 1981 
4 -2333 4 1450 4 196 4 -1014 4 -627 3 887 4 -419 4 1482 
4 -1307 4 -380 3 711 4 -599 4 -40 4 306 4 -580 4 29 
3 823 4 -617 4 -154 4 1028 4 -885 3 318 4 -466 4 790 
4 -859 4 14 4 56 3 414 4 -432 4 690 4 -662 4 189 
3 -34 4 527 4 -447 4 113 4 -115 4 -198 3 1078 4 -1078 
4 299 4 -490 4 422 3 -155 4 176 4 -323 4 284 4 -269 
4 27 3 7 4 -32 4 -61 4 -69 4 20 3 -15 4 291 
4 -306 4 70 4 -16 4 -53 3 81 4 51 4 -121 4 147 
4 -52 3 32 4 190 4 -270 4 58 4 -14 4 -22 3 43 
4 213 4 -341 4 256 4 -252 3 368 4 -159 4 398 4 -478 
4 619 4 -612 3 30 4 -144 4 150 4 316 4 -294 3 794 
4 -630 4 -171 4 -96 4 93 4 153 3 -297 4 508 4 -429 
4 1514 4 -1237 3 15 4 885 4 -1252 4 365 4 137 4 279 
3 218 4 509 4 -1494 4 839 4 -808 3 1307 4 -838 4 573 
4 -825 4 1194 4 -605 3 -838 4 538 4 -547 4 250 4 572 
3 710 4 -740 4 -430 4 130 4 -254 4 -242 3 1645 4 -1220 
4 232 4 614 4 -717 3 -117 4 -258 4 1032 4 -1114 4 832 
4 -356 3 -433 4 769 4 -91 4 -304 4 -312 3 -213 4 730 
4 -549 4 45 4 115 4 -294 3 -4 4 544 4 -483 4 100 
4 -135 3 -76 4 470 4 -443 4 202 4 -192 4 186 3 97 
4 -250 4 0 4 -95 4 157 3 40 4 -61 4 -74 4 125 
4 -106 4 154 3 166 4 -299 4 -105 4 178 4 37 4 -206 
3 174 4 -103 4 -9 4 232 4 -217 3 1019 4 -1091 4 483 
4 306 4 -436 4 -324 3 178 4 360 4 739 4 -1097 4 350 
3 5 4 20 4 -557 4 373 4 -90 4 -324 3 1258 4 -822 
4 514 4 -922 4 636 3 -563 4 548 4 -158 4 1615 4 -1263 
4 -89 3 -31 4 485 4 -924 4 -124 4 -49 3 294 4 203 
4 843 4 -573 4 -732 4 391 3 -266 4 880 4 399 4 -1034 
4 102 3 -138 4 -432 4 154 4 -118 4 329 4 -30 3 -11 
4 204 4 -324 4 1338 4 -803 3 -597 4 58 4 204 4 435 
4 -602 4 158 3 -396 4 -18 4 146 4 231 4 -87 3 -243 
4 -77 4 388 4 -86 2282 3061 300 MP stroke
4 521 4 -482 3 -25 4 -79 4 -131 4 62 4 -169 3 77 
4 -72 4 98 4 -92 4 41 4 28 3 70 4 -123 4 -11 
4 45 4 164 3 39 4 -8 4 -235 4 -14 4 70 4 117 
3 207 4 -110 4 362 4 -460 4 -73 3 182 4 195 4 -95 
4 -139 4 202 4 -89 3 -8 4 -316 4 1066 4 -971 4 93 
3 1383 4 -1538 4 396 4 -408 4 475 4 -368 3 473 4 454 
4 -856 4 132 4 484 3 -573 4 130 4 -154 4 1357 4 -609 
4 -882 3 1062 4 18 4 -1003 4 1588 4 -1794 3 174 4 158 
4 -137 4 1012 4 -135 4 -1028 3 312 4 -310 4 291 4 -285 
4 836 3 -815 4 389 4 -361 4 234 4 -315 4 -11 3 735 
4 -600 4 1351 4 -1151 4 653 3 -941 4 156 4 78 4 89 
4 -197 4 -91 3 159 4 81 4 -293 4 170 4 769 3 -890 
4 145 4 20 4 -165 4 9 4 -61 3 588 4 -582 4 413 
4 -65 4 -173 3 -173 4 21 4 57 4 -63 4 156 4 106 
3 -199 4 -75 4 -39 4 -13 4 37 3 7 4 82 4 49 
4 -98 4 59 4 -94 3 47 4 202 4 -152 4 -14 4 248 
3 -182 4 77 4 -43 4 -155 4 184 4 341 3 -9 4 -43 
4 -498 4 1315 4 -958 3 -267 4 -16 4 694 4 -387 4 -215 
4 105 3 247 4 -281 4 349 4 9 4 -529 3 343 4 -74 
4 479 4 -499 4 -124 4 -71 3 998 4 -716 4 -41 4 -84 
4 945 3 -930 4 -105 4 -35 4 805 4 230 4 -764 3 135 
4 -534 4 1269 4 -856 4 401 3 -788 4 89 4 745 4 403 
4 -291 4 -9 3 97 4 -1128 4 852 4 291 4 -669 3 15 
4 256 4 -218 4 -198 4 545 4 -151 3 -409 4 -297 4 717 
4 -635 4 679 3 -386 4 -24 4 498 4 -510 4 211 4 -228 
3 204 4 -356 4 -73 4 120 4 -6 3 71 4 -83 4 -179 
4 127 4 -95 4 100 3 -52 4 21 4 84 4 -212 4 120 
3 -60 4 12 4 -33 4 -45 4 29 4 25 3 93 4 -91 
4 -63 4 217 4 -206 3 56 4 319 4 -203 4 -31 4 425 
4 -546 3 569 4 -537 4 372 4 -92 4 377 3 134 4 -60 
4 -231 4 -480 4 1055 4 -194 3 -902 4 335 4 531 4 -20 
4 -447 3 234 4 -625 4 312 4 968 4 -765 4 -442 3 241 
4 215 4 -402 4 -139 4 702 3 -105 4 14 4 1169 4 -1500 
4 1141 4 -404 3 -425 4 -410 4 307 4 233 4 -632 3 842 
4 683 4 -457 4 -417 4 -518 4 634 3 -621 4 -77 4 709 
4 -419 4 -377 3 950 4 -852 4 492 4 93 4 -361 4 -409 
3 787 4 660 4 -1188 4 167 4 279 3 -667 4 720 4 -351 
4 73 4 190 4 -603 1140 3275 300 MP stroke
3 354 4 -420 4 242 4 -210 4 2 3 146 4 -70 4 -94 
4 21 4 541 4 -169 3 -433 4 655 4 -649 4 361 4 -294 
3 -7 4 327 4 -195 4 -61 4 -66 4 -40 3 -22 4 20 
4 15 4 28 4 -39 3 90 4 -4 4 -20 4 -97 4 36 
4 -34 3 271 4 -53 4 360 4 -366 4 24 3 631 4 -620 
4 -162 4 391 4 -470 4 430 3 -152 4 275 4 404 4 -402 
4 -391 3 227 4 81 4 86 4 263 4 -319 4 -142 3 373 
4 -409 4 31 4 93 4 -366 3 634 4 -404 4 236 4 -479 
4 1047 4 -644 3 -204 4 367 4 880 4 -1248 4 205 3 -42 
4 -377 4 887 4 -254 4 -322 4 388 3 -335 4 231 4 -7 
4 552 4 378 3 -911 4 86 4 394 4 -916 4 -20 4 1006 
3 -1206 4 102 4 812 4 16 4 -447 3 -414 4 1077 4 -859 
4 -290 4 494 4 542 3 -706 4 1040 4 63 4 -1114 4 559 
3 -345 4 -495 4 913 4 -937 4 128 4 -14 3 217 4 -235 
4 388 4 40 4 -404 3 150 4 -239 4 -43 4 -8 4 171 
4 -119 3 -20 4 4 4 35 4 -71 4 -3 659 3363 127 MP stroke
/c9 { 0.000000 0.500000 0.000000 sr} bdef
c9
4 -49 4 67 4 -50 4 203 4 -204 3 271 4 -286 4 353 
4 -301 4 387 4 9 3 -482 4 690 4 -202 4 485 4 -756 
3 928 4 -934 4 224 4 44 4 -479 4 1193 3 -1056 4 25 
4 939 4 -901 4 462 3 1045 4 -768 4 -465 4 827 4 -1285 
4 1122 3 -774 4 1551 4 -1342 4 -466 4 984 3 -752 4 616 
4 -542 4 51 4 294 4 296 3 -213 4 -472 4 -14 4 898 
4 -545 3 1324 4 -752 4 -1251 4 127 4 617 4 -758 3 950 
4 -564 4 -242 4 878 4 -783 3 278 4 101 4 -271 4 83 
4 67 4 106 3 889 4 -1207 4 300 4 -228 4 336 3 380 
4 -185 4 -412 4 1233 4 -1709 4 865 3 -227 4 -141 4 171 
4 -471 4 293 3 830 4 -1304 4 165 4 517 4 -604 4 24 
3 -83 4 123 4 -149 4 109 4 -114 3 163 4 -82 4 14 
4 -4 4 15 4 -64 3 -54 4 10 4 59 4 119 4 118 
3 -211 4 -82 4 309 4 -300 4 54 4 216 3 -152 4 162 
4 284 4 -551 4 161 3 -157 4 38 4 176 4 1218 4 -480 
4 -116 3 -385 4 -56 4 -103 4 -205 4 -102 3 471 4 797 
4 -658 4 -320 4 363 4 -107 3 620 4 281 4 -556 4 -790 
4 911 3 -113 4 -602 4 272 4 -499 4 735 4 809 3 -1188 
4 -366 4 86 4 -29 4 -34 3 8 4 367 4 -284 4 403 
4 -357 4 91 3 -213 4 296 4 -362 4 77 4 401 3 -346 
4 900 4 509 4 -973 4 -610 4 1246 3 -1107 4 210 4 587 
4 -454 4 -265 3 1342 4 -1122 4 273 4 -179 4 282 4 -808 
3 494 4 -200 4 -287 4 752 4 -362 3 372 4 -579 4 167 
4 206 4 -479 4 37 3 -100 4 3 4 462 4 -352 4 541 
3 -356 4 228 4 -463 4 -41 4 7 4 269 3 -168 4 -94 
4 8 4 -41 4 -43 3 51 4 49 4 28 4 6 4 -130 
4 252 3 -135 4 -28 4 -62 4 528 4 -283 3 -125 4 275 
4 -323 4 121 4 17 4 -183 3 898 4 -925 4 845 4 -49 
4 512 3 -1246 4 509 4 -34 4 1135 4 -1432 4 -263 3 360 
4 59 4 622 4 -75 4 -126 3 -437 4 -208 4 325 4 414 
4 -808 4 737 3 -666 4 621 4 337 4 71 4 -1098 3 176 
4 -220 4 577 4 -8 4 -128 4 265 3 -641 4 532 4 -372 
4 -2 4 94 3 88 4 -316 4 1257 4 -830 4 -135 4 -418 
3 121 4 -48 4 107 4 496 4 -546 3 554 4 -144 4 -110 
4 -235 4 105 4 105 3 457 4 -793 4 502 4 601 4 -495 
3 -333 4 -289 4 449 4 -185 4 466 4 7 3 3 4 150 
4 -789 4 0 4 51 3 -142 4 715 4 -757 4 513 4 182 
4 -762 3 66 4 157 3424 3123 300 MP stroke
4 -81 4 -131 4 27 3 -42 4 231 4 -217 4 127 4 -136 
4 19 3 142 4 -141 4 118 4 -100 4 615 3 -41 4 -479 
4 -70 4 37 4 -92 4 79 3 -16 4 3 4 270 4 215 
4 -121 3 -420 4 492 4 776 4 -778 4 -345 4 160 3 774 
4 -171 4 -312 4 -463 4 231 3 1096 4 -940 4 -308 4 619 
4 121 4 -927 3 899 4 -24 4 -312 4 -158 4 -105 3 805 
4 -5 4 1473 4 -1943 4 1126 4 -660 3 -256 4 -212 4 99 
4 -131 4 -380 3 711 4 -599 4 -40 4 306 4 -580 4 29 
3 139 4 67 4 -154 4 -148 4 291 3 254 4 -402 4 79 
4 -148 4 14 4 56 3 414 4 -432 4 690 4 -662 4 189 
3 -34 4 527 4 -70 4 -264 4 -115 4 -198 3 1078 4 -1078 
4 299 4 -490 4 422 3 -155 4 176 4 -323 4 284 4 -269 
4 27 3 7 4 -32 4 -61 4 -69 4 20 3 -15 4 144 
4 -159 4 33 4 58 4 57 3 -66 4 -79 4 9 4 147 
4 -52 3 32 4 109 4 -189 4 58 4 -14 4 392 3 -371 
4 213 4 -341 4 256 4 -252 3 368 4 -159 4 398 4 -478 
4 619 4 -612 3 30 4 976 4 -970 4 316 4 -294 3 794 
4 -630 4 -171 4 886 4 -92 4 532 3 -1473 4 508 4 498 
4 -588 4 -62 3 15 4 885 4 -1252 4 1541 4 -1039 4 279 
3 218 4 -666 4 -319 4 209 4 -178 3 1307 4 -838 4 573 
4 -825 4 1194 4 -605 3 -838 4 538 4 522 4 -819 4 572 
3 710 4 -740 4 -430 4 215 4 837 4 -341 3 -607 4 -45 
4 1407 4 -561 4 -717 3 -117 4 918 4 -144 4 -1114 4 832 
4 -356 3 -433 4 769 4 -91 4 -843 4 312 3 -298 4 730 
4 -549 4 45 4 115 4 -294 3 -4 4 -44 4 399 4 -194 
4 -135 3 155 4 239 4 -443 4 202 4 -192 4 186 3 116 
4 -269 4 -74 4 -21 4 10 3 187 4 -61 4 -74 4 419 
4 -400 4 154 3 -61 4 -72 4 -105 4 178 4 188 4 -357 
3 174 4 -103 4 -9 4 232 4 -217 3 1019 4 -1091 4 483 
4 -132 4 2 4 -324 3 178 4 1536 4 -437 4 -1097 4 350 
3 5 4 20 4 530 4 -373 4 -431 4 844 3 -1086 4 354 
4 514 4 -922 4 477 3 -404 4 548 4 -158 4 -253 4 605 
4 747 3 -1144 4 762 4 -924 4 -124 4 -49 3 653 4 -156 
4 843 4 -573 4 145 4 -486 3 -266 4 880 4 -777 4 142 
4 102 3 -138 4 -432 4 154 4 -118 4 1505 4 -1206 3 -11 
4 204 4 -324 4 1338 4 -803 3 -597 4 58 4 204 4 435 
4 -4 4 -440 3 -396 4 -18 4 376 4 1 4 -87 3 -243 
4 -77 4 388 4 -86 2282 3061 300 MP stroke
4 521 4 -482 3 -25 4 214 4 -130 4 -232 4 -169 3 77 
4 -72 4 98 4 -74 4 60 4 -9 3 -3 4 -50 4 -11 
4 214 4 -5 3 39 4 -8 4 -235 4 -14 4 70 4 117 
3 207 4 478 4 -814 4 716 4 -316 3 -163 4 195 4 274 
4 -508 4 444 4 -331 3 -8 4 -316 4 3 4 92 4 93 
3 486 4 535 4 395 4 -556 4 -552 4 -368 3 473 4 454 
4 -856 4 132 4 484 3 -573 4 130 4 1021 4 182 4 -609 
4 -882 3 1062 4 -1158 4 1349 4 -764 4 -618 3 174 4 158 
4 631 4 -932 4 55 4 -42 3 758 4 -756 4 1467 4 -1461 
4 219 3 978 4 -553 4 -595 4 234 4 -315 4 -11 3 735 
4 270 4 481 4 -1151 4 653 3 -941 4 156 4 78 4 89 
4 -197 4 -91 3 159 4 81 4 -293 4 170 4 181 3 95 
4 -252 4 20 4 -165 4 9 4 527 3 0 4 -582 4 413 
4 -65 4 -173 3 -173 4 21 4 57 4 -63 4 156 4 106 
3 -311 4 74 4 -39 4 97 4 -110 3 7 4 82 4 49 
4 -98 4 75 4 478 3 -541 4 203 4 152 4 -319 4 85 
3 -19 4 77 4 -43 4 287 4 -258 4 341 3 -9 4 -43 
4 -498 4 139 4 218 3 -267 4 -16 4 238 4 69 4 961 
4 -1071 3 247 4 -281 4 258 4 100 4 -529 3 343 4 -74 
4 479 4 -499 4 -124 4 -71 3 998 4 -439 4 -318 4 -84 
4 -231 3 246 4 1070 4 -1210 4 805 4 230 4 411 3 -1076 
4 -498 4 1269 4 -856 4 -194 3 788 4 -892 4 57 4 1091 
4 -291 4 -903 3 991 4 -1128 4 852 4 -826 4 448 3 15 
4 256 4 -218 4 313 4 34 4 -428 3 -132 4 878 4 -757 
4 635 4 -679 3 1 4 -24 4 498 4 -510 4 211 4 -325 
3 301 4 -356 4 -73 4 233 4 -119 3 54 4 -66 4 -179 
4 127 4 -95 4 100 3 1 4 -32 4 84 4 -212 4 120 
3 -60 4 12 4 8 4 -86 4 29 4 25 3 93 4 -91 
4 -63 4 370 4 -359 3 56 4 319 4 -203 4 -31 4 425 
4 42 3 -607 4 51 4 372 4 -92 4 377 3 134 4 -473 
4 182 4 -480 4 1055 4 -194 3 -902 4 335 4 531 4 -20 
4 -447 3 234 4 -625 4 312 4 -207 4 410 4 -442 3 688 
4 -232 4 -402 4 -139 4 397 3 1281 4 -1067 4 -7 4 -324 
4 -35 4 1948 3 -1687 4 411 4 -428 4 -112 4 -287 3 842 
4 1858 4 -2808 4 759 4 -518 4 18 3 -5 4 -77 4 709 
4 -419 4 -377 3 950 4 -852 4 492 4 93 4 814 4 -1584 
3 787 4 660 4 -1188 4 443 4 3 3 -667 4 720 4 -351 
4 73 4 190 4 -603 1140 3275 300 MP stroke
3 354 4 119 4 -297 4 -210 4 2 3 146 4 -70 4 494 
4 -567 4 541 4 -169 3 -433 4 655 4 -649 4 67 4 0 
3 -7 4 401 4 -306 4 -61 4 -29 4 -40 3 -22 4 107 
4 -72 4 177 4 106 3 -204 4 -4 4 -20 4 -97 4 547 
4 -545 3 271 4 -53 4 -217 4 211 4 24 3 63 4 -52 
4 835 4 -606 4 -470 4 725 3 151 4 -323 4 404 4 -402 
4 -391 3 227 4 292 4 -125 4 -225 4 169 4 -142 3 62 
4 -98 4 1207 4 -1083 4 -366 3 634 4 -404 4 295 4 479 
4 30 4 742 3 -1590 4 367 4 -296 4 1104 4 205 3 -1218 
4 -377 4 1337 4 -704 4 105 4 -39 3 -15 4 1087 4 -1183 
4 552 4 378 3 -911 4 86 4 -731 4 916 4 -727 4 1006 
3 -31 4 -131 4 -130 4 16 4 -447 3 -414 4 1077 4 -859 
4 -290 4 494 4 542 3 -706 4 -136 4 64 4 61 4 559 
3 -345 4 -495 4 913 4 -937 4 128 4 -14 3 217 4 -235 
4 -43 4 471 4 -404 3 150 4 -239 4 -43 4 -8 4 171 
4 -119 3 -20 4 77 4 -38 4 -71 4 -3 659 3363 127 MP stroke
gr

c9
0 sg
%%IncludeResource: font Helvetica
/Helvetica /WindowsLatin1Encoding 120 FMSR

 373 2521 mt  -90 rotate
(difference \(rounding error\)) s
90 rotate
2593 3654 mt 
(t) s
 639 3409 mt 
( ) s
4550  326 mt 
( ) s
1 sg
0 334 1671 0 0 -334 2836 678 4 MP
PP
-1671 0 0 334 1671 0 0 -334 2836 678 5 MP stroke
4 w
DO
SO
6 w
0 sg
2836  344 mt 4507  344 L
2836  678 mt 4507  678 L
4507  678 mt 4507  344 L
2836  678 mt 2836  344 L
2836  678 mt 4507  678 L
2836  678 mt 2836  344 L
2836  344 mt 4507  344 L
2836  678 mt 4507  678 L
4507  678 mt 4507  344 L
2836  678 mt 2836  344 L
3341  479 mt 
(ppe/cuda-sp-fma) s
gs 2836 344 1672 335 rc
c8
389 0 2913 436 2 MP stroke
gr

c8
0 sg
3341  628 mt 
(ppe/cuda-sp-no-fma) s
gs 2836 344 1672 335 rc
c9
389 0 2913 585 2 MP stroke
gr

c9

end %%Color Dict

eplot
%%EndObject

epage
end

showpage

%%Trailer
%%EOF
