%!PS-Adobe-3.0 EPSF-3.0
%%Creator: MATLAB, The MathWorks, Inc. Version 8.0.0.783 (R2012b). Operating System: Microsoft Windows 7.
%%Title: C:\work\Dropbox\ECA1\Assignment\Report\eca-precision_sp_with_spe.eps
%%CreationDate: 11/25/2012  16:04:00
%%DocumentNeededFonts: Helvetica
%%DocumentProcessColors: Cyan Magenta Yellow Black
%%LanguageLevel: 2
%%Pages: 1
%%BoundingBox:    87   262   507   578
%%EndComments

%%BeginProlog
% MathWorks dictionary
/MathWorks 160 dict begin
% definition operators
/bdef {bind def} bind def
/ldef {load def} bind def
/xdef {exch def} bdef
/xstore {exch store} bdef
% operator abbreviations
/c  /clip ldef
/cc /concat ldef
/cp /closepath ldef
/gr /grestore ldef
/gs /gsave ldef
/mt /moveto ldef
/np /newpath ldef
/cm /currentmatrix ldef
/sm /setmatrix ldef
/rm /rmoveto ldef
/rl /rlineto ldef
/s {show newpath} bdef
/sc {setcmykcolor} bdef
/sr /setrgbcolor ldef
/sg /setgray ldef
/w /setlinewidth ldef
/j /setlinejoin ldef
/cap /setlinecap ldef
/rc {rectclip} bdef
/rf {rectfill} bdef
% page state control
/pgsv () def
/bpage {/pgsv save def} bdef
/epage {pgsv restore} bdef
/bplot /gsave ldef
/eplot {stroke grestore} bdef
% orientation switch
/portraitMode 0 def /landscapeMode 1 def /rotateMode 2 def
% coordinate system mappings
/dpi2point 0 def
% font control
/FontSize 0 def
/FMS {/FontSize xstore findfont [FontSize 0 0 FontSize neg 0 0]
  makefont setfont} bdef
/ISOLatin1Encoding where {pop /WindowsLatin1Encoding 256 array bdef
ISOLatin1Encoding WindowsLatin1Encoding copy pop
/.notdef/.notdef/quotesinglbase/florin/quotedblbase/ellipsis/dagger
/daggerdbl/circumflex/perthousand/Scaron/guilsinglleft/OE/.notdef/.notdef
/.notdef/.notdef/quoteleft/quoteright/quotedblleft/quotedblright/bullet
/endash/emdash/tilde/trademark/scaron/guilsinglright/oe/.notdef/.notdef
/Ydieresis WindowsLatin1Encoding 128 32 getinterval astore pop}
{/WindowsLatin1Encoding StandardEncoding bdef} ifelse
/reencode {exch dup where {pop load} {pop StandardEncoding} ifelse
  exch dup 3 1 roll findfont dup length dict begin
  { 1 index /FID ne {def}{pop pop} ifelse } forall
  /Encoding exch def currentdict end definefont pop} bdef
/isroman {findfont /CharStrings get /Agrave known} bdef
/FMSR {3 1 roll 1 index dup isroman {reencode} {pop pop} ifelse
  exch FMS} bdef
/csm {1 dpi2point div -1 dpi2point div scale neg translate
 dup landscapeMode eq {pop -90 rotate}
  {rotateMode eq {90 rotate} if} ifelse} bdef
% line types: solid, dotted, dashed, dotdash
/SO { [] 0 setdash } bdef
/DO { [.5 dpi2point mul 4 dpi2point mul] 0 setdash } bdef
/DA { [6 dpi2point mul] 0 setdash } bdef
/DD { [.5 dpi2point mul 4 dpi2point mul 6 dpi2point mul 4
  dpi2point mul] 0 setdash } bdef
% macros for lines and objects
/L {lineto stroke} bdef
/MP {3 1 roll moveto 1 sub {rlineto} repeat} bdef
/AP {{rlineto} repeat} bdef
/PDlw -1 def
/W {/PDlw currentlinewidth def setlinewidth} def
/PP {closepath eofill} bdef
/DP {closepath stroke} bdef
/MR {4 -2 roll moveto dup  0 exch rlineto exch 0 rlineto
  neg 0 exch rlineto closepath} bdef
/FR {MR stroke} bdef
/PR {MR fill} bdef
/L1i {{currentfile picstr readhexstring pop} image} bdef
/tMatrix matrix def
/MakeOval {newpath tMatrix currentmatrix pop translate scale
0 0 1 0 360 arc tMatrix setmatrix} bdef
/FO {MakeOval stroke} bdef
/PO {MakeOval fill} bdef
/PD {currentlinewidth 2 div 0 360 arc fill
   PDlw -1 eq not {PDlw w /PDlw -1 def} if} def
/FA {newpath tMatrix currentmatrix pop translate scale
  0 0 1 5 -2 roll arc tMatrix setmatrix stroke} bdef
/PA {newpath tMatrix currentmatrix pop	translate 0 0 moveto scale
  0 0 1 5 -2 roll arc closepath tMatrix setmatrix fill} bdef
/FAn {newpath tMatrix currentmatrix pop translate scale
  0 0 1 5 -2 roll arcn tMatrix setmatrix stroke} bdef
/PAn {newpath tMatrix currentmatrix pop translate 0 0 moveto scale
  0 0 1 5 -2 roll arcn closepath tMatrix setmatrix fill} bdef
/vradius 0 def /hradius 0 def /lry 0 def
/lrx 0 def /uly 0 def /ulx 0 def /rad 0 def
/MRR {/vradius xdef /hradius xdef /lry xdef /lrx xdef /uly xdef
  /ulx xdef newpath tMatrix currentmatrix pop ulx hradius add uly
  vradius add translate hradius vradius scale 0 0 1 180 270 arc 
  tMatrix setmatrix lrx hradius sub uly vradius add translate
  hradius vradius scale 0 0 1 270 360 arc tMatrix setmatrix
  lrx hradius sub lry vradius sub translate hradius vradius scale
  0 0 1 0 90 arc tMatrix setmatrix ulx hradius add lry vradius sub
  translate hradius vradius scale 0 0 1 90 180 arc tMatrix setmatrix
  closepath} bdef
/FRR {MRR stroke } bdef
/PRR {MRR fill } bdef
/MlrRR {/lry xdef /lrx xdef /uly xdef /ulx xdef /rad lry uly sub 2 div def
  newpath tMatrix currentmatrix pop ulx rad add uly rad add translate
  rad rad scale 0 0 1 90 270 arc tMatrix setmatrix lrx rad sub lry rad
  sub translate rad rad scale 0 0 1 270 90 arc tMatrix setmatrix
  closepath} bdef
/FlrRR {MlrRR stroke } bdef
/PlrRR {MlrRR fill } bdef
/MtbRR {/lry xdef /lrx xdef /uly xdef /ulx xdef /rad lrx ulx sub 2 div def
  newpath tMatrix currentmatrix pop ulx rad add uly rad add translate
  rad rad scale 0 0 1 180 360 arc tMatrix setmatrix lrx rad sub lry rad
  sub translate rad rad scale 0 0 1 0 180 arc tMatrix setmatrix
  closepath} bdef
/FtbRR {MtbRR stroke } bdef
/PtbRR {MtbRR fill } bdef
/stri 6 array def /dtri 6 array def
/smat 6 array def /dmat 6 array def
/tmat1 6 array def /tmat2 6 array def /dif 3 array def
/asub {/ind2 exch def /ind1 exch def dup dup
  ind1 get exch ind2 get sub exch } bdef
/tri_to_matrix {
  2 0 asub 3 1 asub 4 0 asub 5 1 asub
  dup 0 get exch 1 get 7 -1 roll astore } bdef
/compute_transform {
  dmat dtri tri_to_matrix tmat1 invertmatrix 
  smat stri tri_to_matrix tmat2 concatmatrix } bdef
/ds {stri astore pop} bdef
/dt {dtri astore pop} bdef
/db {2 copy /cols xdef /rows xdef mul dup 3 mul string
  currentfile 
  3 index 0 eq {/ASCIIHexDecode filter}
  {/ASCII85Decode filter 3 index 2 eq {/RunLengthDecode filter} if }
  ifelse exch readstring pop
  dup 0 3 index getinterval /rbmap xdef
  dup 2 index dup getinterval /gbmap xdef
  1 index dup 2 mul exch getinterval /bbmap xdef pop pop}bdef
/it {gs np dtri aload pop moveto lineto lineto cp c
  cols rows 8 compute_transform 
  rbmap gbmap bbmap true 3 colorimage gr}bdef
/il {newpath moveto lineto stroke}bdef
currentdict end def
%%EndProlog

%%BeginSetup
MathWorks begin

0 cap

end
%%EndSetup

%%Page: 1 1
%%BeginPageSetup
%%PageBoundingBox:    87   262   507   578
MathWorks begin
bpage
%%EndPageSetup

%%BeginObject: obj1
bplot

/dpi2point 12 def
portraitMode 1044 6936 csm

    0     0  5045  3782 rc
85 dict begin %Colortable dictionary
/c0 { 0.000000 0.000000 0.000000 sr} bdef
/c1 { 1.000000 1.000000 1.000000 sr} bdef
/c2 { 0.900000 0.000000 0.000000 sr} bdef
/c3 { 0.000000 0.820000 0.000000 sr} bdef
/c4 { 0.000000 0.000000 0.800000 sr} bdef
/c5 { 0.910000 0.820000 0.320000 sr} bdef
/c6 { 1.000000 0.260000 0.820000 sr} bdef
/c7 { 0.000000 0.820000 0.820000 sr} bdef
c0
1 j
1 sg
   0    0 5046 3783 rf
6 w
0 3082 3911 0 0 -3082 655 3366 4 MP
PP
-3911 0 0 3082 3911 0 0 -3082 655 3366 5 MP stroke
4 w
DO
SO
6 w
0 sg
 655  284 mt 4566  284 L
 655 3366 mt 4566 3366 L
4566 3366 mt 4566  284 L
 655 3366 mt  655  284 L
 655 3366 mt 4566 3366 L
 655 3366 mt  655  284 L
 655 3366 mt  655 3326 L
 655  284 mt  655  323 L
%%IncludeResource: font Helvetica
/Helvetica /WindowsLatin1Encoding 120 FMSR

 622 3511 mt 
(0) s
1438 3366 mt 1438 3326 L
1438  284 mt 1438  323 L
1355 3511 mt 
(0.2) s
2220 3366 mt 2220 3326 L
2220  284 mt 2220  323 L
2137 3511 mt 
(0.4) s
3002 3366 mt 3002 3326 L
3002  284 mt 3002  323 L
2919 3511 mt 
(0.6) s
3784 3366 mt 3784 3326 L
3784  284 mt 3784  323 L
3701 3511 mt 
(0.8) s
4566 3366 mt 4566 3326 L
4566  284 mt 4566  323 L
4533 3511 mt 
(1) s
 655 3366 mt  695 3366 L
4566 3366 mt 4526 3366 L
 555 3410 mt 
(0) s
 655 2749 mt  695 2749 L
4566 2749 mt 4526 2749 L
 455 2793 mt 
(0.5) s
 655 2133 mt  695 2133 L
4566 2133 mt 4526 2133 L
 555 2177 mt 
(1) s
 655 1516 mt  695 1516 L
4566 1516 mt 4526 1516 L
 455 1560 mt 
(1.5) s
 655  900 mt  695  900 L
4566  900 mt 4526  900 L
 555  944 mt 
(2) s
 655  284 mt  695  284 L
4566  284 mt 4526  284 L
 455  328 mt 
(2.5) s
 655  230 mt 
(x 10) s
%%IncludeResource: font Helvetica
/Helvetica /WindowsLatin1Encoding 80 FMSR

 881  156 mt 
(-5) s
 655  284 mt 4566  284 L
 655 3366 mt 4566 3366 L
4566 3366 mt 4566  284 L
 655 3366 mt  655  284 L
gs 656 284 3911 3083 rc
/c8 { 0.000000 0.000000 1.000000 sr} bdef
c8
4 -20 4 27 4 -20 4 81 4 -81 3 108 4 -114 4 141 
4 45 4 -11 4 4 3 -193 4 41 4 154 4 -115 4 7 
3 371 4 -374 4 211 4 -103 4 -192 4 7 3 48 4 10 
4 376 4 -361 4 124 3 479 4 -590 4 97 4 -140 4 -44 
4 449 3 -309 4 620 4 -537 4 -186 4 394 3 -301 4 -49 
4 78 4 119 4 -118 4 352 3 -181 4 -15 4 -180 4 -111 
4 252 3 530 4 -771 4 -30 4 51 4 246 4 -303 3 77 
4 226 4 -245 4 -10 4 314 3 -155 4 40 4 -108 4 33 
4 27 4 42 3 -115 4 -12 4 120 4 80 4 -37 3 152 
4 -74 4 -164 4 493 4 -684 4 346 3 -91 4 3 4 -226 
4 47 4 117 3 97 4 -287 4 66 4 -28 4 -6 4 9 
3 -33 4 27 4 -37 4 43 4 -45 3 65 4 -33 4 6 
4 -17 4 21 4 -46 3 -1 4 4 4 24 4 47 4 -70 
3 68 4 -68 4 6 4 -2 4 21 4 81 3 -55 4 65 
4 -122 4 15 4 64 3 -63 4 16 4 70 4 17 4 278 
4 -46 3 -83 4 23 4 -158 4 -82 4 -41 3 256 4 -218 
4 207 4 -129 4 146 4 -43 3 -222 4 112 4 -21 4 -47 
4 -1 3 320 4 -34 4 -98 4 189 4 -94 4 -147 3 -5 
4 -147 4 35 4 -12 4 -13 3 3 4 147 4 -114 4 144 
4 -126 4 37 3 -85 4 247 4 197 4 -440 4 160 3 -138 
4 360 4 -267 4 81 4 -243 4 28 3 368 4 -257 4 235 
4 -182 4 -106 3 67 4 21 4 110 4 -72 4 113 4 -324 
3 198 4 -80 4 -115 4 142 4 -90 3 253 4 -170 4 5 
4 83 4 -192 4 15 3 -40 4 1 4 9 4 35 4 217 
3 -260 4 91 4 -68 4 -16 4 2 4 108 3 -69 4 -36 
4 3 4 -16 4 -17 3 31 4 9 4 11 4 3 4 -52 
4 100 3 -54 4 -11 4 -25 4 -7 4 105 3 -50 4 110 
4 -129 4 98 4 -43 4 -73 3 58 4 -69 4 338 4 -217 
4 402 3 -498 4 204 4 -14 4 -16 4 144 4 105 3 -313 
4 24 4 248 4 -29 4 -51 3 -40 4 -218 4 130 4 166 
4 -323 4 294 3 -266 4 248 4 135 4 -442 4 31 3 541 
4 -558 4 231 4 -4 4 -51 4 -69 3 -81 4 212 4 62 
4 259 4 -296 3 -35 4 -193 4 503 4 -332 4 -54 4 303 
3 -99 4 19 4 -318 4 77 4 -97 3 94 4 70 4 -44 
4 -94 4 42 4 42 3 183 4 -317 4 163 4 -193 4 273 
3 -133 4 -116 4 180 4 -75 4 187 4 3 3 -234 4 60 
4 -81 4 0 4 21 3 -57 4 286 4 -303 4 205 4 73 
4 -305 3 27 4 62 3424 3269 300 MP stroke
4 -32 4 -52 4 24 3 -30 4 63 4 -58 4 44 4 -47 
4 7 3 57 4 -56 4 47 4 -40 4 246 3 -252 4 44 
4 -28 4 15 4 -37 4 31 3 229 4 -234 4 108 4 93 
4 -55 3 -168 4 243 4 264 4 -311 4 185 4 -259 3 309 
4 -355 4 125 4 -148 4 92 3 -31 4 94 4 -123 4 247 
4 49 4 -371 3 360 4 -290 4 155 4 -63 4 -42 3 792 
4 -933 4 580 4 79 4 -406 4 -251 3 355 4 -168 4 593 
4 -523 4 -152 3 285 4 -240 4 -16 4 123 4 -233 4 12 
3 329 4 -246 4 -62 4 411 4 -354 3 127 4 -186 4 316 
4 -344 4 6 4 22 3 166 4 -173 4 276 4 -265 4 76 
3 -14 4 211 4 -179 4 45 4 -45 4 -80 3 432 4 -432 
4 120 4 -196 4 169 3 -62 4 70 4 -129 4 114 4 -108 
4 11 3 2 4 -12 4 -25 4 -27 4 8 3 -6 4 116 
4 -122 4 28 4 -7 4 -21 3 33 4 20 4 -48 4 58 
4 -21 3 13 4 76 4 -108 4 24 4 -6 4 -9 3 17 
4 86 4 -137 4 102 4 -100 3 147 4 -64 4 159 4 -191 
4 248 4 -245 3 12 4 -57 4 59 4 127 4 -118 3 318 
4 -252 4 -68 4 -39 4 37 4 61 3 -118 4 203 4 -172 
4 606 4 -495 3 6 4 354 4 -501 4 146 4 55 4 112 
3 87 4 204 4 -598 4 336 4 -324 3 523 4 -335 4 229 
4 -330 4 478 4 -242 3 -335 4 215 4 -219 4 100 4 229 
3 284 4 -296 4 -172 4 52 4 -102 4 -97 3 658 4 -488 
4 93 4 246 4 -287 3 -47 4 -103 4 413 4 -446 4 333 
4 -143 3 -173 4 308 4 -37 4 -121 4 -125 3 -85 4 292 
4 -220 4 18 4 46 4 -117 3 -2 4 218 4 -194 4 40 
4 -53 3 -31 4 188 4 -177 4 81 4 -77 4 74 3 39 
4 -100 4 0 4 -38 4 63 3 16 4 -25 4 -29 4 50 
4 -42 4 61 3 66 4 -119 4 -42 4 71 4 15 4 -82 
3 69 4 -41 4 -4 4 93 4 -87 3 408 4 -436 4 193 
4 122 4 -174 4 -130 3 71 4 144 4 296 4 -439 4 140 
3 2 4 8 4 -223 4 150 4 -36 4 -130 3 503 4 -329 
4 206 4 -369 4 254 3 -225 4 219 4 -63 4 646 4 -505 
4 -35 3 -13 4 194 4 -370 4 -49 4 -20 3 118 4 81 
4 337 4 -229 4 -293 4 157 3 -107 4 352 4 160 4 -414 
4 41 3 -55 4 -173 4 62 4 -47 4 131 4 -12 3 -4 
4 81 4 -129 4 535 4 -321 3 -239 4 23 4 82 4 174 
4 -241 4 63 3 -158 4 -7 4 58 4 92 4 -35 3 -97 
4 -31 4 156 4 -35 2282 3244 300 MP stroke
4 209 4 -193 3 -10 4 -32 4 -52 4 25 4 -68 3 31 
4 -29 4 39 4 -37 4 17 4 11 3 28 4 -49 4 -5 
4 19 4 65 3 16 4 -4 4 -93 4 -6 4 28 4 47 
3 82 4 -44 4 145 4 -184 4 -29 3 73 4 78 4 -38 
4 -56 4 81 4 -36 3 -3 4 -126 4 426 4 -388 4 37 
3 553 4 -615 4 158 4 -163 4 190 4 -147 3 189 4 182 
4 -342 4 52 4 194 3 -229 4 52 4 -62 4 543 4 -244 
4 -353 3 425 4 8 4 -402 4 635 4 -717 3 69 4 64 
4 -55 4 405 4 -54 4 -412 3 125 4 -124 4 117 4 -114 
4 334 3 -326 4 156 4 -145 4 94 4 -126 4 -5 3 295 
4 -240 4 540 4 -460 4 261 3 -377 4 63 4 31 4 36 
4 -79 4 -37 3 64 4 32 4 -117 4 68 4 308 3 -356 
4 58 4 8 4 -66 4 3 4 -24 3 235 4 -233 4 165 
4 -26 4 -69 3 -69 4 8 4 23 4 -25 4 63 4 42 
3 -80 4 -30 4 -15 4 -6 4 15 3 3 4 33 4 19 
4 -39 4 24 4 -38 3 19 4 81 4 -61 4 -6 4 100 
3 -73 4 31 4 -17 4 -62 4 73 4 137 3 -4 4 -17 
4 -200 4 526 4 -383 3 -106 4 -7 4 278 4 -155 4 -86 
4 42 3 99 4 -113 4 140 4 4 4 -212 3 137 4 -29 
4 191 4 -199 4 -50 4 -28 3 399 4 -287 4 -16 4 -34 
4 378 3 -372 4 -42 4 -14 4 322 4 92 4 -305 3 54 
4 -214 4 508 4 -343 4 161 3 -316 4 36 4 298 4 161 
4 -116 4 -4 3 39 4 -451 4 341 4 116 4 -267 3 5 
4 103 4 -87 4 -79 4 218 4 -61 3 -163 4 -119 4 286 
4 -254 4 272 3 -154 4 -10 4 199 4 -204 4 85 4 -91 
3 81 4 -142 4 -29 4 47 4 -2 3 28 4 -33 4 -71 
4 51 4 -39 4 41 3 -21 4 8 4 34 4 -85 4 48 
3 -24 4 5 4 -13 4 -18 4 11 4 10 3 37 4 -36 
4 -25 4 87 4 -83 3 22 4 128 4 -81 4 -12 4 169 
4 -218 3 228 4 -215 4 149 4 -37 4 151 3 53 4 -24 
4 -92 4 -192 4 422 4 -78 3 -361 4 135 4 212 4 -8 
4 -179 3 94 4 -250 4 125 4 387 4 -306 4 -177 3 96 
4 86 4 -160 4 -56 4 281 3 -42 4 5 4 468 4 -600 
4 456 4 -161 3 -170 4 -164 4 123 4 93 4 -253 3 337 
4 273 4 -183 4 -167 4 -207 4 254 3 -249 4 -30 4 283 
4 -168 4 -150 3 380 4 -341 4 197 4 37 4 -145 4 -163 
3 315 4 264 4 -476 4 67 4 112 3 -267 4 288 4 -140 
4 29 4 76 4 -241 1140 3329 300 MP stroke
3 141 4 -168 4 97 4 -84 4 1 3 58 4 -28 4 -37 
4 8 4 216 4 -67 3 -173 4 262 4 -260 4 144 4 -117 
3 -3 4 131 4 -78 4 -25 4 -26 4 -16 3 -9 4 8 
4 6 4 12 4 -16 3 36 4 -2 4 -8 4 -38 4 14 
4 -14 3 109 4 -22 4 145 4 -147 4 10 3 252 4 -248 
4 -65 4 157 4 -188 4 172 3 -61 4 110 4 161 4 -160 
4 -157 3 91 4 33 4 34 4 105 4 -128 4 -56 3 149 
4 -164 4 13 4 37 4 -147 3 254 4 -161 4 94 4 -192 
4 419 4 -257 3 -82 4 147 4 352 4 -499 4 81 3 -16 
4 -151 4 355 4 -102 4 -129 4 155 3 -133 4 92 4 -3 
4 221 4 151 3 -364 4 34 4 158 4 -367 4 -8 4 403 
3 -483 4 41 4 325 4 6 4 -178 3 -166 4 431 4 -344 
4 -116 4 198 4 217 3 -283 4 416 4 25 4 -445 4 223 
3 -138 4 -198 4 366 4 -375 4 51 4 -6 3 87 4 -94 
4 155 4 16 4 -161 3 60 4 -96 4 -17 4 -3 4 68 
4 -48 3 -8 4 2 4 14 4 -28 4 -1 659 3364 127 MP stroke
/c9 { 0.000000 0.500000 0.000000 sr} bdef
c9
4 -20 4 27 4 -20 4 81 4 -81 3 108 4 -114 4 141 
4 -120 4 154 4 4 3 -193 4 276 4 -81 4 194 4 -302 
3 371 4 -374 4 90 4 18 4 -192 4 477 3 -422 4 10 
4 376 4 -361 4 185 3 418 4 -307 4 -186 4 331 4 -515 
4 449 3 -309 4 620 4 -537 4 -186 4 394 3 -301 4 246 
4 -217 4 21 4 117 4 119 3 -85 4 -189 4 -6 4 359 
4 -218 3 530 4 -301 4 -500 4 51 4 246 4 -303 3 380 
4 -225 4 -97 4 351 4 -313 3 111 4 40 4 -108 4 33 
4 27 4 42 3 356 4 -483 4 120 4 -91 4 134 3 152 
4 -74 4 -164 4 493 4 -684 4 346 3 -91 4 -56 4 68 
4 -188 4 117 3 332 4 -522 4 66 4 207 4 -241 4 9 
3 -33 4 49 4 -59 4 43 4 -45 3 65 4 -33 4 6 
4 -2 4 6 4 -25 3 -22 4 4 4 24 4 47 4 47 
3 -84 4 -33 4 124 4 -120 4 21 4 87 3 -61 4 65 
4 113 4 -220 4 64 3 -63 4 16 4 70 4 487 4 -192 
4 -46 3 -154 4 -23 4 -41 4 -82 4 -41 3 189 4 319 
4 -263 4 -129 4 146 4 -43 3 248 4 112 4 -222 4 -316 
4 364 3 -45 4 -241 4 109 4 -200 4 295 4 323 3 -475 
4 -147 4 35 4 -12 4 -13 3 3 4 147 4 -114 4 161 
4 -143 4 37 3 -85 4 118 4 -145 4 31 4 160 3 -138 
4 360 4 204 4 -390 4 -243 4 498 3 -443 4 84 4 235 
4 -182 4 -106 3 537 4 -449 4 110 4 -72 4 113 4 -324 
3 198 4 -80 4 -115 4 301 4 -145 3 149 4 -232 4 67 
4 83 4 -192 4 15 3 -40 4 1 4 185 4 -141 4 217 
3 -143 4 91 4 -185 4 -16 4 2 4 108 3 -67 4 -38 
4 3 4 -16 4 -17 3 20 4 20 4 11 4 3 4 -52 
4 100 3 -54 4 -11 4 -25 4 211 4 -113 3 -50 4 110 
4 -129 4 49 4 6 4 -73 3 359 4 -370 4 338 4 -19 
4 204 3 -498 4 204 4 -14 4 454 4 -573 4 -105 3 144 
4 24 4 248 4 -29 4 -51 3 -175 4 -83 4 130 4 166 
4 -323 4 294 3 -266 4 248 4 135 4 29 4 -440 3 71 
4 -88 4 231 4 -4 4 -51 4 106 3 -256 4 212 4 -148 
4 -1 4 38 3 35 4 -127 4 503 4 -332 4 -54 4 -167 
3 48 4 -19 4 43 4 198 4 -218 3 221 4 -57 4 -44 
4 -94 4 42 4 42 3 183 4 -317 4 200 4 241 4 -198 
3 -133 4 -116 4 180 4 -75 4 187 4 3 3 1 4 60 
4 -316 4 0 4 21 3 -57 4 286 4 -303 4 205 4 73 
4 -305 3 27 4 62 3424 3269 300 MP stroke
4 -32 4 -52 4 11 3 -17 4 92 4 -87 4 51 4 -54 
4 7 3 57 4 -56 4 47 4 -40 4 246 3 -17 4 -191 
4 -28 4 15 4 -37 4 31 3 -6 4 1 4 108 4 86 
4 -48 3 -168 4 197 4 310 4 -311 4 -138 4 64 3 309 
4 -68 4 -125 4 -185 4 92 3 439 4 -376 4 -123 4 247 
4 49 4 -371 3 360 4 -10 4 -125 4 -63 4 -42 3 322 
4 -2 4 589 4 -777 4 450 4 -264 3 -102 4 -85 4 40 
4 -53 4 -152 3 285 4 -240 4 -16 4 123 4 -233 4 12 
3 56 4 27 4 -62 4 -59 4 116 3 102 4 -161 4 31 
4 -59 4 6 4 22 3 166 4 -173 4 276 4 -265 4 76 
3 -14 4 211 4 -28 4 -106 4 -45 4 -80 3 432 4 -432 
4 120 4 -196 4 169 3 -62 4 70 4 -129 4 114 4 -108 
4 11 3 2 4 -12 4 -25 4 -27 4 8 3 -6 4 57 
4 -63 4 13 4 23 4 23 3 -26 4 -32 4 4 4 58 
4 -21 3 13 4 44 4 -76 4 24 4 -6 4 157 3 -149 
4 86 4 -137 4 102 4 -100 3 147 4 -64 4 159 4 -191 
4 248 4 -245 3 12 4 391 4 -389 4 127 4 -118 3 318 
4 -252 4 -68 4 354 4 -37 4 213 3 -589 4 203 4 199 
4 -235 4 -25 3 6 4 354 4 -501 4 617 4 -416 4 112 
3 87 4 -267 4 -127 4 84 4 -72 3 523 4 -335 4 229 
4 -330 4 478 4 -242 3 -335 4 215 4 208 4 -327 4 229 
3 284 4 -296 4 -172 4 86 4 335 4 -137 3 -243 4 -18 
4 563 4 -224 4 -287 3 -47 4 367 4 -57 4 -446 4 333 
4 -143 3 -173 4 308 4 -37 4 -337 4 125 3 -119 4 292 
4 -220 4 18 4 46 4 -117 3 -2 4 -18 4 160 4 -78 
4 -53 3 61 4 96 4 -177 4 81 4 -77 4 74 3 47 
4 -108 4 -29 4 -9 4 4 3 75 4 -25 4 -29 4 168 
4 -160 4 61 3 -24 4 -29 4 -42 4 71 4 75 4 -142 
3 69 4 -41 4 -4 4 93 4 -87 3 408 4 -436 4 193 
4 -53 4 1 4 -130 3 71 4 615 4 -175 4 -439 4 140 
3 2 4 8 4 212 4 -149 4 -172 4 337 3 -434 4 141 
4 206 4 -369 4 191 3 -162 4 219 4 -63 4 -101 4 242 
4 299 3 -458 4 305 4 -370 4 -49 4 -20 3 262 4 -63 
4 337 4 -229 4 58 4 -194 3 -107 4 352 4 -311 4 57 
4 41 3 -55 4 -173 4 62 4 -47 4 601 4 -482 3 -4 
4 81 4 -129 4 535 4 -321 3 -239 4 23 4 82 4 174 
4 -2 4 -176 3 -158 4 -7 4 150 4 0 4 -35 3 -97 
4 -31 4 156 4 -35 2282 3244 300 MP stroke
4 209 4 -193 3 -10 4 86 4 -53 4 -92 4 -68 3 31 
4 -29 4 39 4 -29 4 24 4 -4 3 -1 4 -20 4 -5 
4 86 4 -2 3 16 4 -4 4 -93 4 -6 4 28 4 47 
3 82 4 192 4 -326 4 286 4 -126 3 -65 4 78 4 109 
4 -203 4 178 4 -133 3 -3 4 -126 4 1 4 37 4 37 
3 194 4 215 4 158 4 -223 4 -221 4 -147 3 189 4 182 
4 -342 4 52 4 194 3 -229 4 52 4 408 4 73 4 -244 
4 -353 3 425 4 -463 4 540 4 -306 4 -247 3 69 4 64 
4 252 4 -373 4 22 4 -17 3 304 4 -303 4 587 4 -584 
4 87 3 392 4 -222 4 -238 4 94 4 -126 4 -5 3 295 
4 108 4 192 4 -460 4 261 3 -377 4 63 4 31 4 36 
4 -79 4 -37 3 64 4 32 4 -117 4 68 4 73 3 38 
4 -101 4 8 4 -66 4 3 4 211 3 0 4 -233 4 165 
4 -26 4 -69 3 -69 4 8 4 23 4 -25 4 63 4 42 
3 -124 4 29 4 -15 4 38 4 -44 3 3 4 33 4 19 
4 -39 4 30 4 191 3 -216 4 81 4 61 4 -128 4 34 
3 -7 4 31 4 -17 4 114 4 -103 4 137 3 -4 4 -17 
4 -200 4 56 4 87 3 -106 4 -7 4 95 4 28 4 384 
4 -428 3 99 4 -113 4 103 4 41 4 -212 3 137 4 -29 
4 191 4 -199 4 -50 4 -28 3 399 4 -176 4 -127 4 -34 
4 -92 3 98 4 428 4 -484 4 322 4 92 4 165 3 -431 
4 -199 4 508 4 -343 4 -77 3 315 4 -357 4 23 4 436 
4 -116 4 -361 3 396 4 -451 4 341 4 -331 4 180 3 5 
4 103 4 -87 4 125 4 14 4 -172 3 -52 4 351 4 -303 
4 254 4 -272 3 1 4 -10 4 199 4 -204 4 85 4 -130 
3 120 4 -142 4 -29 4 93 4 -48 3 22 4 -27 4 -71 
4 51 4 -39 4 41 3 0 4 -13 4 34 4 -85 4 48 
3 -24 4 5 4 3 4 -34 4 11 4 10 3 37 4 -36 
4 -25 4 148 4 -144 3 22 4 128 4 -81 4 -12 4 169 
4 17 3 -243 4 21 4 149 4 -37 4 151 3 53 4 -189 
4 73 4 -192 4 422 4 -78 3 -361 4 135 4 212 4 -8 
4 -179 3 94 4 -250 4 125 4 -83 4 164 4 -177 3 275 
4 -93 4 -160 4 -56 4 159 3 512 4 -427 4 -2 4 -130 
4 -14 4 779 3 -675 4 165 4 -171 4 -45 4 -115 3 337 
4 743 4 -1123 4 303 4 -207 4 7 3 -2 4 -30 4 283 
4 -168 4 -150 3 380 4 -341 4 197 4 37 4 326 4 -634 
3 315 4 264 4 -476 4 178 4 1 3 -267 4 288 4 -140 
4 29 4 76 4 -241 1140 3329 300 MP stroke
3 141 4 48 4 -119 4 -84 4 1 3 58 4 -28 4 198 
4 -227 4 216 4 -67 3 -173 4 262 4 -260 4 27 4 0 
3 -3 4 160 4 -122 4 -24 4 -12 4 -16 3 -9 4 43 
4 -29 4 71 4 42 3 -81 4 -2 4 -8 4 -38 4 218 
4 -218 3 109 4 -22 4 -86 4 84 4 10 3 25 4 -21 
4 334 4 -242 4 -188 4 290 3 60 4 -129 4 161 4 -160 
4 -157 3 91 4 117 4 -50 4 -90 4 67 4 -56 3 24 
4 -39 4 483 4 -433 4 -147 3 254 4 -161 4 118 4 191 
4 12 4 297 3 -636 4 147 4 -119 4 442 4 82 3 -487 
4 -151 4 535 4 -282 4 42 4 -16 3 -5 4 434 4 -473 
4 221 4 151 3 -364 4 34 4 -292 4 366 4 -291 4 403 
3 -13 4 -52 4 -52 4 6 4 -178 3 -166 4 431 4 -344 
4 -116 4 198 4 217 3 -283 4 -54 4 25 4 25 4 223 
3 -138 4 -198 4 366 4 -375 4 51 4 -6 3 87 4 -94 
4 -17 4 188 4 -161 3 60 4 -96 4 -17 4 -3 4 68 
4 -48 3 -8 4 31 4 -15 4 -28 4 -1 659 3364 127 MP stroke
/c10 { 1.000000 0.000000 0.000000 sr} bdef
c10
4 106 4 63 4 61 4 113 4 -113 3 108 4 121 4 65 
4 -44 4 155 4 87 3 -278 4 194 4 2 4 -115 4 302 
3 100 4 373 4 -89 4 -18 4 192 4 -7 3 -407 4 9 
4 434 4 52 4 -346 3 522 4 307 4 -844 4 -241 4 528 
4 -21 3 338 4 -150 4 -884 4 667 4 -394 3 574 4 -49 
4 217 4 -21 4 -117 4 -215 3 652 4 -926 4 650 4 -296 
4 155 3 -59 4 -85 4 -30 4 -76 4 -97 4 624 3 -850 
4 547 4 -96 4 -10 4 47 3 -358 4 3 4 399 4 -438 
4 557 4 -512 3 585 4 -687 4 109 4 91 4 336 3 -623 
4 545 4 -306 4 -23 4 -243 4 581 3 -326 4 -57 4 -8 
4 -346 4 182 3 -204 4 -51 4 66 4 -130 4 7 4 98 
3 -151 4 -208 4 80 4 54 4 -190 3 -6 4 -26 4 -94 
4 -64 4 -75 4 93 3 -169 4 4 4 20 4 12 4 86 
3 186 4 -68 4 -23 4 262 4 22 4 -149 3 291 4 -65 
4 -109 4 216 4 170 3 63 4 -15 4 139 4 244 4 51 
4 -283 3 154 4 22 4 42 4 -389 4 537 3 -214 4 -219 
4 -263 4 812 4 -325 4 435 3 222 4 -582 4 222 4 316 
4 -469 3 150 4 34 4 -372 4 752 4 -647 4 417 3 372 
4 -220 4 -362 4 339 4 -365 3 375 4 -147 4 279 4 -797 
4 345 4 232 3 -385 4 223 4 -145 4 -82 4 -161 3 609 
4 -423 4 330 4 -516 4 208 4 -424 3 -102 4 684 4 -62 
4 -355 4 364 3 -404 4 22 4 109 4 -44 4 -113 4 794 
3 -251 4 -550 4 355 4 -169 4 -145 3 -322 4 474 4 -476 
4 388 4 192 4 -602 3 -40 4 -40 4 51 4 -201 4 243 
3 -93 4 -209 4 -50 4 -42 4 -3 4 40 3 -206 4 -63 
4 -56 4 -16 4 -76 3 20 4 51 4 106 4 -2 4 62 
4 124 3 -78 4 -92 4 292 4 227 4 -357 3 285 4 125 
4 -106 4 -48 4 -42 4 397 3 57 4 -100 4 603 4 -451 
4 266 3 109 4 -267 4 457 4 -445 4 573 4 118 3 -157 
4 -494 4 692 4 -441 4 521 3 -430 4 218 4 -130 4 -165 
4 -148 4 176 3 -33 4 51 4 805 4 -498 4 -31 3 -70 
4 87 4 -230 4 68 4 -484 4 539 3 -257 4 126 4 -322 
4 -211 4 979 3 35 4 -126 4 -1125 4 825 4 31 4 -303 
3 99 4 -128 4 152 4 547 4 -722 3 -94 4 -70 4 514 
4 -169 4 -719 4 803 3 -88 4 -517 4 201 4 192 4 -150 
3 337 4 -115 4 -291 4 -309 4 448 4 -238 3 234 4 -530 
4 256 4 0 4 -215 3 -292 4 82 4 19 4 -39 4 162 
4 -150 3 -326 4 45 3424 3051 300 MP stroke
4 32 4 -6 4 -142 3 -29 4 -42 4 -22 4 -50 4 -5 
4 51 3 -56 4 206 4 38 4 157 4 -11 3 17 4 79 
4 376 4 -485 4 271 4 -266 3 314 4 161 4 -108 4 378 
4 -415 3 199 4 196 4 206 4 -207 4 333 4 -211 3 161 
4 -402 4 595 4 -148 4 -230 3 503 4 -565 4 -147 4 493 
4 -197 4 100 3 59 4 291 4 -156 4 -502 4 607 3 -327 
4 7 4 -119 4 392 4 -491 4 -250 3 572 4 85 4 -40 
4 523 4 -788 3 978 4 -710 4 173 4 -593 4 764 4 -928 
3 329 4 223 4 1223 4 -882 4 -345 3 127 4 284 4 -624 
4 -412 4 935 4 -369 3 -305 4 298 4 276 4 -735 4 546 
3 -14 4 4 4 -291 4 425 4 -577 4 -4 3 39 4 -349 
4 426 4 -267 4 168 3 -282 4 -306 4 365 4 -254 4 130 
4 -128 3 115 4 -224 4 -24 4 -158 4 -67 3 65 4 -58 
4 -42 4 -69 4 -96 4 -77 3 21 4 -20 4 121 4 59 
4 96 3 -102 4 159 4 160 4 23 4 -6 4 -78 3 87 
4 85 4 99 4 131 4 -134 3 -147 4 298 4 311 4 -279 
4 223 4 -112 3 482 4 -58 4 -82 4 269 4 -748 3 623 
4 -218 4 222 4 -508 4 507 4 258 3 -316 4 -267 4 200 
4 -606 4 346 3 613 4 -354 4 70 4 755 4 -554 4 112 
3 -282 4 737 4 -1283 4 386 4 617 3 -128 4 316 4 -712 
4 -108 4 933 4 -919 3 85 4 -205 4 252 4 327 4 -699 
3 1127 4 -645 4 -436 4 522 4 -334 4 -374 3 228 4 543 
4 -93 4 -246 4 300 3 34 4 -367 4 528 4 -378 4 -608 
4 328 3 297 4 11 4 37 4 -349 4 91 3 -321 4 57 
4 75 4 -747 4 282 4 49 3 -169 4 -47 4 72 4 199 
4 -64 3 -62 4 -96 4 -293 4 96 4 14 4 3 3 9 
4 -264 4 0 4 51 4 -114 3 30 4 138 4 -30 4 13 
4 42 4 132 3 211 4 -116 4 45 4 71 4 15 4 143 
3 -70 4 41 4 239 4 -93 4 87 3 9 4 34 4 -207 
4 52 4 296 4 -130 3 1012 4 -323 4 -648 4 321 4 330 
3 -477 4 -3 4 258 4 -185 4 769 4 -1074 3 438 4 -260 
4 -87 4 369 4 -255 3 309 4 168 4 -12 4 369 4 -435 
4 -299 3 -12 4 635 4 -100 4 180 4 -20 3 -679 4 408 
4 114 4 -476 4 647 4 -314 3 145 4 118 4 -798 4 57 
4 954 3 -885 4 684 4 -573 4 47 4 -131 4 12 3 474 
4 -81 4 -341 4 406 4 -150 3 239 4 -493 4 283 4 -69 
4 -699 4 294 3 271 4 -202 4 -84 4 -328 4 270 3 -74 
4 -266 4 -80 4 -34 2282 2773 300 MP stroke
4 253 4 -395 3 245 4 -247 4 96 4 -124 4 168 3 -326 
4 -1 4 16 4 -93 4 -31 4 -10 3 5 4 -137 4 -5 
4 136 4 2 3 79 4 -91 4 112 4 -13 4 -28 4 188 
3 4 4 193 4 -145 4 184 4 29 3 -73 4 86 4 110 
4 737 4 -763 4 338 3 172 4 -344 4 -2 4 434 4 -37 
3 276 4 -145 4 243 4 -778 4 280 4 -322 3 281 4 235 
4 -75 4 -215 4 -31 3 -5 4 522 4 192 4 -543 4 244 
4 -118 3 46 4 -7 4 -368 4 134 4 254 3 540 4 -680 
4 218 4 -568 4 54 4 453 3 304 4 167 4 311 4 -308 
4 -606 3 79 4 221 4 -233 4 -93 4 -344 4 488 3 162 
4 -230 4 -278 4 -272 4 679 3 -93 4 113 4 263 4 -666 
4 239 4 -434 3 614 4 -438 4 -117 4 538 4 -398 3 38 
4 134 4 -200 4 142 4 -231 4 -59 3 -436 4 433 4 -165 
4 26 4 -284 3 111 4 68 4 -37 4 -372 4 173 4 -133 
3 8 4 -110 4 -21 4 -184 4 15 3 121 4 32 4 20 
4 79 4 30 4 -45 3 181 4 -81 4 61 4 241 4 -34 
3 162 4 31 4 -17 4 -120 4 162 4 341 3 -4 4 -17 
4 -199 4 377 4 236 3 -577 4 -6 4 277 4 -27 4 257 
4 -683 3 824 4 -341 4 368 4 -40 4 -168 3 -228 4 335 
4 -278 4 -200 4 -240 4 162 3 -71 4 1124 4 -1283 4 504 
4 167 3 297 4 -241 4 -14 4 -11 4 -92 4 211 3 55 
4 -214 4 376 4 342 4 -392 3 -394 4 584 4 -447 4 -34 
4 459 4 -579 3 39 4 -454 4 343 4 117 4 202 3 6 
4 103 4 -512 4 79 4 252 4 61 3 -53 4 352 4 -303 
4 335 4 -823 3 470 4 -949 4 914 4 -449 4 84 4 -326 
3 585 4 -411 4 -123 4 -283 4 2 3 -28 4 -26 4 -72 
4 168 4 -273 4 276 3 -139 4 -223 4 -29 4 81 4 -118 
3 -112 4 25 4 -121 4 34 4 76 4 -39 3 81 4 36 
4 26 4 148 4 91 3 23 4 289 4 -478 4 101 4 292 
4 -244 3 18 4 255 4 384 4 159 4 -621 3 160 4 446 
4 -543 4 258 4 452 4 78 3 -110 4 -134 4 44 4 -8 
4 292 3 23 4 -180 4 306 4 -858 4 777 4 -195 3 96 
4 86 4 -631 4 -56 4 630 3 -391 4 427 4 2 4 -340 
4 241 4 875 3 -1241 4 340 4 594 4 -848 4 585 3 134 
4 -362 4 -183 4 304 4 -207 4 254 3 2 4 31 4 -29 
4 383 4 -790 3 469 4 -341 4 -364 4 433 4 -450 4 288 
3 -137 4 -206 4 710 4 -648 4 -1 3 267 4 -133 4 -485 
4 441 4 394 4 -464 1140 2226 300 MP stroke
3 329 4 -303 4 -96 4 -151 4 281 3 -106 4 -207 4 -197 
4 -9 4 19 4 -50 3 56 4 -27 4 -323 4 27 4 0 
3 -121 4 -16 4 43 4 -167 4 -64 4 14 3 -9 4 -16 
4 -29 4 129 4 75 3 82 4 -21 4 -8 4 195 4 16 
4 -17 3 362 4 -271 4 148 4 -89 4 183 3 -210 4 450 
4 -137 4 -156 4 666 4 -180 3 61 4 -129 4 328 4 -310 
4 156 3 -239 4 32 4 35 4 380 4 -343 4 -117 3 495 
4 -39 4 -280 4 -37 4 220 3 -327 4 631 4 -564 4 192 
4 521 4 -683 3 82 4 323 4 -542 4 912 4 -775 3 487 
4 -739 4 1006 4 -752 4 42 4 785 3 6 4 -435 4 3 
4 250 4 319 3 -1047 4 101 4 177 4 84 4 -8 4 -103 
3 12 4 52 4 -145 4 -280 4 179 3 -238 4 -39 4 356 
4 125 4 -273 4 319 3 -187 4 54 4 190 4 -475 4 -452 
3 802 4 -433 4 -170 4 140 4 -164 4 118 3 -321 4 329 
4 -218 4 46 4 -192 3 -57 4 -214 4 42 4 -67 4 -44 
4 -35 3 -109 4 27 4 -43 4 -26 4 -1 659 3364 127 MP stroke
/c11 { 0.000000 0.750000 0.750000 sr} bdef
c11
4 223 4 -54 4 61 4 113 4 -113 3 108 4 121 4 65 
4 -44 4 155 4 87 3 -278 4 194 4 2 4 -115 4 302 
3 100 4 373 4 -89 4 -18 4 192 4 -7 3 -407 4 9 
4 434 4 52 4 -346 3 522 4 307 4 -844 4 -241 4 528 
4 -21 3 338 4 -150 4 -884 4 667 4 -394 3 574 4 -49 
4 217 4 -21 4 -117 4 -215 3 652 4 -926 4 650 4 -296 
4 155 3 -59 4 -85 4 -30 4 -76 4 -97 4 624 3 -850 
4 547 4 -96 4 -10 4 47 3 -358 4 3 4 399 4 -438 
4 557 4 -512 3 585 4 -687 4 109 4 91 4 336 3 -623 
4 545 4 -306 4 -23 4 -243 4 581 3 -326 4 -57 4 -8 
4 -346 4 182 3 -204 4 -51 4 66 4 -130 4 7 4 98 
3 -151 4 -208 4 80 4 54 4 -190 3 -6 4 -56 4 -94 
4 -56 4 -82 4 92 3 -139 4 48 4 35 4 -47 4 86 
3 186 4 50 4 -141 4 262 4 22 4 -149 3 291 4 -65 
4 -109 4 216 4 170 3 63 4 -15 4 139 4 244 4 51 
4 -283 3 154 4 22 4 42 4 -389 4 537 3 -214 4 -219 
4 -263 4 812 4 -325 4 435 3 222 4 -582 4 222 4 316 
4 -469 3 150 4 34 4 -372 4 752 4 -647 4 417 3 372 
4 -220 4 -362 4 339 4 -365 3 375 4 -147 4 279 4 -797 
4 345 4 232 3 -385 4 223 4 -145 4 -82 4 -161 3 609 
4 -423 4 330 4 -516 4 208 4 -424 3 -102 4 684 4 -62 
4 -355 4 364 3 -404 4 22 4 109 4 -44 4 -113 4 794 
3 -251 4 -550 4 355 4 -169 4 -145 3 -322 4 474 4 -476 
4 388 4 192 4 -602 3 -40 4 -40 4 51 4 -201 4 243 
3 -93 4 -209 4 -50 4 -42 4 -3 4 10 3 -202 4 -37 
4 -71 4 -60 4 42 3 -39 4 168 4 107 4 -120 4 62 
4 124 3 -78 4 143 4 57 4 227 4 -357 3 285 4 125 
4 -106 4 -48 4 -42 4 397 3 57 4 -100 4 603 4 -451 
4 266 3 109 4 -267 4 457 4 -445 4 573 4 118 3 -157 
4 -494 4 692 4 -441 4 521 3 -430 4 218 4 -130 4 -165 
4 -148 4 176 3 -33 4 51 4 805 4 -498 4 -31 3 -70 
4 87 4 -230 4 68 4 -484 4 539 3 -257 4 126 4 -322 
4 -211 4 979 3 35 4 -126 4 -1125 4 825 4 31 4 -303 
3 99 4 -128 4 152 4 547 4 -722 3 -94 4 -70 4 514 
4 -169 4 -719 4 803 3 -88 4 -517 4 201 4 192 4 -150 
3 337 4 -115 4 -291 4 -309 4 448 4 -238 3 234 4 -530 
4 256 4 0 4 -215 3 -292 4 82 4 19 4 -39 4 162 
4 -150 3 -326 4 45 3424 3051 300 MP stroke
4 32 4 -36 4 -128 3 -42 4 -42 4 -51 4 125 4 -122 
4 51 3 -56 4 206 4 155 4 40 4 -11 3 17 4 79 
4 376 4 -485 4 271 4 -266 3 314 4 161 4 -108 4 378 
4 -415 3 199 4 196 4 206 4 -207 4 333 4 -211 3 161 
4 -402 4 595 4 -148 4 -230 3 503 4 -565 4 -147 4 493 
4 -197 4 100 3 59 4 291 4 -156 4 -502 4 607 3 -327 
4 7 4 -119 4 392 4 -491 4 -250 3 572 4 85 4 -40 
4 523 4 -788 3 978 4 -710 4 173 4 -593 4 764 4 -928 
3 329 4 223 4 1223 4 -882 4 -345 3 127 4 284 4 -624 
4 -412 4 935 4 -369 3 -305 4 298 4 276 4 -735 4 546 
3 -14 4 4 4 -291 4 425 4 -577 4 -4 3 39 4 -349 
4 426 4 -267 4 168 3 -282 4 -306 4 365 4 -254 4 130 
4 -128 3 115 4 -224 4 -24 4 -158 4 -67 3 6 4 -28 
4 -20 4 -106 4 -52 4 -77 3 33 4 -32 4 121 4 59 
4 214 3 -103 4 42 4 160 4 23 4 -6 4 -78 3 87 
4 85 4 99 4 131 4 -134 3 -147 4 298 4 311 4 -279 
4 223 4 -112 3 482 4 -58 4 -82 4 269 4 -748 3 623 
4 -218 4 222 4 -508 4 507 4 258 3 -316 4 -267 4 200 
4 -606 4 346 3 613 4 -354 4 70 4 755 4 -554 4 112 
3 -282 4 737 4 -1283 4 386 4 617 3 -128 4 316 4 -712 
4 -108 4 933 4 -919 3 85 4 -205 4 252 4 327 4 -699 
3 1127 4 -645 4 -436 4 522 4 -334 4 -374 3 228 4 543 
4 -93 4 -246 4 300 3 34 4 -367 4 528 4 -378 4 -608 
4 328 3 297 4 11 4 37 4 -349 4 91 3 -321 4 57 
4 75 4 -747 4 282 4 49 3 -169 4 -47 4 72 4 199 
4 -64 3 -62 4 -96 4 -293 4 96 4 -15 4 17 3 13 
4 -282 4 29 4 -67 4 4 3 147 4 21 4 88 4 13 
4 -76 4 132 3 211 4 -116 4 45 4 71 4 15 4 143 
3 -70 4 41 4 239 4 -93 4 87 3 9 4 34 4 -207 
4 52 4 296 4 -130 3 1012 4 -323 4 -648 4 321 4 330 
3 -477 4 -3 4 258 4 -185 4 769 4 -1074 3 438 4 -260 
4 -87 4 369 4 -255 3 309 4 168 4 -12 4 369 4 -435 
4 -299 3 -12 4 635 4 -100 4 180 4 -20 3 -679 4 408 
4 114 4 -476 4 647 4 -314 3 145 4 118 4 -798 4 57 
4 954 3 -885 4 684 4 -573 4 47 4 -131 4 12 3 474 
4 -81 4 -341 4 406 4 -150 3 239 4 -493 4 283 4 -69 
4 -699 4 294 3 271 4 -202 4 -84 4 -328 4 270 3 -74 
4 -266 4 -80 4 -34 2282 2773 300 MP stroke
4 253 4 -395 3 245 4 -247 4 96 4 -124 4 168 3 -326 
4 -30 4 15 4 -88 4 -6 4 -10 3 5 4 -78 4 -64 
4 136 4 2 3 79 4 -91 4 112 4 -13 4 -28 4 188 
3 4 4 193 4 -145 4 184 4 29 3 -73 4 86 4 110 
4 737 4 -763 4 338 3 172 4 -344 4 -2 4 434 4 -37 
3 276 4 -145 4 243 4 -778 4 280 4 -322 3 281 4 235 
4 -75 4 -215 4 -31 3 -5 4 522 4 192 4 -543 4 244 
4 -118 3 46 4 -7 4 -368 4 134 4 254 3 540 4 -680 
4 218 4 -568 4 54 4 453 3 304 4 167 4 311 4 -308 
4 -606 3 79 4 221 4 -233 4 -93 4 -344 4 488 3 162 
4 -230 4 -278 4 -272 4 679 3 -93 4 113 4 263 4 -666 
4 239 4 -434 3 614 4 -438 4 -117 4 538 4 -398 3 38 
4 134 4 -200 4 142 4 -231 4 -59 3 -436 4 433 4 -165 
4 26 4 -284 3 111 4 68 4 -37 4 -372 4 173 4 -162 
3 23 4 -118 4 -58 4 -68 4 -15 3 94 4 32 4 20 
4 79 4 30 4 -45 3 181 4 -81 4 61 4 241 4 -34 
3 162 4 31 4 -17 4 -120 4 162 4 341 3 -4 4 -17 
4 -199 4 377 4 236 3 -577 4 -6 4 277 4 -27 4 257 
4 -683 3 824 4 -341 4 368 4 -40 4 -168 3 -228 4 335 
4 -278 4 -200 4 -240 4 162 3 -71 4 1124 4 -1283 4 504 
4 167 3 297 4 -241 4 -14 4 -11 4 -92 4 211 3 55 
4 -214 4 376 4 342 4 -392 3 -394 4 584 4 -447 4 -34 
4 459 4 -579 3 39 4 -454 4 343 4 117 4 202 3 6 
4 103 4 -512 4 79 4 252 4 61 3 -53 4 352 4 -303 
4 335 4 -823 3 470 4 -949 4 914 4 -449 4 84 4 -326 
3 585 4 -411 4 -123 4 -283 4 2 3 -28 4 -26 4 -72 
4 168 4 -273 4 276 3 -139 4 -223 4 -29 4 51 4 -117 
3 -83 4 -5 4 -33 4 -24 4 76 4 -39 3 81 4 36 
4 143 4 31 4 91 3 23 4 289 4 -478 4 101 4 292 
4 -244 3 18 4 255 4 384 4 159 4 -621 3 160 4 446 
4 -543 4 258 4 452 4 78 3 -110 4 -134 4 44 4 -8 
4 292 3 23 4 -180 4 306 4 -858 4 777 4 -195 3 96 
4 86 4 -631 4 -56 4 630 3 -391 4 427 4 2 4 -340 
4 241 4 875 3 -1241 4 340 4 594 4 -848 4 585 3 134 
4 -362 4 -183 4 304 4 -207 4 254 3 2 4 31 4 -29 
4 383 4 -790 3 469 4 -341 4 -364 4 433 4 -450 4 288 
3 -137 4 -206 4 710 4 -648 4 -1 3 267 4 -133 4 -485 
4 441 4 394 4 -464 1140 2226 300 MP stroke
3 329 4 -303 4 -96 4 -151 4 281 3 -106 4 -207 4 -197 
4 -9 4 19 4 -50 3 56 4 -27 4 -323 4 27 4 0 
3 -121 4 -45 4 42 4 -152 4 -106 4 71 3 -68 4 43 
4 89 4 11 4 75 3 82 4 -21 4 227 4 -40 4 16 
4 -17 3 362 4 -271 4 148 4 -89 4 183 3 -210 4 450 
4 -137 4 -156 4 666 4 -180 3 61 4 -129 4 328 4 -310 
4 156 3 -239 4 32 4 35 4 380 4 -343 4 -117 3 495 
4 -39 4 -280 4 -37 4 220 3 -327 4 631 4 -564 4 192 
4 521 4 -683 3 82 4 323 4 -542 4 912 4 -775 3 487 
4 -739 4 1006 4 -752 4 42 4 785 3 6 4 -435 4 3 
4 250 4 319 3 -1047 4 101 4 177 4 84 4 -8 4 -103 
3 12 4 52 4 -145 4 -280 4 179 3 -238 4 -39 4 356 
4 125 4 -273 4 319 3 -187 4 54 4 190 4 -475 4 -452 
3 802 4 -433 4 -170 4 140 4 -164 4 118 3 -321 4 329 
4 -218 4 46 4 -192 3 -57 4 -214 4 42 4 -67 4 -44 
4 -35 3 -109 4 27 4 -43 4 -26 4 -1 659 3364 127 MP stroke
gr

c11
0 sg
%%IncludeResource: font Helvetica
/Helvetica /WindowsLatin1Encoding 120 FMSR

2593 3654 mt 
(t) s
 373 2521 mt  -90 rotate
(difference \(rounding error\)) s
90 rotate
 639 3409 mt 
( ) s
4550  326 mt 
( ) s
1 sg
0 626 1671 0 0 -626 2836 970 4 MP
PP
-1671 0 0 626 1671 0 0 -626 2836 970 5 MP stroke
4 w
DO
SO
6 w
0 sg
2836  344 mt 4507  344 L
2836  970 mt 4507  970 L
4507  970 mt 4507  344 L
2836  970 mt 2836  344 L
2836  970 mt 4507  970 L
2836  970 mt 2836  344 L
2836  344 mt 4507  344 L
2836  970 mt 4507  970 L
4507  970 mt 4507  344 L
2836  970 mt 2836  344 L
3341  478 mt 
(ppe/cuda-sp-fma) s
gs 2836 344 1672 627 rc
c8
389 0 2913 436 2 MP stroke
gr

c8
0 sg
3341  626 mt 
(ppe/cuda-sp-no-fma) s
gs 2836 344 1672 627 rc
c9
389 0 2913 583 2 MP stroke
gr

c9
0 sg
3341  773 mt 
(spe-sp-fma) s
gs 2836 344 1672 627 rc
c10
389 0 2913 730 2 MP stroke
gr

c10
0 sg
3341  921 mt 
(spe-sp-no-fma) s
gs 2836 344 1672 627 rc
c11
389 0 2913 877 2 MP stroke
gr

c11

end %%Color Dict

eplot
%%EndObject

epage
end

showpage

%%Trailer
%%EOF
