%!PS-Adobe-3.0 EPSF-3.0
%%Creator: MATLAB, The MathWorks, Inc. Version 8.0.0.783 (R2012b). Operating System: Microsoft Windows 7.
%%Title: C:\work\Dropbox\Cecill\eca1-fir_error_difference_double_arbitrary.eps
%%CreationDate: 11/21/2012  16:59:44
%%DocumentNeededFonts: Helvetica
%%DocumentProcessColors: Cyan Magenta Yellow Black
%%LanguageLevel: 2
%%Pages: 1
%%BoundingBox:    87   262   507   578
%%EndComments

%%BeginProlog
% MathWorks dictionary
/MathWorks 160 dict begin
% definition operators
/bdef {bind def} bind def
/ldef {load def} bind def
/xdef {exch def} bdef
/xstore {exch store} bdef
% operator abbreviations
/c  /clip ldef
/cc /concat ldef
/cp /closepath ldef
/gr /grestore ldef
/gs /gsave ldef
/mt /moveto ldef
/np /newpath ldef
/cm /currentmatrix ldef
/sm /setmatrix ldef
/rm /rmoveto ldef
/rl /rlineto ldef
/s {show newpath} bdef
/sc {setcmykcolor} bdef
/sr /setrgbcolor ldef
/sg /setgray ldef
/w /setlinewidth ldef
/j /setlinejoin ldef
/cap /setlinecap ldef
/rc {rectclip} bdef
/rf {rectfill} bdef
% page state control
/pgsv () def
/bpage {/pgsv save def} bdef
/epage {pgsv restore} bdef
/bplot /gsave ldef
/eplot {stroke grestore} bdef
% orientation switch
/portraitMode 0 def /landscapeMode 1 def /rotateMode 2 def
% coordinate system mappings
/dpi2point 0 def
% font control
/FontSize 0 def
/FMS {/FontSize xstore findfont [FontSize 0 0 FontSize neg 0 0]
  makefont setfont} bdef
/ISOLatin1Encoding where {pop /WindowsLatin1Encoding 256 array bdef
ISOLatin1Encoding WindowsLatin1Encoding copy pop
/.notdef/.notdef/quotesinglbase/florin/quotedblbase/ellipsis/dagger
/daggerdbl/circumflex/perthousand/Scaron/guilsinglleft/OE/.notdef/.notdef
/.notdef/.notdef/quoteleft/quoteright/quotedblleft/quotedblright/bullet
/endash/emdash/tilde/trademark/scaron/guilsinglright/oe/.notdef/.notdef
/Ydieresis WindowsLatin1Encoding 128 32 getinterval astore pop}
{/WindowsLatin1Encoding StandardEncoding bdef} ifelse
/reencode {exch dup where {pop load} {pop StandardEncoding} ifelse
  exch dup 3 1 roll findfont dup length dict begin
  { 1 index /FID ne {def}{pop pop} ifelse } forall
  /Encoding exch def currentdict end definefont pop} bdef
/isroman {findfont /CharStrings get /Agrave known} bdef
/FMSR {3 1 roll 1 index dup isroman {reencode} {pop pop} ifelse
  exch FMS} bdef
/csm {1 dpi2point div -1 dpi2point div scale neg translate
 dup landscapeMode eq {pop -90 rotate}
  {rotateMode eq {90 rotate} if} ifelse} bdef
% line types: solid, dotted, dashed, dotdash
/SO { [] 0 setdash } bdef
/DO { [.5 dpi2point mul 4 dpi2point mul] 0 setdash } bdef
/DA { [6 dpi2point mul] 0 setdash } bdef
/DD { [.5 dpi2point mul 4 dpi2point mul 6 dpi2point mul 4
  dpi2point mul] 0 setdash } bdef
% macros for lines and objects
/L {lineto stroke} bdef
/MP {3 1 roll moveto 1 sub {rlineto} repeat} bdef
/AP {{rlineto} repeat} bdef
/PDlw -1 def
/W {/PDlw currentlinewidth def setlinewidth} def
/PP {closepath eofill} bdef
/DP {closepath stroke} bdef
/MR {4 -2 roll moveto dup  0 exch rlineto exch 0 rlineto
  neg 0 exch rlineto closepath} bdef
/FR {MR stroke} bdef
/PR {MR fill} bdef
/L1i {{currentfile picstr readhexstring pop} image} bdef
/tMatrix matrix def
/MakeOval {newpath tMatrix currentmatrix pop translate scale
0 0 1 0 360 arc tMatrix setmatrix} bdef
/FO {MakeOval stroke} bdef
/PO {MakeOval fill} bdef
/PD {currentlinewidth 2 div 0 360 arc fill
   PDlw -1 eq not {PDlw w /PDlw -1 def} if} def
/FA {newpath tMatrix currentmatrix pop translate scale
  0 0 1 5 -2 roll arc tMatrix setmatrix stroke} bdef
/PA {newpath tMatrix currentmatrix pop	translate 0 0 moveto scale
  0 0 1 5 -2 roll arc closepath tMatrix setmatrix fill} bdef
/FAn {newpath tMatrix currentmatrix pop translate scale
  0 0 1 5 -2 roll arcn tMatrix setmatrix stroke} bdef
/PAn {newpath tMatrix currentmatrix pop translate 0 0 moveto scale
  0 0 1 5 -2 roll arcn closepath tMatrix setmatrix fill} bdef
/vradius 0 def /hradius 0 def /lry 0 def
/lrx 0 def /uly 0 def /ulx 0 def /rad 0 def
/MRR {/vradius xdef /hradius xdef /lry xdef /lrx xdef /uly xdef
  /ulx xdef newpath tMatrix currentmatrix pop ulx hradius add uly
  vradius add translate hradius vradius scale 0 0 1 180 270 arc 
  tMatrix setmatrix lrx hradius sub uly vradius add translate
  hradius vradius scale 0 0 1 270 360 arc tMatrix setmatrix
  lrx hradius sub lry vradius sub translate hradius vradius scale
  0 0 1 0 90 arc tMatrix setmatrix ulx hradius add lry vradius sub
  translate hradius vradius scale 0 0 1 90 180 arc tMatrix setmatrix
  closepath} bdef
/FRR {MRR stroke } bdef
/PRR {MRR fill } bdef
/MlrRR {/lry xdef /lrx xdef /uly xdef /ulx xdef /rad lry uly sub 2 div def
  newpath tMatrix currentmatrix pop ulx rad add uly rad add translate
  rad rad scale 0 0 1 90 270 arc tMatrix setmatrix lrx rad sub lry rad
  sub translate rad rad scale 0 0 1 270 90 arc tMatrix setmatrix
  closepath} bdef
/FlrRR {MlrRR stroke } bdef
/PlrRR {MlrRR fill } bdef
/MtbRR {/lry xdef /lrx xdef /uly xdef /ulx xdef /rad lrx ulx sub 2 div def
  newpath tMatrix currentmatrix pop ulx rad add uly rad add translate
  rad rad scale 0 0 1 180 360 arc tMatrix setmatrix lrx rad sub lry rad
  sub translate rad rad scale 0 0 1 0 180 arc tMatrix setmatrix
  closepath} bdef
/FtbRR {MtbRR stroke } bdef
/PtbRR {MtbRR fill } bdef
/stri 6 array def /dtri 6 array def
/smat 6 array def /dmat 6 array def
/tmat1 6 array def /tmat2 6 array def /dif 3 array def
/asub {/ind2 exch def /ind1 exch def dup dup
  ind1 get exch ind2 get sub exch } bdef
/tri_to_matrix {
  2 0 asub 3 1 asub 4 0 asub 5 1 asub
  dup 0 get exch 1 get 7 -1 roll astore } bdef
/compute_transform {
  dmat dtri tri_to_matrix tmat1 invertmatrix 
  smat stri tri_to_matrix tmat2 concatmatrix } bdef
/ds {stri astore pop} bdef
/dt {dtri astore pop} bdef
/db {2 copy /cols xdef /rows xdef mul dup 3 mul string
  currentfile 
  3 index 0 eq {/ASCIIHexDecode filter}
  {/ASCII85Decode filter 3 index 2 eq {/RunLengthDecode filter} if }
  ifelse exch readstring pop
  dup 0 3 index getinterval /rbmap xdef
  dup 2 index dup getinterval /gbmap xdef
  1 index dup 2 mul exch getinterval /bbmap xdef pop pop}bdef
/it {gs np dtri aload pop moveto lineto lineto cp c
  cols rows 8 compute_transform 
  rbmap gbmap bbmap true 3 colorimage gr}bdef
/il {newpath moveto lineto stroke}bdef
currentdict end def
%%EndProlog

%%BeginSetup
MathWorks begin

0 cap

end
%%EndSetup

%%Page: 1 1
%%BeginPageSetup
%%PageBoundingBox:    87   262   507   578
MathWorks begin
bpage
%%EndPageSetup

%%BeginObject: obj1
bplot

/dpi2point 12 def
portraitMode 1044 6936 csm

    0     0  5045  3782 rc
85 dict begin %Colortable dictionary
/c0 { 0.000000 0.000000 0.000000 sr} bdef
/c1 { 1.000000 1.000000 1.000000 sr} bdef
/c2 { 0.900000 0.000000 0.000000 sr} bdef
/c3 { 0.000000 0.820000 0.000000 sr} bdef
/c4 { 0.000000 0.000000 0.800000 sr} bdef
/c5 { 0.910000 0.820000 0.320000 sr} bdef
/c6 { 1.000000 0.260000 0.820000 sr} bdef
/c7 { 0.000000 0.820000 0.820000 sr} bdef
c0
1 j
1 sg
   0    0 5046 3783 rf
6 w
0 3082 3910 0 0 -3082 656 3366 4 MP
PP
-3910 0 0 3082 3910 0 0 -3082 656 3366 5 MP stroke
4 w
DO
SO
6 w
0 sg
 656  284 mt 4566  284 L
 656 3366 mt 4566 3366 L
4566 3366 mt 4566  284 L
 656 3366 mt  656  284 L
 656 3366 mt 4566 3366 L
 656 3366 mt  656  284 L
 656 3366 mt  656 3326 L
 656  284 mt  656  323 L
%%IncludeResource: font Helvetica
/Helvetica /WindowsLatin1Encoding 120 FMSR

 623 3511 mt 
(0) s
1438 3366 mt 1438 3326 L
1438  284 mt 1438  323 L
1355 3511 mt 
(0.2) s
2220 3366 mt 2220 3326 L
2220  284 mt 2220  323 L
2137 3511 mt 
(0.4) s
3002 3366 mt 3002 3326 L
3002  284 mt 3002  323 L
2919 3511 mt 
(0.6) s
3784 3366 mt 3784 3326 L
3784  284 mt 3784  323 L
3701 3511 mt 
(0.8) s
4566 3366 mt 4566 3326 L
4566  284 mt 4566  323 L
4533 3511 mt 
(1) s
 656 3366 mt  695 3366 L
4566 3366 mt 4526 3366 L
 555 3410 mt 
(0) s
 656 2925 mt  695 2925 L
4566 2925 mt 4526 2925 L
 455 2969 mt 
(0.2) s
 656 2485 mt  695 2485 L
4566 2485 mt 4526 2485 L
 455 2529 mt 
(0.4) s
 656 2045 mt  695 2045 L
4566 2045 mt 4526 2045 L
 455 2089 mt 
(0.6) s
 656 1604 mt  695 1604 L
4566 1604 mt 4526 1604 L
 455 1648 mt 
(0.8) s
 656 1164 mt  695 1164 L
4566 1164 mt 4526 1164 L
 555 1208 mt 
(1) s
 656  724 mt  695  724 L
4566  724 mt 4526  724 L
 455  768 mt 
(1.2) s
 656  284 mt  695  284 L
4566  284 mt 4526  284 L
 455  328 mt 
(1.4) s
 656  230 mt 
(x 10) s
%%IncludeResource: font Helvetica
/Helvetica /WindowsLatin1Encoding 80 FMSR

 882  156 mt 
(-14) s
 656  284 mt 4566  284 L
 656 3366 mt 4566 3366 L
4566 3366 mt 4566  284 L
 656 3366 mt  656  284 L
gs 656 284 3911 3083 rc
/c8 { 0.000000 0.000000 1.000000 sr} bdef
c8
4 -61 4 64 4 -85 4 110 4 232 3 263 4 -6 4 36 
4 -525 4 195 4 49 3 -281 4 281 4 684 4 -953 4 440 
3 -269 4 440 4 -562 4 416 4 -171 4 -367 3 1295 4 489 
4 -929 4 -342 4 1955 3 -1955 4 -220 4 -98 4 660 4 489 
4 -635 3 -538 4 -147 4 147 4 49 4 1857 3 -928 4 146 
4 147 4 -1173 4 2639 4 -2102 3 -391 4 -244 4 1564 4 -489 
4 -1075 3 733 4 -49 4 -488 4 195 4 293 4 0 3 -488 
4 -294 4 49 4 1222 4 -1124 3 293 4 831 4 -391 4 587 
4 -49 4 -1027 3 196 4 -440 4 -98 4 416 4 73 3 635 
4 -1099 4 879 4 -391 4 -195 4 -49 3 464 4 -171 4 -440 
4 208 4 -122 3 -355 4 37 4 232 4 37 4 -269 4 31 
3 562 4 -498 4 30 4 63 4 -20 3 -175 4 194 4 -62 
4 -49 4 -74 4 -20 3 -6 4 27 4 107 4 61 4 -143 
3 143 4 -128 4 122 4 -12 4 67 4 86 3 220 4 -220 
4 305 4 -305 4 220 3 -294 4 -195 4 562 4 -244 4 122 
4 0 3 366 4 416 4 -611 4 -587 4 416 3 904 4 -1246 
4 1271 4 -905 4 489 4 -49 3 -733 4 -147 4 538 4 -98 
4 -49 3 440 4 -831 4 782 4 0 4 -684 4 538 3 -587 
4 1467 4 -245 4 -880 4 538 3 -978 4 880 4 -684 4 293 
4 -244 4 0 3 1711 4 -831 4 -343 4 -342 4 929 3 733 
4 -1368 4 293 4 -929 4 416 4 806 3 -660 4 -586 4 73 
4 538 4 -147 3 -464 4 342 4 220 4 -196 4 465 4 -98 
3 538 4 268 4 -1197 4 -147 4 -220 3 318 4 1246 4 -1075 
4 -525 4 195 4 61 3 184 4 -165 4 97 4 190 4 299 
3 -553 4 322 4 -602 4 -82 4 243 4 -224 3 0 4 -2 
4 97 4 -54 4 -10 3 -42 4 101 4 -49 4 -61 4 42 
4 190 3 -202 4 98 4 98 4 85 4 -49 3 550 4 -195 
4 110 4 -342 4 97 4 294 3 -489 4 782 4 0 4 342 
4 -1149 3 -122 4 636 4 171 4 -147 4 269 4 -1002 3 464 
4 -391 4 440 4 -244 4 195 3 49 4 538 4 -342 4 -734 
4 880 4 587 3 0 4 -293 4 -1125 4 245 4 -343 3 831 
4 -488 4 586 4 -146 4 1271 4 -1809 3 2053 4 -2200 4 -49 
4 196 4 440 3 831 4 684 4 -2151 4 1956 4 -2005 4 98 
3 2444 4 -2199 4 244 4 562 4 -880 3 1418 4 -904 4 -269 
4 562 4 -98 4 -73 3 -758 4 489 4 -244 4 146 4 -195 
3 0 4 -220 4 195 4 -244 4 538 4 305 3 -843 4 305 
4 233 4 -514 4 281 3 575 4 -758 4 61 4 116 4 246 
4 -12 3 -584 4 97 3424 3246 300 MP stroke
4 -84 4 90 4 32 3 -96 4 -44 4 44 4 -42 4 22 
4 7 3 31 4 0 4 24 4 281 4 -232 3 -43 4 25 
4 195 4 -268 4 354 4 -330 3 306 4 342 4 -636 4 -24 
4 562 3 -269 4 929 4 -880 4 367 4 -220 4 -538 3 1173 
4 -1124 4 562 4 660 4 -1100 3 782 4 -147 4 440 4 -1075 
4 831 4 -978 3 98 4 0 4 538 4 -391 4 929 3 -489 
4 195 4 49 4 -880 4 1027 4 -929 3 1320 4 -880 4 293 
4 49 4 1515 3 -1564 4 1711 4 -2151 4 -342 4 440 4 196 
3 -391 4 -392 4 489 4 1271 4 -1368 3 782 4 -1002 4 -123 
4 1394 4 -758 4 538 3 73 4 -1149 4 465 4 -147 4 684 
3 -366 4 -563 4 1369 4 -220 4 -855 4 122 3 293 4 -904 
4 1100 4 -795 4 25 3 -110 4 -61 4 98 4 -74 4 -73 
4 61 3 348 4 -177 4 336 4 -676 4 32 3 209 4 -220 
4 204 4 -202 4 -48 4 4 3 50 4 -16 4 -18 4 95 
4 -46 3 27 4 -30 4 262 4 -293 4 25 4 452 3 -208 
4 244 4 25 4 195 4 -550 3 367 4 733 4 -1173 4 73 
4 147 4 1320 3 -1002 4 513 4 -1100 4 709 4 1002 3 -293 
4 -1222 4 -25 4 123 4 488 4 343 3 342 4 -294 4 -684 
4 538 4 -1027 3 489 4 391 4 -733 4 1124 4 -489 4 489 
3 -1271 4 880 4 489 4 -538 4 -146 3 -294 4 -49 4 391 
4 -342 4 147 4 -293 3 0 4 293 4 -98 4 1711 4 -1662 
3 -244 4 97 4 978 4 -1026 4 1344 4 -1393 3 391 4 -660 
4 904 4 -904 4 391 3 171 4 -367 4 2542 4 -1613 4 -73 
4 98 3 268 4 -1246 4 -220 4 660 4 293 3 -672 4 342 
4 -281 4 -330 4 281 4 -122 3 409 4 -440 4 343 4 73 
4 67 3 -617 4 104 4 316 4 -404 4 112 4 -105 3 49 
4 -22 4 -33 4 -17 4 -15 3 80 4 -39 4 191 4 -3 
4 -202 4 416 3 -80 4 49 4 -49 4 -342 4 685 4 366 
3 -831 4 379 4 -587 4 929 4 -415 3 -489 4 880 4 -147 
4 -562 4 24 4 1174 3 -612 4 269 4 -635 4 880 4 -489 
3 -391 4 -293 4 1051 4 97 4 -195 4 -831 3 391 4 -489 
4 1173 4 831 4 -1564 3 -342 4 -98 4 782 4 -293 4 391 
4 49 3 -342 4 1173 4 -782 4 146 4 1125 3 -1027 4 -684 
4 -147 4 -49 4 587 4 1271 3 -2298 4 -98 4 196 4 196 
4 391 3 -489 4 -245 4 123 4 366 4 -220 4 318 3 -342 
4 440 4 220 4 -367 4 -24 3 1442 4 -1393 4 -269 4 -171 
4 317 4 49 3 -293 4 367 4 452 4 -905 4 587 3 -354 
4 -220 4 598 4 -745 2282 3341 300 MP stroke
4 232 4 -226 3 440 4 -92 4 -327 4 306 4 -108 3 -30 
4 -124 4 -95 4 174 4 -102 4 57 3 -112 4 -13 4 52 
4 14 4 15 3 49 4 -80 4 104 4 98 4 196 4 -343 
3 208 4 49 4 -208 4 306 4 24 3 538 4 -831 4 293 
4 147 4 -342 4 1100 3 -123 4 -635 4 562 4 -1173 4 660 
3 24 4 758 4 -489 4 587 4 684 4 -1418 3 -293 4 -195 
4 391 4 733 4 -929 3 880 4 -342 4 -587 4 -49 4 -146 
4 635 3 0 4 -391 4 245 4 -489 4 391 3 -196 4 147 
4 -391 4 98 4 -245 4 -49 3 1516 4 -1027 4 -195 4 1613 
4 -929 3 1173 4 -1613 4 -195 4 -49 4 -294 4 1125 3 -1149 
4 24 4 0 4 416 4 -122 3 -220 4 -98 4 1809 4 -1711 
4 586 4 171 3 -586 4 122 4 49 4 1002 4 318 3 -1271 
4 354 4 -806 4 757 4 -794 4 1051 3 -1002 4 110 4 6 
4 -80 4 361 3 -131 4 -210 4 278 4 -248 4 -64 4 141 
3 164 4 -310 4 49 4 -114 4 -20 3 123 4 -91 4 106 
4 58 4 220 4 -140 3 140 4 98 4 -110 4 202 4 -489 
3 61 4 342 4 -354 4 293 4 171 4 -538 3 636 4 244 
4 -684 4 611 4 -513 3 244 4 -538 4 245 4 757 4 -855 
4 -220 3 758 4 -783 4 196 4 -171 4 709 3 195 4 489 
4 -1271 4 782 4 -391 4 733 3 -97 4 -1125 4 1174 4 439 
4 -1368 3 440 4 -489 4 684 4 -391 4 1467 4 -1467 3 -391 
4 1564 4 -1075 4 1271 4 -1076 3 -195 4 -391 4 244 4 1369 
4 -1662 4 978 3 708 4 -831 4 -268 4 -489 4 855 3 74 
4 0 4 -660 4 195 4 -73 4 -147 3 1491 4 -1882 4 758 
4 -562 4 -49 3 1344 4 -1564 4 1222 4 -953 4 110 4 391 
3 -367 4 416 4 -844 4 49 4 0 3 80 4 -171 4 476 
4 -116 4 -339 4 116 3 -47 4 -30 4 252 4 -316 4 58 
3 19 4 -71 4 -5 4 115 4 -76 4 161 3 -124 4 116 
4 -49 4 293 4 -372 3 690 4 0 4 -342 4 134 4 -366 
4 36 3 98 4 122 4 709 4 -586 4 -440 3 0 4 904 
4 -464 4 0 4 -318 4 -171 3 -49 4 489 4 709 4 -1149 
4 562 3 -318 4 -171 4 1760 4 -1564 4 537 4 -342 3 342 
4 -391 4 538 4 244 4 440 3 -782 4 -635 4 1515 4 -244 
4 -1125 4 636 3 538 4 -1320 4 1662 4 -1809 4 538 3 -49 
4 831 4 -244 4 733 4 -440 4 -440 3 0 4 -782 4 -49 
4 538 4 -636 3 -98 4 440 4 0 4 -73 4 415 4 269 
3 -24 4 -122 4 269 4 -978 4 -220 3 147 4 73 4 -49 
4 1198 4 0 4 -1002 1140 2974 300 MP stroke
3 -245 4 25 4 220 4 73 4 -355 3 416 4 -330 4 501 
4 -574 4 159 4 226 3 0 4 -449 4 244 4 -198 4 -36 
3 119 4 -132 4 72 4 -63 4 19 4 -10 3 15 4 17 
4 -80 4 -26 4 190 3 -168 4 76 4 -55 4 -18 4 440 
4 -147 3 -256 4 244 4 -73 4 12 4 293 3 -122 4 733 
4 -684 4 -49 4 440 4 -147 3 -97 4 -74 4 562 4 220 
4 -831 3 196 4 -122 4 366 4 0 4 -831 4 636 3 -685 
4 196 4 0 4 -49 4 -49 3 245 4 97 4 -293 4 782 
4 -635 4 244 3 391 4 -684 4 49 4 1271 4 -1418 3 978 
4 -1076 4 1564 4 -342 4 -391 4 -684 3 1760 4 -1662 4 -343 
4 440 4 294 3 244 4 -489 4 1516 4 -1320 4 586 4 147 
3 -1149 4 929 4 -709 4 954 4 -807 3 -538 4 758 4 -269 
4 98 4 440 4 -245 3 660 4 -977 4 -538 4 318 4 -196 
3 807 4 -905 4 318 4 245 4 -172 4 489 3 -452 4 -360 
4 -104 4 152 4 184 3 305 4 -279 4 -358 4 200 4 -171 
4 -33 3 15 4 14 4 -12 4 -2 4 -28 659 3366 127 MP stroke
gr

c8
0 sg
%%IncludeResource: font Helvetica
/Helvetica /WindowsLatin1Encoding 120 FMSR

2593 3654 mt 
(t) s
 373 2521 mt  -90 rotate
(difference \(rounding error\)) s
90 rotate

end %%Color Dict

eplot
%%EndObject

epage
end

showpage

%%Trailer
%%EOF
