%!PS-Adobe-3.0 EPSF-3.0
%%Creator: MATLAB, The MathWorks, Inc. Version 8.0.0.783 (R2012b). Operating System: Microsoft Windows 7.
%%Title: C:\work\Dropbox\Cecill\eca1-fir_input_output_matlab.eps
%%CreationDate: 11/21/2012  17:00:59
%%DocumentNeededFonts: Helvetica
%%DocumentProcessColors: Cyan Magenta Yellow Black
%%LanguageLevel: 2
%%Pages: 1
%%BoundingBox:    87   262   507   578
%%EndComments

%%BeginProlog
% MathWorks dictionary
/MathWorks 160 dict begin
% definition operators
/bdef {bind def} bind def
/ldef {load def} bind def
/xdef {exch def} bdef
/xstore {exch store} bdef
% operator abbreviations
/c  /clip ldef
/cc /concat ldef
/cp /closepath ldef
/gr /grestore ldef
/gs /gsave ldef
/mt /moveto ldef
/np /newpath ldef
/cm /currentmatrix ldef
/sm /setmatrix ldef
/rm /rmoveto ldef
/rl /rlineto ldef
/s {show newpath} bdef
/sc {setcmykcolor} bdef
/sr /setrgbcolor ldef
/sg /setgray ldef
/w /setlinewidth ldef
/j /setlinejoin ldef
/cap /setlinecap ldef
/rc {rectclip} bdef
/rf {rectfill} bdef
% page state control
/pgsv () def
/bpage {/pgsv save def} bdef
/epage {pgsv restore} bdef
/bplot /gsave ldef
/eplot {stroke grestore} bdef
% orientation switch
/portraitMode 0 def /landscapeMode 1 def /rotateMode 2 def
% coordinate system mappings
/dpi2point 0 def
% font control
/FontSize 0 def
/FMS {/FontSize xstore findfont [FontSize 0 0 FontSize neg 0 0]
  makefont setfont} bdef
/ISOLatin1Encoding where {pop /WindowsLatin1Encoding 256 array bdef
ISOLatin1Encoding WindowsLatin1Encoding copy pop
/.notdef/.notdef/quotesinglbase/florin/quotedblbase/ellipsis/dagger
/daggerdbl/circumflex/perthousand/Scaron/guilsinglleft/OE/.notdef/.notdef
/.notdef/.notdef/quoteleft/quoteright/quotedblleft/quotedblright/bullet
/endash/emdash/tilde/trademark/scaron/guilsinglright/oe/.notdef/.notdef
/Ydieresis WindowsLatin1Encoding 128 32 getinterval astore pop}
{/WindowsLatin1Encoding StandardEncoding bdef} ifelse
/reencode {exch dup where {pop load} {pop StandardEncoding} ifelse
  exch dup 3 1 roll findfont dup length dict begin
  { 1 index /FID ne {def}{pop pop} ifelse } forall
  /Encoding exch def currentdict end definefont pop} bdef
/isroman {findfont /CharStrings get /Agrave known} bdef
/FMSR {3 1 roll 1 index dup isroman {reencode} {pop pop} ifelse
  exch FMS} bdef
/csm {1 dpi2point div -1 dpi2point div scale neg translate
 dup landscapeMode eq {pop -90 rotate}
  {rotateMode eq {90 rotate} if} ifelse} bdef
% line types: solid, dotted, dashed, dotdash
/SO { [] 0 setdash } bdef
/DO { [.5 dpi2point mul 4 dpi2point mul] 0 setdash } bdef
/DA { [6 dpi2point mul] 0 setdash } bdef
/DD { [.5 dpi2point mul 4 dpi2point mul 6 dpi2point mul 4
  dpi2point mul] 0 setdash } bdef
% macros for lines and objects
/L {lineto stroke} bdef
/MP {3 1 roll moveto 1 sub {rlineto} repeat} bdef
/AP {{rlineto} repeat} bdef
/PDlw -1 def
/W {/PDlw currentlinewidth def setlinewidth} def
/PP {closepath eofill} bdef
/DP {closepath stroke} bdef
/MR {4 -2 roll moveto dup  0 exch rlineto exch 0 rlineto
  neg 0 exch rlineto closepath} bdef
/FR {MR stroke} bdef
/PR {MR fill} bdef
/L1i {{currentfile picstr readhexstring pop} image} bdef
/tMatrix matrix def
/MakeOval {newpath tMatrix currentmatrix pop translate scale
0 0 1 0 360 arc tMatrix setmatrix} bdef
/FO {MakeOval stroke} bdef
/PO {MakeOval fill} bdef
/PD {currentlinewidth 2 div 0 360 arc fill
   PDlw -1 eq not {PDlw w /PDlw -1 def} if} def
/FA {newpath tMatrix currentmatrix pop translate scale
  0 0 1 5 -2 roll arc tMatrix setmatrix stroke} bdef
/PA {newpath tMatrix currentmatrix pop	translate 0 0 moveto scale
  0 0 1 5 -2 roll arc closepath tMatrix setmatrix fill} bdef
/FAn {newpath tMatrix currentmatrix pop translate scale
  0 0 1 5 -2 roll arcn tMatrix setmatrix stroke} bdef
/PAn {newpath tMatrix currentmatrix pop translate 0 0 moveto scale
  0 0 1 5 -2 roll arcn closepath tMatrix setmatrix fill} bdef
/vradius 0 def /hradius 0 def /lry 0 def
/lrx 0 def /uly 0 def /ulx 0 def /rad 0 def
/MRR {/vradius xdef /hradius xdef /lry xdef /lrx xdef /uly xdef
  /ulx xdef newpath tMatrix currentmatrix pop ulx hradius add uly
  vradius add translate hradius vradius scale 0 0 1 180 270 arc 
  tMatrix setmatrix lrx hradius sub uly vradius add translate
  hradius vradius scale 0 0 1 270 360 arc tMatrix setmatrix
  lrx hradius sub lry vradius sub translate hradius vradius scale
  0 0 1 0 90 arc tMatrix setmatrix ulx hradius add lry vradius sub
  translate hradius vradius scale 0 0 1 90 180 arc tMatrix setmatrix
  closepath} bdef
/FRR {MRR stroke } bdef
/PRR {MRR fill } bdef
/MlrRR {/lry xdef /lrx xdef /uly xdef /ulx xdef /rad lry uly sub 2 div def
  newpath tMatrix currentmatrix pop ulx rad add uly rad add translate
  rad rad scale 0 0 1 90 270 arc tMatrix setmatrix lrx rad sub lry rad
  sub translate rad rad scale 0 0 1 270 90 arc tMatrix setmatrix
  closepath} bdef
/FlrRR {MlrRR stroke } bdef
/PlrRR {MlrRR fill } bdef
/MtbRR {/lry xdef /lrx xdef /uly xdef /ulx xdef /rad lrx ulx sub 2 div def
  newpath tMatrix currentmatrix pop ulx rad add uly rad add translate
  rad rad scale 0 0 1 180 360 arc tMatrix setmatrix lrx rad sub lry rad
  sub translate rad rad scale 0 0 1 0 180 arc tMatrix setmatrix
  closepath} bdef
/FtbRR {MtbRR stroke } bdef
/PtbRR {MtbRR fill } bdef
/stri 6 array def /dtri 6 array def
/smat 6 array def /dmat 6 array def
/tmat1 6 array def /tmat2 6 array def /dif 3 array def
/asub {/ind2 exch def /ind1 exch def dup dup
  ind1 get exch ind2 get sub exch } bdef
/tri_to_matrix {
  2 0 asub 3 1 asub 4 0 asub 5 1 asub
  dup 0 get exch 1 get 7 -1 roll astore } bdef
/compute_transform {
  dmat dtri tri_to_matrix tmat1 invertmatrix 
  smat stri tri_to_matrix tmat2 concatmatrix } bdef
/ds {stri astore pop} bdef
/dt {dtri astore pop} bdef
/db {2 copy /cols xdef /rows xdef mul dup 3 mul string
  currentfile 
  3 index 0 eq {/ASCIIHexDecode filter}
  {/ASCII85Decode filter 3 index 2 eq {/RunLengthDecode filter} if }
  ifelse exch readstring pop
  dup 0 3 index getinterval /rbmap xdef
  dup 2 index dup getinterval /gbmap xdef
  1 index dup 2 mul exch getinterval /bbmap xdef pop pop}bdef
/it {gs np dtri aload pop moveto lineto lineto cp c
  cols rows 8 compute_transform 
  rbmap gbmap bbmap true 3 colorimage gr}bdef
/il {newpath moveto lineto stroke}bdef
currentdict end def
%%EndProlog

%%BeginSetup
MathWorks begin

0 cap

end
%%EndSetup

%%Page: 1 1
%%BeginPageSetup
%%PageBoundingBox:    87   262   507   578
MathWorks begin
bpage
%%EndPageSetup

%%BeginObject: obj1
bplot

/dpi2point 12 def
portraitMode 1044 6936 csm

    0     0  5045  3782 rc
85 dict begin %Colortable dictionary
/c0 { 0.000000 0.000000 0.000000 sr} bdef
/c1 { 1.000000 1.000000 1.000000 sr} bdef
/c2 { 0.900000 0.000000 0.000000 sr} bdef
/c3 { 0.000000 0.820000 0.000000 sr} bdef
/c4 { 0.000000 0.000000 0.800000 sr} bdef
/c5 { 0.910000 0.820000 0.320000 sr} bdef
/c6 { 1.000000 0.260000 0.820000 sr} bdef
/c7 { 0.000000 0.820000 0.820000 sr} bdef
c0
1 j
1 sg
   0    0 5046 3783 rf
6 w
0 3082 3910 0 0 -3082 656 3366 4 MP
PP
-3910 0 0 3082 3910 0 0 -3082 656 3366 5 MP stroke
4 w
DO
SO
6 w
0 sg
 656  284 mt 4566  284 L
 656 3366 mt 4566 3366 L
4566 3366 mt 4566  284 L
 656 3366 mt  656  284 L
 656 3366 mt 4566 3366 L
 656 3366 mt  656  284 L
 656 3366 mt  656 3326 L
 656  284 mt  656  323 L
%%IncludeResource: font Helvetica
/Helvetica /WindowsLatin1Encoding 120 FMSR

 623 3511 mt 
(0) s
1438 3366 mt 1438 3326 L
1438  284 mt 1438  323 L
1355 3511 mt 
(0.2) s
2220 3366 mt 2220 3326 L
2220  284 mt 2220  323 L
2137 3511 mt 
(0.4) s
3002 3366 mt 3002 3326 L
3002  284 mt 3002  323 L
2919 3511 mt 
(0.6) s
3784 3366 mt 3784 3326 L
3784  284 mt 3784  323 L
3701 3511 mt 
(0.8) s
4566 3366 mt 4566 3326 L
4566  284 mt 4566  323 L
4533 3511 mt 
(1) s
 656 3366 mt  695 3366 L
4566 3366 mt 4526 3366 L
 351 3410 mt 
(-150) s
 656 2852 mt  695 2852 L
4566 2852 mt 4526 2852 L
 351 2896 mt 
(-100) s
 656 2338 mt  695 2338 L
4566 2338 mt 4526 2338 L
 418 2382 mt 
(-50) s
 656 1825 mt  695 1825 L
4566 1825 mt 4526 1825 L
 555 1869 mt 
(0) s
 656 1311 mt  695 1311 L
4566 1311 mt 4526 1311 L
 488 1355 mt 
(50) s
 656  797 mt  695  797 L
4566  797 mt 4526  797 L
 421  841 mt 
(100) s
 656  284 mt  695  284 L
4566  284 mt 4526  284 L
 421  328 mt 
(150) s
 656  284 mt 4566  284 L
 656 3366 mt 4566 3366 L
4566 3366 mt 4566  284 L
 656 3366 mt  656  284 L
gs 656 284 3911 3083 rc
/c8 { 0.000000 0.000000 1.000000 sr} bdef
c8
4 -35 4 -43 4 -10 4 -28 4 -32 3 -41 4 -5 4 -27 
4 -12 4 -62 4 -100 3 36 4 -44 4 -12 4 -46 4 -6 
3 -65 4 -20 4 4 4 -54 4 -20 4 -31 3 7 4 -66 
4 30 4 -55 4 -12 3 10 4 -14 4 -67 4 3 4 -57 
4 -3 3 -47 4 1 4 -8 4 11 4 -7 3 35 4 -86 
4 19 4 21 4 -88 4 26 3 77 4 -78 4 -13 4 3 
4 9 3 7 4 -43 4 34 4 -29 4 5 4 24 3 13 
4 -6 4 17 4 -24 4 2 3 44 4 -25 4 20 4 22 
4 44 4 33 3 -67 4 82 4 -7 4 -8 4 1 3 38 
4 18 4 28 4 8 4 32 4 -5 3 58 4 34 4 -17 
4 59 4 16 3 61 4 -34 4 56 4 21 4 73 4 -13 
3 -4 4 38 4 78 4 -16 4 29 3 46 4 45 4 -16 
4 83 4 31 4 25 3 39 4 5 4 36 4 76 4 25 
3 8 4 11 4 8 4 45 4 -1 4 76 3 30 4 65 
4 5 4 6 4 44 3 30 4 13 4 24 4 54 4 52 
4 2 3 12 4 47 4 2 4 68 4 3 3 -13 4 36 
4 10 4 57 4 2 4 72 3 -34 4 47 4 -48 4 61 
4 7 3 -13 4 88 4 -10 4 -26 4 15 4 39 3 26 
4 46 4 -97 4 14 4 10 3 40 4 17 4 17 4 -38 
4 3 4 -1 3 3 4 -16 4 12 4 -26 4 9 3 -13 
4 -11 4 26 4 -41 4 18 4 9 3 -28 4 -30 4 -50 
4 7 4 28 3 -3 4 -59 4 -33 4 23 4 -32 4 -22 
3 1 4 -106 4 25 4 -7 4 -5 3 -36 4 9 4 -99 
4 -6 4 22 4 -81 3 14 4 -42 4 -11 4 -37 4 -39 
3 -3 4 -40 4 -59 4 1 4 -66 4 -22 3 -28 4 -64 
4 12 4 -49 4 -24 3 -28 4 -22 4 -57 4 -11 4 -19 
4 -58 3 -9 4 -42 4 -69 4 31 4 -63 3 -31 4 -24 
4 -12 4 -29 4 -29 4 -49 3 -21 4 -58 4 21 4 10 
4 -60 3 -77 4 33 4 -36 4 -1 4 -48 4 -47 3 13 
4 -70 4 -13 4 25 4 -55 3 17 4 30 4 -69 4 -56 
4 -6 4 -10 3 29 4 -18 4 -1 4 -39 4 -4 3 -48 
4 11 4 13 4 -15 4 19 4 -46 3 13 4 15 4 14 
4 -31 4 36 3 5 4 -10 4 -5 4 13 4 6 4 -47 
3 21 4 61 4 -21 4 8 4 53 3 -37 4 39 4 59 
4 1 4 -55 4 39 3 43 4 29 4 0 4 -11 4 40 
3 -3 4 52 4 16 4 81 4 -28 4 28 3 7 4 16 
4 34 4 -22 4 95 3 7 4 52 4 13 4 73 4 -22 
4 37 3 39 4 49 3424 2073 300 MP stroke
4 7 4 55 4 31 3 33 4 2 4 75 4 6 4 43 
4 40 3 -18 4 54 4 31 4 42 4 -3 3 38 4 21 
4 40 4 69 4 33 4 10 3 27 4 59 4 7 4 69 
4 -37 3 60 4 9 4 39 4 -13 4 30 4 48 3 22 
4 58 4 -6 4 27 4 -8 3 52 4 7 4 13 4 7 
4 25 4 42 3 -10 4 10 4 23 4 -8 4 43 3 36 
4 8 4 43 4 -34 4 17 4 -28 3 31 4 4 4 7 
4 -31 4 21 3 5 4 -22 4 -17 4 17 4 -46 4 97 
3 -78 4 16 4 7 4 -13 4 -50 3 18 4 39 4 -29 
4 -35 4 -47 4 12 3 -4 4 -18 4 1 4 -33 4 -57 
3 24 4 -66 4 -8 4 -17 4 -26 4 -45 3 -18 4 19 
4 -45 4 -8 4 -13 3 -66 4 18 4 -39 4 -52 4 8 
4 -43 3 0 4 -67 4 -50 4 9 4 -25 3 -39 4 -16 
4 -5 4 -58 4 -46 4 -18 3 -44 4 -69 4 13 4 -62 
4 -7 3 -15 4 -22 4 -60 4 -14 4 -52 4 -42 3 20 
4 -70 4 -28 4 2 4 -50 3 -13 4 -39 4 -31 4 -36 
4 -11 4 -37 3 -33 4 -8 4 -60 4 -24 4 -8 3 -49 
4 4 4 -9 4 -51 4 -19 4 -39 3 22 4 -34 4 6 
4 -18 4 -6 3 -38 4 -57 4 10 4 20 4 26 4 -49 
3 24 4 -18 4 -67 4 63 4 -21 3 -29 4 20 4 -27 
4 30 4 24 4 -55 3 2 4 34 4 -14 4 -12 4 40 
3 -28 4 46 4 -25 4 39 4 -22 4 10 3 16 4 -5 
4 18 4 30 4 34 3 25 4 -14 4 50 4 -12 4 47 
4 -4 3 15 4 62 4 -32 4 16 4 62 3 -12 4 39 
4 42 4 30 4 26 4 10 3 38 4 80 4 -21 4 29 
4 -14 3 92 4 -44 4 54 4 88 4 43 4 8 3 22 
4 35 4 14 4 33 4 25 3 16 4 31 4 15 4 47 
4 122 4 -30 3 39 4 23 4 35 4 28 4 46 4 8 
3 51 4 30 4 -32 4 52 4 31 3 81 4 -10 4 38 
4 18 4 5 4 50 3 19 4 13 4 36 4 10 4 51 
3 10 4 4 4 15 4 30 4 0 4 16 3 49 4 -25 
4 47 4 17 4 2 3 28 4 12 4 -18 4 25 4 23 
4 -5 3 -16 4 2 4 -14 4 43 4 -26 3 68 4 -56 
4 37 4 -47 4 27 4 -24 3 -15 4 19 4 10 4 -44 
4 -32 3 36 4 5 4 -34 4 36 4 -51 4 23 3 -67 
4 11 4 -49 4 20 4 -11 3 -45 4 22 4 -44 4 -63 
4 -19 4 -42 3 41 4 -23 4 -44 4 -6 4 -54 3 32 
4 -61 4 8 4 -67 2282 1327 300 MP stroke
4 -16 4 -44 3 -26 4 -34 4 -37 4 -43 4 -12 3 -36 
4 -25 4 -5 4 -47 4 -68 4 -13 3 -13 4 -7 4 -48 
4 -13 4 -68 3 2 4 -55 4 -44 4 -45 4 -41 4 14 
3 -35 4 -21 4 -48 4 -13 4 -83 3 5 4 -44 4 -31 
4 -17 4 -22 4 -32 3 -6 4 -54 4 14 4 -21 4 -3 
3 -90 4 11 4 -39 4 8 4 13 4 -52 3 -85 4 32 
4 -32 4 -30 4 12 3 -25 4 -30 4 10 4 -51 4 21 
4 -16 3 -27 4 10 4 5 4 4 4 -43 3 48 4 -40 
4 -11 4 -12 4 22 4 10 3 -10 4 -14 4 59 4 -80 
4 28 3 31 4 20 4 -11 4 22 4 2 4 -9 3 59 
4 -31 4 37 4 0 4 6 3 -11 4 59 4 -51 4 102 
4 43 4 -44 3 33 4 -11 4 49 4 0 4 37 3 64 
4 -50 4 69 4 9 4 56 4 25 3 13 4 38 4 14 
4 16 4 71 3 26 4 6 4 9 4 48 4 -7 4 103 
3 4 4 32 4 55 4 23 4 38 3 15 4 39 4 5 
4 67 4 28 4 25 3 0 4 55 4 -25 4 34 4 94 
3 -40 4 85 4 31 4 49 4 32 4 -39 3 72 4 -9 
4 91 4 -16 4 25 3 47 4 41 4 31 4 3 4 29 
4 29 3 -1 4 23 4 41 4 -32 4 27 3 45 4 -4 
4 54 4 17 4 -3 4 22 3 -1 4 -18 4 50 4 -40 
4 58 3 -8 4 0 4 -19 4 67 4 -11 4 47 3 -101 
4 100 4 -52 4 -3 4 17 3 -7 4 -10 4 -20 4 12 
4 -5 4 28 3 -47 4 -43 4 30 4 -16 4 -3 3 1 
4 -60 4 39 4 -54 4 -75 4 52 3 -25 4 -23 4 -24 
4 -25 4 -28 3 16 4 -21 4 -39 4 -11 4 -34 4 -32 
3 -49 4 3 4 7 4 -18 4 -89 3 -9 4 12 4 -70 
4 -27 4 -52 4 -20 3 -24 4 -40 4 28 4 -81 4 -23 
3 -31 4 -49 4 -4 4 -26 4 -40 4 -28 3 -16 4 -77 
4 -4 4 -21 4 -50 3 -16 4 -6 4 -47 4 -48 4 -30 
4 -37 3 -28 4 -28 4 -26 4 -11 4 -14 3 -82 4 23 
4 -37 4 -46 4 -37 4 6 3 -66 4 28 4 -53 4 -7 
4 -28 3 -7 4 -21 4 -20 4 -59 4 -38 4 7 3 33 
4 -37 4 -30 4 -22 4 24 3 19 4 10 4 -93 4 -2 
4 5 4 -14 3 3 4 32 4 -52 4 11 4 25 3 -43 
4 18 4 1 4 14 4 14 4 -65 3 39 4 -8 4 10 
4 12 4 21 3 -24 4 45 4 17 4 5 4 29 4 31 
3 -41 4 47 4 22 4 23 4 -30 3 37 4 30 4 -18 
4 84 4 0 4 54 1140 2503 300 MP stroke
3 -8 4 19 4 11 4 81 4 13 3 74 4 -67 4 50 
4 -13 4 107 4 -2 3 48 4 -17 4 85 4 -20 4 0 
3 76 4 74 4 9 4 25 4 6 4 53 3 12 4 46 
4 9 4 71 4 -29 3 62 4 -3 4 74 4 37 4 11 
4 106 3 -13 4 16 4 1 4 29 4 61 3 18 4 53 
4 25 4 -7 4 82 4 -6 3 28 4 51 4 -12 4 24 
4 39 3 -21 4 22 4 36 4 59 4 -5 4 41 3 -13 
4 86 4 -62 4 23 4 -2 3 51 4 47 4 2 4 -1 
4 -1 4 -16 3 59 4 -23 4 21 4 -20 4 58 3 -31 
4 -23 4 0 4 31 4 -21 4 45 3 -2 4 -14 4 -21 
4 -2 4 -25 3 21 4 -7 4 -21 4 -6 4 -48 4 60 
3 -61 4 12 4 12 4 -115 4 33 3 -22 4 -19 4 29 
4 -57 4 5 4 -34 3 3 4 -14 4 -35 4 3 4 -45 
3 -68 4 18 4 -8 4 -27 4 -24 4 -65 3 -29 4 -7 
4 -46 4 -11 4 24 3 -130 4 64 4 -11 4 -105 4 -49 
4 -50 3 6 4 -19 4 -103 4 63 4 -62 659 1781 127 MP stroke
/c9 { 0.000000 0.500000 0.000000 sr} bdef
c9
4 -35 4 -6 4 -16 4 -13 4 -22 3 -14 4 -20 4 -15 
4 -6 4 -30 4 -30 3 -3 4 -11 4 -22 4 -7 4 -17 
3 -20 4 -5 4 -5 4 -30 4 -6 4 -23 3 -2 4 -28 
4 4 4 -17 4 -3 3 -1 4 2 4 -36 4 3 4 -10 
4 -22 3 -6 4 17 4 -20 4 -1 4 -2 3 9 4 -19 
4 -6 4 11 4 -27 4 7 3 22 4 -15 4 -4 4 5 
4 -3 3 2 4 0 4 3 4 -1 4 7 4 16 3 12 
4 -15 4 24 4 -6 4 1 3 12 4 4 4 11 4 13 
4 14 4 16 3 -14 4 34 4 8 4 -3 4 16 3 16 
4 21 4 2 4 17 4 16 4 19 3 14 4 9 4 8 
4 35 4 3 3 24 4 6 4 27 4 4 4 39 4 8 
3 9 4 22 4 22 4 9 4 28 3 21 4 16 4 3 
4 24 4 21 4 9 3 29 4 12 4 27 4 22 4 11 
3 15 4 13 4 9 4 20 4 16 4 33 3 11 4 21 
4 15 4 5 4 30 3 11 4 3 4 17 4 18 4 27 
4 4 3 22 4 6 4 14 4 7 4 17 3 1 4 7 
4 25 4 14 4 -4 4 21 3 3 4 19 4 2 4 -7 
4 6 3 1 4 30 4 2 4 -1 4 -4 4 11 3 6 
4 11 4 -26 4 7 4 -4 3 11 4 1 4 0 4 -3 
4 -9 4 3 3 3 4 -11 4 -5 4 -18 4 2 3 2 
4 -4 4 -9 4 -19 4 8 4 -7 3 -14 4 -8 4 -38 
4 5 4 2 3 -4 4 -24 4 -8 4 -20 4 -12 4 -2 
3 -22 4 -23 4 -7 4 -7 4 -13 3 -20 4 -2 4 -35 
4 -18 4 2 4 -37 3 -6 4 -20 4 -21 4 -10 4 -24 
3 -10 4 -20 4 -22 4 -17 4 -22 4 -13 3 -23 4 -20 
4 -11 4 -31 4 -2 3 -25 4 -15 4 -23 4 -9 4 -15 
4 -23 3 -17 4 -18 4 -33 4 8 4 -15 3 -23 4 -27 
4 1 4 -18 4 -10 4 -25 3 -18 4 -14 4 -14 4 -4 
4 -11 3 -33 4 8 4 -3 4 -18 4 -27 4 -14 3 -2 
4 -11 4 -9 4 4 4 -23 3 1 4 -6 4 -16 4 -11 
4 -6 4 2 3 -5 4 -3 4 2 4 -6 4 -9 3 -2 
4 3 4 1 4 -4 4 7 4 -8 3 -8 4 8 4 18 
4 -12 4 11 3 14 4 -10 4 9 4 17 4 4 4 -21 
3 15 4 25 4 4 4 4 4 11 3 3 4 10 4 27 
4 6 4 8 4 6 3 19 4 10 4 7 4 8 4 6 
3 24 4 17 4 18 4 25 4 13 4 5 3 13 4 17 
4 23 4 0 4 39 3 12 4 24 4 7 4 37 4 1 
4 22 3 22 4 12 3424 1887 300 MP stroke
4 17 4 24 4 20 3 10 4 13 4 25 4 14 4 30 
4 20 3 2 4 23 4 24 4 15 4 20 3 4 4 23 
4 15 4 28 4 8 4 12 3 20 4 22 4 18 4 17 
4 1 3 15 4 17 4 13 4 3 4 11 4 20 3 17 
4 13 4 3 4 13 4 -1 3 23 4 12 4 7 4 14 
4 0 4 15 3 -7 4 11 4 8 4 1 4 4 3 14 
4 3 4 5 4 -12 4 7 4 -16 3 28 4 -16 4 4 
4 -5 4 1 3 -11 4 -1 4 4 4 -3 4 -19 4 11 
3 -17 4 1 4 -4 4 -4 4 -20 3 -10 4 12 4 -24 
4 -13 4 -17 4 -5 3 -14 4 -12 4 2 4 -21 4 -17 
3 0 4 -33 4 0 4 -16 4 -21 4 -11 3 -16 4 1 
4 -29 4 -16 4 -5 3 -24 4 -8 4 -16 4 -17 4 -14 
4 -24 3 -8 4 -29 4 -31 4 1 4 -24 3 -14 4 -11 
4 -11 4 -31 4 -17 4 -20 3 -24 4 -14 4 -17 4 -24 
4 -5 3 -19 4 -12 4 -26 4 -14 4 -23 4 -16 3 -7 
4 -27 4 -12 4 -17 4 -20 3 -9 4 -24 4 -9 4 -14 
4 -17 4 -16 3 -20 4 0 4 -24 4 -6 4 -9 3 -14 
4 -10 4 -17 4 -12 4 -2 4 -4 3 -8 4 -4 4 -3 
4 -21 4 11 3 -15 4 -19 4 6 4 -2 4 11 4 -6 
3 -8 4 -4 4 -8 4 11 4 -7 3 2 4 -1 4 4 
4 2 4 15 4 -17 3 3 4 12 4 -3 4 2 4 17 
3 3 4 17 4 -7 4 22 4 -6 4 15 3 6 4 4 
4 21 4 2 4 13 3 22 4 -3 4 22 4 10 4 20 
4 8 3 9 4 25 4 15 4 2 4 25 3 -3 4 34 
4 2 4 23 4 29 4 16 3 15 4 27 4 6 4 14 
4 8 3 31 4 -2 4 23 4 27 4 24 4 33 3 2 
4 21 4 12 4 20 4 16 3 19 4 13 4 19 4 22 
4 24 4 8 3 19 4 28 4 9 4 19 4 18 4 7 
3 26 4 14 4 0 4 23 4 13 3 33 4 3 4 12 
4 11 4 11 4 13 3 11 4 16 4 5 4 16 4 17 
3 5 4 9 4 9 4 5 4 7 4 11 3 11 4 -8 
4 13 4 1 4 11 3 1 4 19 4 -16 4 15 4 -5 
4 5 3 -9 4 -3 4 1 4 12 4 -16 3 7 4 -5 
4 9 4 -19 4 13 4 -17 3 1 4 -12 4 3 4 -22 
4 -4 3 4 4 -11 4 -4 4 -4 4 -28 4 -2 3 -28 
4 9 4 -18 4 -8 4 -7 3 -25 4 9 4 -27 4 -15 
4 -22 4 -15 3 -4 4 -15 4 -21 4 -13 4 -26 3 0 
4 -26 4 -8 4 -20 2282 1618 300 MP stroke
4 -18 4 -29 3 -13 4 -15 4 -14 4 -24 4 -9 3 -27 
4 -9 4 -18 4 -24 4 -30 4 -16 3 -4 4 -14 4 -19 
4 -19 4 -22 3 -22 4 -16 4 -24 4 -21 4 -17 4 -5 
3 -20 4 -9 4 -27 4 -4 4 -26 3 -2 4 -34 4 -8 
4 -15 4 -6 4 -7 3 -15 4 -35 4 8 4 -15 4 -11 
3 -20 4 -6 4 -18 4 2 4 -12 4 -10 3 -24 4 -1 
4 -7 4 -7 4 3 3 -17 4 3 4 -8 4 -15 4 1 
4 1 3 -4 4 0 4 -3 4 14 4 -28 3 17 4 -2 
4 2 4 -4 4 10 4 4 3 -4 4 11 4 8 4 -9 
4 8 3 10 4 3 4 12 4 -5 4 25 4 10 3 5 
4 3 4 7 4 14 4 3 3 8 4 31 4 -20 4 41 
4 14 4 6 3 16 4 4 4 23 4 7 4 15 3 34 
4 -2 4 21 4 8 4 27 4 7 3 30 4 13 4 14 
4 21 4 25 3 18 4 9 4 16 4 16 4 18 4 34 
3 10 4 12 4 28 4 3 4 20 3 28 4 3 4 25 
4 26 4 21 4 17 3 -5 4 32 4 -4 4 33 4 22 
3 0 4 34 4 19 4 22 4 12 4 1 3 26 4 2 
4 29 4 8 4 2 3 19 4 22 4 9 4 15 4 13 
4 8 3 7 4 7 4 7 4 6 4 -1 3 25 4 -1 
4 14 4 0 4 16 4 3 3 12 4 -26 4 35 4 -19 
4 12 3 3 4 -1 4 -6 4 10 4 0 4 9 3 -16 
4 11 4 -22 4 5 4 0 3 -3 4 -3 4 -19 4 10 
4 -15 4 -13 3 -1 4 -17 4 0 4 -11 4 -9 3 -9 
4 -12 4 2 4 -24 4 -21 4 2 3 -16 4 -19 4 -8 
4 -7 4 -13 3 -19 4 -10 4 -10 4 -21 4 -18 4 -22 
3 -19 4 -9 4 -11 4 -2 4 -42 3 -11 4 -8 4 -32 
4 -11 4 -21 4 -17 3 -16 4 -16 4 -15 4 -24 4 -13 
3 -23 4 -18 4 -6 4 -20 4 -24 4 -17 3 -17 4 -27 
4 -11 4 -15 4 -18 3 -10 4 -24 4 -9 4 -23 4 -21 
4 -20 3 -9 4 -25 4 -2 4 -18 4 -8 3 -29 4 1 
4 -16 4 -18 4 -24 4 -11 3 -16 4 11 4 -23 4 -10 
4 -14 3 1 4 -2 4 -4 4 -35 4 -11 4 2 3 3 
4 -10 4 0 4 -18 4 7 3 9 4 -8 4 -18 4 -1 
4 5 4 0 3 -15 4 16 4 -14 4 5 4 8 3 -4 
4 -1 4 10 4 9 4 4 4 -6 3 17 4 -9 4 14 
4 10 4 12 3 -11 4 21 4 13 4 -2 4 28 4 9 
3 5 4 12 4 12 4 10 4 15 3 14 4 28 4 -16 
4 34 4 -1 4 40 1140 2145 300 MP stroke
3 1 4 19 4 2 4 42 4 1 3 20 4 5 4 32 
4 4 4 33 4 5 3 27 4 2 4 34 4 1 4 21 
3 14 4 35 4 5 4 25 4 14 4 19 3 31 4 12 
4 10 4 20 4 3 3 33 4 7 4 33 4 18 4 5 
4 46 3 -1 4 14 4 15 4 8 4 23 3 16 4 10 
4 14 4 9 4 35 4 0 3 19 4 11 4 19 4 -5 
4 16 3 -3 4 19 4 22 4 16 4 1 4 11 3 -5 
4 34 4 -17 4 12 4 -4 3 26 4 5 4 -4 4 0 
4 7 4 -8 3 25 4 -6 4 3 4 -10 4 13 3 -13 
4 0 4 -2 4 2 4 -7 4 -1 3 12 4 -18 4 -4 
4 2 4 -33 3 10 4 -9 4 -11 4 4 4 -25 4 12 
3 -23 4 1 4 -3 4 -36 4 7 3 -17 4 -22 4 7 
4 -17 4 -7 4 -16 3 -17 4 -13 4 -13 4 -13 4 -17 
3 -13 4 -28 4 9 4 -12 4 -33 4 -29 3 -22 4 -4 
4 -19 4 -30 4 15 3 -47 4 1 4 -8 4 -27 4 -14 
4 -14 3 -1 4 -6 4 -25 4 13 4 -14 659 1814 127 MP stroke
gr

c9
0 sg
2593 3654 mt 
(t) s
 269 1913 mt  -90 rotate
(f\(x\)) s
90 rotate
 639 3409 mt 
( ) s
4550  326 mt 
( ) s
1 sg
0 334 1067 0 0 -334 3440 678 4 MP
PP
-1067 0 0 334 1067 0 0 -334 3440 678 5 MP stroke
4 w
DO
SO
6 w
0 sg
3440  344 mt 4507  344 L
3440  678 mt 4507  678 L
4507  678 mt 4507  344 L
3440  678 mt 3440  344 L
3440  678 mt 4507  678 L
3440  678 mt 3440  344 L
3440  344 mt 4507  344 L
3440  678 mt 4507  678 L
4507  678 mt 4507  344 L
3440  678 mt 3440  344 L
3911  479 mt 
(FIR input) s
gs 3440 344 1068 335 rc
c8
362 0 3512 436 2 MP stroke
gr

c8
0 sg
3911  628 mt 
(FIR output) s
gs 3440 344 1068 335 rc
c9
362 0 3512 585 2 MP stroke
gr

c9

end %%Color Dict

eplot
%%EndObject

epage
end

showpage

%%Trailer
%%EOF
